Lab 1/prj/freq_div/simulation/qsim/freq_div.msim.vcd
$comment
	File created using the following command:
		vcd file freq_div.msim.vcd -direction
$end
$date
	Fri Apr 24 18:09:27 2020
$end
$version
	ModelSim Version 10.5b
$end
$timescale
	1ps
$end

$scope module freq_div_vlg_vec_tst $end
$var reg 1 ! clk $end
$var reg 1 " clr_n $end
$var wire 1 # clk_1Hz $end

$scope module i1 $end
$var wire 1 $ gnd $end
$var wire 1 % vcc $end
$var wire 1 & unknown $end
$var tri1 1 ' devclrn $end
$var tri1 1 ( devpor $end
$var tri1 1 ) devoe $end
$var wire 1 * clk_1Hz~output_o $end
$var wire 1 + clk~input_o $end
$var wire 1 , clk~inputclkctrl_outclk $end
$var wire 1 - Add0~0_combout $end
$var wire 1 . clr_n~input_o $end
$var wire 1 / clr_n~inputclkctrl_outclk $end
$var wire 1 0 Add0~1 $end
$var wire 1 1 Add0~2_combout $end
$var wire 1 2 clk_cnt~0_combout $end
$var wire 1 3 Add0~3 $end
$var wire 1 4 Add0~4_combout $end
$var wire 1 5 Add0~5 $end
$var wire 1 6 Add0~6_combout $end
$var wire 1 7 Add0~7 $end
$var wire 1 8 Add0~8_combout $end
$var wire 1 9 Add0~9 $end
$var wire 1 : Add0~10_combout $end
$var wire 1 ; Add0~11 $end
$var wire 1 < Add0~12_combout $end
$var wire 1 = Add0~13 $end
$var wire 1 > Add0~14_combout $end
$var wire 1 ? Add0~15 $end
$var wire 1 @ Add0~16_combout $end
$var wire 1 A Add0~17 $end
$var wire 1 B Add0~18_combout $end
$var wire 1 C Equal0~5_combout $end
$var wire 1 D Equal0~7_combout $end
$var wire 1 E Equal0~6_combout $end
$var wire 1 F Add0~19 $end
$var wire 1 G Add0~20_combout $end
$var wire 1 H Add0~21 $end
$var wire 1 I Add0~22_combout $end
$var wire 1 J Add0~23 $end
$var wire 1 K Add0~24_combout $end
$var wire 1 L Add0~25 $end
$var wire 1 M Add0~26_combout $end
$var wire 1 N Equal0~3_combout $end
$var wire 1 O Add0~27 $end
$var wire 1 P Add0~28_combout $end
$var wire 1 Q Add0~29 $end
$var wire 1 R Add0~30_combout $end
$var wire 1 S Add0~31 $end
$var wire 1 T Add0~32_combout $end
$var wire 1 U Add0~33 $end
$var wire 1 V Add0~34_combout $end
$var wire 1 W Add0~35 $end
$var wire 1 X Add0~36_combout $end
$var wire 1 Y Add0~37 $end
$var wire 1 Z Add0~38_combout $end
$var wire 1 [ Add0~39 $end
$var wire 1 \ Add0~40_combout $end
$var wire 1 ] Add0~41 $end
$var wire 1 ^ Add0~42_combout $end
$var wire 1 _ Add0~43 $end
$var wire 1 ` Add0~44_combout $end
$var wire 1 a Add0~45 $end
$var wire 1 b Add0~46_combout $end
$var wire 1 c Add0~47 $end
$var wire 1 d Add0~48_combout $end
$var wire 1 e Add0~49 $end
$var wire 1 f Add0~50_combout $end
$var wire 1 g Equal0~0_combout $end
$var wire 1 h Equal0~2_combout $end
$var wire 1 i Equal0~1_combout $end
$var wire 1 j Equal0~4_combout $end
$var wire 1 k Equal0~8_combout $end
$var wire 1 l clk_1Hz~0_combout $end
$var wire 1 m clk_1Hz~reg0_q $end
$var wire 1 n clk_cnt [25] $end
$var wire 1 o clk_cnt [24] $end
$var wire 1 p clk_cnt [23] $end
$var wire 1 q clk_cnt [22] $end
$var wire 1 r clk_cnt [21] $end
$var wire 1 s clk_cnt [20] $end
$var wire 1 t clk_cnt [19] $end
$var wire 1 u clk_cnt [18] $end
$var wire 1 v clk_cnt [17] $end
$var wire 1 w clk_cnt [16] $end
$var wire 1 x clk_cnt [15] $end
$var wire 1 y clk_cnt [14] $end
$var wire 1 z clk_cnt [13] $end
$var wire 1 { clk_cnt [12] $end
$var wire 1 | clk_cnt [11] $end
$var wire 1 } clk_cnt [10] $end
$var wire 1 ~ clk_cnt [9] $end
$var wire 1 !! clk_cnt [8] $end
$var wire 1 "! clk_cnt [7] $end
$var wire 1 #! clk_cnt [6] $end
$var wire 1 $! clk_cnt [5] $end
$var wire 1 %! clk_cnt [4] $end
$var wire 1 &! clk_cnt [3] $end
$var wire 1 '! clk_cnt [2] $end
$var wire 1 (! clk_cnt [1] $end
$var wire 1 )! clk_cnt [0] $end
$upscope $end
$upscope $end
$enddefinitions $end
#0
$dumpvars
1!
1"
0#
0$
1%
x&
1'
1(
1)
0*
1+
1,
1-
1.
1/
00
01
02
13
04
05
06
17
08
09
0:
1;
0<
0=
0>
1?
0@
0A
0B
1C
0D
1E
1F
0G
0H
0I
1J
0K
0L
0M
1N
1O
0P
0Q
0R
1S
0T
0U
0V
1W
0X
0Y
0Z
1[
0\
0]
0^
1_
0`
0a
0b
1c
0d
0e
0f
1g
1h
1i
1j
0k
0l
0m
0)!
0(!
0'!
0&!
0%!
0$!
0#!
0"!
0!!
0~
0}
0|
0{
0z
0y
0x
0w
0v
0u
0t
0s
0r
0q
0p
0o
0n
$end
#5000
0!
0+
0,
#10000
1!
1+
1,
1)!
1D
10
0-
1k
11
1l
#15000
0!
0+
0,
#20000
1!
1+
1,
0)!
1m
1*
0D
00
1#
1-
0l
0k
01
1l
#25000
0!
0+
0,
#30000
1!
1+
1,
1)!
1D
10
0-
1k
11
0l
#35000
0!
0+
0,
#40000
1!
1+
1,
0)!
0m
0*
0D
00
0#
1-
1l
0k
01
0l
#45000
0!
0+
0,
#50000
1!
1+
1,
1)!
1D
10
0-
1k
11
1l
#55000
0!
0+
0,
#60000
1!
1+
1,
0)!
1m
1*
0D
00
1#
1-
0l
0k
01
1l
#65000
0!
0+
0,
#70000
1!
1+
1,
1)!
1D
10
0-
1k
11
0l
#75000
0!
0+
0,
#80000
1!
1+
1,
0)!
0m
0*
0D
00
0#
1-
1l
0k
01
0l
#85000
0!
0+
0,
#90000
1!
1+
1,
1)!
1D
10
0-
1k
11
1l
#95000
0!
0+
0,
#100000
1!
1+
1,
0)!
1m
1*
0D
00
1#
1-
0l
0k
01
1l
#105000
0!
0+
0,
#110000
1!
1+
1,
1)!
1D
10
0-
1k
11
0l
#115000
0!
0+
0,
#120000
1!
1+
1,
0)!
0m
0*
0D
00
0#
1-
1l
0k
01
0l
#125000
0!
0+
0,
#130000
1!
1+
1,
1)!
1D
10
0-
1k
11
1l
#135000
0!
0+
0,
#140000
1!
1+
1,
0)!
1m
1*
0D
00
1#
1-
0l
0k
01
1l
#145000
0!
0+
0,
#150000
1!
1+
1,
1)!
1D
10
0-
1k
11
0l
#155000
0!
0+
0,
#160000
1!
1+
1,
0)!
0m
0*
0D
00
0#
1-
1l
0k
01
0l
#165000
0!
0+
0,
#170000
1!
1+
1,
1)!
1D
10
0-
1k
11
1l
#175000
0!
0+
0,
#180000
1!
1+
1,
0)!
1m
1*
0D
00
1#
1-
0l
0k
01
1l
#185000
0!
0+
0,
#190000
1!
1+
1,
1)!
1D
10
0-
1k
11
0l
#195000
0!
0+
0,
#200000
1!
1+
1,
0)!
0m
0*
0D
00
0#
1-
1l
0k
01
0l
#205000
0!
0+
0,
#210000
1!
1+
1,
1)!
1D
10
0-
1k
11
1l
#215000
0!
0+
0,
#220000
1!
1+
1,
0)!
1m
1*
0D
00
1#
1-
0l
0k
01
1l
#225000
0!
0+
0,
#230000
1!
1+
1,
1)!
1D
10
0-
1k
11
0l
#235000
0!
0+
0,
#240000
1!
1+
1,
0)!
0m
0*
0D
00
0#
1-
1l
0k
01
0l
#245000
0!
0+
0,
#250000
1!
1+
1,
1)!
1D
10
0-
1k
11
1l
#255000
0!
0+
0,
#260000
1!
1+
1,
0)!
1m
1*
0D
00
1#
1-
0l
0k
01
1l
#265000
0!
0+
0,
#270000
0"
1!
0.
1+
0/
1,
0m
0*
0#
0l
#275000
0!
0+
0,
#280000
1!
1+
1,
#285000
0!
0+
0,
#290000
1!
1+
1,
#295000
0!
0+
0,
#300000
1!
1+
1,
#305000
0!
0+
0,
#310000
1!
1+
1,
#315000
0!
0+
0,
#320000
1!
1+
1,
#325000
0!
0+
0,
#330000
1!
1+
1,
#335000
0!
0+
0,
#340000
1"
1!
1.
1+
1/
1,
1)!
1D
10
0-
1k
11
1l
#345000
0!
0+
0,
#350000
1!
1+
1,
0)!
1m
1*
0D
00
1#
1-
0l
0k
01
1l
#355000
0!
0+
0,
#360000
1!
1+
1,
1)!
1D
10
0-
1k
11
0l
#365000
0!
0+
0,
#370000
1!
1+
1,
0)!
0m
0*
0D
00
0#
1-
1l
0k
01
0l
#375000
0!
0+
0,
#380000
1!
1+
1,
1)!
1D
10
0-
1k
11
1l
#385000
0!
0+
0,
#390000
1!
1+
1,
0)!
1m
1*
0D
00
1#
1-
0l
0k
01
1l
#395000
0!
0+
0,
#400000
1!
1+
1,
1)!
1D
10
0-
1k
11
0l
#405000
0!
0+
0,
#410000
1!
1+
1,
0)!
0m
0*
0D
00
0#
1-
1l
0k
01
0l
#415000
0!
0+
0,
#420000
1!
1+
1,
1)!
1D
10
0-
1k
11
1l
#425000
0!
0+
0,
#430000
1!
1+
1,
0)!
1m
1*
0D
00
1#
1-
0l
0k
01
1l
#435000
0!
0+
0,
#440000
1!
1+
1,
1)!
1D
10
0-
1k
11
0l
#445000
0!
0+
0,
#450000
1!
1+
1,
0)!
0m
0*
0D
00
0#
1-
1l
0k
01
0l
#455000
0!
0+
0,
#460000
1!
1+
1,
1)!
1D
10
0-
1k
11
1l
#465000
0!
0+
0,
#470000
1!
1+
1,
0)!
1m
1*
0D
00
1#
1-
0l
0k
01
1l
#475000
0!
0+
0,
#480000
1!
1+
1,
1)!
1D
10
0-
1k
11
0l
#485000
0!
0+
0,
#490000
1!
1+
1,
0)!
0m
0*
0D
00
0#
1-
1l
0k
01
0l
#495000
0!
0+
0,
#500000
1!
1+
1,
1)!
1D
10
0-
1k
11
1l
#505000
0!
0+
0,
#510000
1!
1+
1,
0)!
1m
1*
0D
00
1#
1-
0l
0k
01
1l
#515000
0!
0+
0,
#520000
1!
1+
1,
1)!
1D
10
0-
1k
11
0l
#525000
0!
0+
0,
#530000
1!
1+
1,
0)!
0m
0*
0D
00
0#
1-
1l
0k
01
0l
#535000
0!
0+
0,
#540000
1!
1+
1,
1)!
1D
10
0-
1k
11
1l
#545000
0!
0+
0,
#550000
1!
1+
1,
0)!
1m
1*
0D
00
1#
1-
0l
0k
01
1l
#555000
0!
0+
0,
#560000
1!
1+
1,
1)!
1D
10
0-
1k
11
0l
#565000
0!
0+
0,
#570000
1!
1+
1,
0)!
0m
0*
0D
00
0#
1-
1l
0k
01
0l
#575000
0!
0+
0,
#580000
1!
1+
1,
1)!
1D
10
0-
1k
11
1l
#585000
0!
0+
0,
#590000
1!
1+
1,
0)!
1m
1*
0D
00
1#
1-
0l
0k
01
1l
#595000
0!
0+
0,
#600000
1!
1+
1,
1)!
1D
10
0-
1k
11
0l
#605000
0!
0+
0,
#610000
1!
1+
1,
0)!
0m
0*
0D
00
0#
1-
1l
0k
01
0l
#615000
0!
0+
0,
#620000
1!
1+
1,
1)!
1D
10
0-
1k
11
1l
#625000
0!
0+
0,
#630000
1!
1+
1,
0)!
1m
1*
0D
00
1#
1-
0l
0k
01
1l
#635000
0!
0+
0,
#640000
1!
1+
1,
1)!
1D
10
0-
1k
11
0l
#645000
0!
0+
0,
#650000
1!
1+
1,
0)!
0m
0*
0D
00
0#
1-
1l
0k
01
0l
#655000
0!
0+
0,
#660000
1!
1+
1,
1)!
1D
10
0-
1k
11
1l
#665000
0!
0+
0,
#670000
1!
1+
1,
0)!
1m
1*
0D
00
1#
1-
0l
0k
01
1l
#675000
0!
0+
0,
#680000
1!
1+
1,
1)!
1D
10
0-
1k
11
0l
#685000
0!
0+
0,
#690000
1!
1+
1,
0)!
0m
0*
0D
00
0#
1-
1l
0k
01
0l
#695000
0!
0+
0,
#700000
1!
1+
1,
1)!
1D
10
0-
1k
11
1l
#705000
0!
0+
0,
#710000
1!
1+
1,
0)!
1m
1*
0D
00
1#
1-
0l
0k
01
1l
#715000
0!
0+
0,
#720000
1!
1+
1,
1)!
1D
10
0-
1k
11
0l
#725000
0!
0+
0,
#730000
1!
1+
1,
0)!
0m
0*
0D
00
0#
1-
1l
0k
01
0l
#735000
0!
0+
0,
#740000
1!
1+
1,
1)!
1D
10
0-
1k
11
1l
#745000
0!
0+
0,
#750000
1!
1+
1,
0)!
1m
1*
0D
00
1#
1-
0l
0k
01
1l
#755000
0!
0+
0,
#760000
1!
1+
1,
1)!
1D
10
0-
1k
11
0l
#765000
0!
0+
0,
#770000
1!
1+
1,
0)!
0m
0*
0D
00
0#
1-
1l
0k
01
0l
#775000
0!
0+
0,
#780000
1!
1+
1,
1)!
1D
10
0-
1k
11
1l
#785000
0!
0+
0,
#790000
1!
1+
1,
0)!
1m
1*
0D
00
1#
1-
0l
0k
01
1l
#795000
0!
0+
0,
#800000
1!
1+
1,
1)!
1D
10
0-
1k
11
0l
#805000
0!
0+
0,
#810000
1!
1+
1,
0)!
0m
0*
0D
00
0#
1-
1l
0k
01
0l
#815000
0!
0+
0,
#820000
1!
1+
1,
1)!
1D
10
0-
1k
11
1l
#825000
0!
0+
0,
#830000
1!
1+
1,
0)!
1m
1*
0D
00
1#
1-
0l
0k
01
1l
#835000
0!
0+
0,
#840000
1!
1+
1,
1)!
1D
10
0-
1k
11
0l
#845000
0!
0+
0,
#850000
1!
1+
1,
0)!
0m
0*
0D
00
0#
1-
1l
0k
01
0l
#855000
0!
0+
0,
#860000
1!
1+
1,
1)!
1D
10
0-
1k
11
1l
#865000
0!
0+
0,
#870000
1!
1+
1,
0)!
1m
1*
0D
00
1#
1-
0l
0k
01
1l
#875000
0!
0+
0,
#880000
1!
1+
1,
1)!
1D
10
0-
1k
11
0l
#885000
0!
0+
0,
#890000
1!
1+
1,
0)!
0m
0*
0D
00
0#
1-
1l
0k
01
0l
#895000
0!
0+
0,
#900000
1!
1+
1,
1)!
1D
10
0-
1k
11
1l
#905000
0!
0+
0,
#910000
1!
1+
1,
0)!
1m
1*
0D
00
1#
1-
0l
0k
01
1l
#915000
0!
0+
0,
#920000
1!
1+
1,
1)!
1D
10
0-
1k
11
0l
#925000
0!
0+
0,
#930000
1!
1+
1,
0)!
0m
0*
0D
00
0#
1-
1l
0k
01
0l
#935000
0!
0+
0,
#940000
1!
1+
1,
1)!
1D
10
0-
1k
11
1l
#945000
0!
0+
0,
#950000
1!
1+
1,
0)!
1m
1*
0D
00
1#
1-
0l
0k
01
1l
#955000
0!
0+
0,
#960000
1!
1+
1,
1)!
1D
10
0-
1k
11
0l
#965000
0!
0+
0,
#970000
1!
1+
1,
0)!
0m
0*
0D
00
0#
1-
1l
0k
01
0l
#975000
0!
0+
0,
#980000
1!
1+
1,
1)!
1D
10
0-
1k
11
1l
#985000
0!
0+
0,
#990000
1!
1+
1,
0)!
1m
1*
0D
00
1#
1-
0l
0k
01
1l
#995000
0!
0+
0,
