Lab 2/prj/counter_60/simulation/qsim/counter_60.msim.vcd
$comment
	File created using the following command:
		vcd file counter_60.msim.vcd -direction
$end
$date
	Fri May 01 08:51:35 2020
$end
$version
	ModelSim Version 10.5b
$end
$timescale
	1ps
$end

$scope module counter_60_vlg_vec_tst $end
$var reg 1 ! clk $end
$var reg 1 " clr_n $end
$var reg 1 # en $end
$var wire 1 $ Q_01 [3] $end
$var wire 1 % Q_01 [2] $end
$var wire 1 & Q_01 [1] $end
$var wire 1 ' Q_01 [0] $end
$var wire 1 ( Q_10 [3] $end
$var wire 1 ) Q_10 [2] $end
$var wire 1 * Q_10 [1] $end
$var wire 1 + Q_10 [0] $end
$var wire 1 , cout $end

$scope module i1 $end
$var wire 1 - gnd $end
$var wire 1 . vcc $end
$var wire 1 / unknown $end
$var tri1 1 0 devclrn $end
$var tri1 1 1 devpor $end
$var tri1 1 2 devoe $end
$var wire 1 3 Q_10[0]~output_o $end
$var wire 1 4 Q_10[1]~output_o $end
$var wire 1 5 Q_10[2]~output_o $end
$var wire 1 6 Q_10[3]~output_o $end
$var wire 1 7 Q_01[0]~output_o $end
$var wire 1 8 Q_01[1]~output_o $end
$var wire 1 9 Q_01[2]~output_o $end
$var wire 1 : Q_01[3]~output_o $end
$var wire 1 ; cout~output_o $end
$var wire 1 < clk~input_o $end
$var wire 1 = clk~inputclkctrl_outclk $end
$var wire 1 > en~input_o $end
$var wire 1 ? Q_01[0]~3_combout $end
$var wire 1 @ clr_n~input_o $end
$var wire 1 A clr_n~inputclkctrl_outclk $end
$var wire 1 B Q_01[0]~reg0_q $end
$var wire 1 C Q_01~1_combout $end
$var wire 1 D Q_01[2]~reg0_q $end
$var wire 1 E Q_01~2_combout $end
$var wire 1 F Q_01[3]~reg0_q $end
$var wire 1 G Q_01~0_combout $end
$var wire 1 H Q_01[1]~reg0_q $end
$var wire 1 I Equal1~0_combout $end
$var wire 1 J Q_10[0]~0_combout $end
$var wire 1 K Q_10[0]~reg0_q $end
$var wire 1 L Add0~0_combout $end
$var wire 1 M Q_10~4_combout $end
$var wire 1 N Q_10[0]~2_combout $end
$var wire 1 O Q_10[0]~3_combout $end
$var wire 1 P Q_10[2]~reg0_q $end
$var wire 1 Q Q_10[3]~5_combout $end
$var wire 1 R Q_10[3]~reg0_q $end
$var wire 1 S always0~0_combout $end
$var wire 1 T Q_10~1_combout $end
$var wire 1 U Q_10[1]~reg0_q $end
$var wire 1 V cout~0_combout $end
$var wire 1 W cout~reg0_q $end
$upscope $end
$upscope $end
$enddefinitions $end
#0
$dumpvars
0!
1"
1#
0'
0&
0%
0$
0+
0*
0)
0(
0,
0-
1.
x/
10
11
12
03
04
05
06
07
08
09
0:
0;
0<
0=
1>
1?
1@
1A
0B
0C
0D
0E
0F
0G
0H
0I
0J
0K
0L
0M
1N
0O
0P
0Q
0R
0S
0T
0U
0V
0W
$end
#5000
1!
1<
1=
1B
17
1'
1G
0?
#10000
0!
0<
0=
#15000
1!
1<
1=
1H
0B
07
18
1&
0'
1?
#20000
0!
0<
0=
#25000
1!
1<
1=
1B
17
1'
0G
1C
0?
#30000
0!
0<
0=
#35000
1!
1<
1=
0H
1D
0B
07
19
08
0N
0&
1%
0'
1?
#40000
0!
0<
0=
#45000
1!
1<
1=
1B
17
1'
1G
0?
#50000
0!
0<
0=
#55000
1!
1<
1=
1H
0B
07
18
1&
0'
1?
#60000
0!
0<
0=
#65000
1!
1<
1=
1B
17
1'
0G
1E
0C
0?
#70000
0!
0<
0=
#75000
1!
1<
1=
0H
1F
0D
0B
07
09
1:
08
1N
0&
1$
0%
0'
1?
#80000
0!
0<
0=
#85000
1!
1<
1=
1B
17
1O
1I
1'
0E
0?
1J
#90000
0!
0<
0=
#95000
1!
1<
1=
1K
0F
0B
07
0:
13
0O
0I
1+
0$
0'
1T
0J
1?
1J
#100000
0!
0<
0=
#105000
1!
1<
1=
1B
17
1'
1G
0?
#110000
0!
0<
0=
#115000
1!
1<
1=
1H
0B
07
18
1&
0'
1?
#120000
0!
0<
0=
#125000
1!
1<
1=
1B
17
1'
0G
1C
0?
#130000
0!
0<
0=
#135000
1!
1<
1=
0H
1D
0B
07
19
08
0N
0&
1%
0'
1?
#140000
0!
0<
0=
#145000
1!
1<
1=
1B
17
1'
1G
0?
#150000
0!
0<
0=
#155000
1!
1<
1=
1H
0B
07
18
1&
0'
1?
#160000
0!
0<
0=
#165000
1!
1<
1=
1B
17
1'
0G
1E
0C
0?
#170000
0!
0<
0=
#175000
1!
1<
1=
0H
1F
0D
0B
07
09
1:
08
1N
0&
1$
0%
0'
1?
#180000
0!
0<
0=
#185000
1!
1<
1=
1B
17
1O
1I
1'
0E
0?
0J
#190000
0!
0<
0=
#195000
1!
1<
1=
1U
0K
0F
0B
07
0:
03
14
0O
0I
1*
0+
0$
0'
1J
1?
0J
#200000
0!
0<
0=
#205000
1!
1<
1=
1B
17
1'
1G
0?
#210000
0!
0<
0=
#215000
1!
1<
1=
1H
0B
07
18
1&
0'
1?
#220000
0!
0<
0=
#225000
1!
1<
1=
1B
17
1'
0G
1C
0?
#230000
0!
0<
0=
#235000
1!
1<
1=
0H
1D
0B
07
19
08
0N
0&
1%
0'
1?
#240000
0!
0<
0=
#245000
1!
1<
1=
1B
17
1'
1G
0?
#250000
0!
0<
0=
#255000
1!
1<
1=
1H
0B
07
18
1&
0'
1?
#260000
0!
0<
0=
#265000
1!
1<
1=
1B
17
1'
0G
1E
0C
0?
#270000
0!
0<
0=
#275000
1!
1<
1=
0H
1F
0D
0B
07
09
1:
08
1N
0&
1$
0%
0'
1?
#280000
0!
0<
0=
#285000
1!
1<
1=
1B
17
1O
1I
1'
0E
0?
1J
#290000
0!
0<
0=
#295000
1!
1<
1=
1K
0F
0B
07
0:
13
1L
0O
0I
1+
0$
0'
0T
0J
1?
1M
1J
#300000
0!
0<
0=
#305000
1!
1<
1=
1B
17
1'
1G
0?
#310000
0!
0<
0=
#315000
1!
1<
1=
1H
0B
07
18
1&
0'
1?
#320000
0!
0<
0=
#325000
1!
1<
1=
1B
17
1'
0G
1C
0?
#330000
0!
0<
0=
#335000
1!
1<
1=
0H
1D
0B
07
19
08
0N
0&
1%
0'
1?
#340000
0!
0<
0=
#345000
1!
1<
1=
1B
17
1'
1G
0?
#350000
0!
0<
0=
#355000
1!
1<
1=
1H
0B
07
18
1&
0'
1?
#360000
0!
0<
0=
#365000
1!
1<
1=
1B
17
1'
0G
1E
0C
0?
#370000
0!
0<
0=
#375000
1!
1<
1=
0H
1F
0D
0B
07
09
1:
08
1N
0&
1$
0%
0'
1?
#380000
0!
0<
0=
#385000
1!
1<
1=
1B
17
1O
1I
1'
0E
0?
0J
#390000
0!
0<
0=
#395000
1!
1<
1=
0U
1P
0K
0F
0B
07
0:
03
15
04
0L
0O
0I
0*
1)
0+
0$
0'
1Q
0M
1J
1?
0Q
1M
0J
#400000
0!
0<
0=
#405000
1!
1<
1=
1B
17
1'
1G
0?
#410000
0!
0<
0=
#415000
1!
1<
1=
1H
0B
07
18
1&
0'
1?
#420000
0!
0<
0=
#425000
1!
1<
1=
1B
17
1'
0G
1C
0?
#430000
0!
0<
0=
#435000
1!
1<
1=
0H
1D
0B
07
19
08
0N
0&
1%
0'
1?
#440000
0!
0<
0=
#445000
1!
1<
1=
1B
17
1'
1G
0?
#450000
0!
0<
0=
#455000
1!
1<
1=
1H
0B
07
18
1&
0'
1?
#460000
0!
0<
0=
#465000
1!
1<
1=
1B
17
1'
0G
1E
0C
0?
#470000
0!
0<
0=
#475000
1!
1<
1=
0H
1F
0D
0B
07
09
1:
08
1N
0&
1$
0%
0'
1?
#480000
0!
0<
0=
#485000
1!
1<
1=
1B
17
1O
1I
1'
0E
0?
1J
#490000
0!
0<
0=
#495000
1!
1<
1=
1K
0F
0B
07
0:
13
1S
0O
0I
1+
0$
0'
1T
0J
1?
1J
#500000
0!
0<
0=
#505000
1!
1<
1=
1B
17
1'
1G
0?
#510000
0!
0<
0=
#515000
1!
1<
1=
1H
0B
07
18
1&
0'
1?
#520000
0!
0<
0=
#525000
1!
1<
1=
1B
17
1'
0G
1C
0?
#530000
0!
0<
0=
#535000
1!
1<
1=
0H
1D
0B
07
19
08
0N
0&
1%
0'
1?
#540000
0!
0<
0=
#545000
1!
1<
1=
1B
17
1'
1G
0?
#550000
0!
0<
0=
#555000
1!
1<
1=
1H
0B
07
18
1&
0'
1?
#560000
0!
0<
0=
#565000
1!
1<
1=
1B
17
1'
0G
1E
0C
0?
#570000
0!
0<
0=
#575000
1!
1<
1=
0H
1F
0D
0B
07
09
1:
08
1N
0&
1$
0%
0'
1?
#580000
0!
0<
0=
#585000
1!
1<
1=
1B
17
1O
1I
1'
0E
0?
1V
0T
0M
0J
#590000
0!
0<
0=
#595000
1!
1<
1=
1W
0P
0K
0F
0B
07
0:
03
05
1;
0S
0O
0I
1,
0)
0+
0$
0'
1M
1T
1J
1?
0V
0T
0M
0J
#600000
0!
0<
0=
#605000
1!
1<
1=
0W
1B
17
0;
0,
1'
1G
0?
#610000
0!
0<
0=
#615000
1!
1<
1=
1H
0B
07
18
1&
0'
1?
#620000
0!
0<
0=
#625000
1!
1<
1=
1B
17
1'
0G
1C
0?
#630000
0!
0<
0=
#635000
1!
1<
1=
0H
1D
0B
07
19
08
0N
0&
1%
0'
1?
#640000
0!
0<
0=
#645000
1!
1<
1=
1B
17
1'
1G
0?
#650000
0!
0<
0=
#655000
1!
1<
1=
1H
0B
07
18
1&
0'
1?
#660000
0!
0<
0=
#665000
1!
1<
1=
1B
17
1'
0G
1E
0C
0?
#670000
0!
0<
0=
#675000
1!
1<
1=
0H
1F
0D
0B
07
09
1:
08
1N
0&
1$
0%
0'
1?
#680000
0!
0<
0=
#685000
1!
1<
1=
1B
17
1O
1I
1'
0E
0?
1J
#690000
0!
0<
0=
#695000
1!
1<
1=
1K
0F
0B
07
0:
13
0O
0I
1+
0$
0'
1T
0J
1?
1J
#700000
0!
0<
0=
#705000
1!
1<
1=
1B
17
1'
1G
0?
#710000
0!
0<
0=
#715000
1!
1<
1=
1H
0B
07
18
1&
0'
1?
#720000
0!
0<
0=
#725000
1!
1<
1=
1B
17
1'
0G
1C
0?
#730000
0!
0<
0=
#735000
1!
1<
1=
0H
1D
0B
07
19
08
0N
0&
1%
0'
1?
#740000
0!
0<
0=
#745000
1!
1<
1=
1B
17
1'
1G
0?
#750000
0!
0<
0=
#755000
1!
1<
1=
1H
0B
07
18
1&
0'
1?
#760000
0!
0<
0=
#765000
1!
1<
1=
1B
17
1'
0G
1E
0C
0?
#770000
0!
0<
0=
#775000
1!
1<
1=
0H
1F
0D
0B
07
09
1:
08
1N
0&
1$
0%
0'
1?
#780000
0!
0<
0=
#785000
1!
1<
1=
1B
17
1O
1I
1'
0E
0?
0J
#790000
0!
0<
0=
#795000
1!
1<
1=
1U
0K
0F
0B
07
0:
03
14
0O
0I
1*
0+
0$
0'
1J
1?
0J
#800000
0!
0<
0=
#805000
1!
1<
1=
1B
17
1'
1G
0?
#810000
0!
0<
0=
#815000
1!
1<
1=
1H
0B
07
18
1&
0'
1?
#820000
0!
0<
0=
#825000
1!
1<
1=
1B
17
1'
0G
1C
0?
#830000
0!
0<
0=
#835000
1!
1<
1=
0H
1D
0B
07
19
08
0N
0&
1%
0'
1?
#840000
0!
0<
0=
#845000
1!
1<
1=
1B
17
1'
1G
0?
#850000
0!
0<
0=
#855000
1!
1<
1=
1H
0B
07
18
1&
0'
1?
#860000
0!
0<
0=
#865000
1!
1<
1=
1B
17
1'
0G
1E
0C
0?
#870000
0!
0<
0=
#875000
1!
1<
1=
0H
1F
0D
0B
07
09
1:
08
1N
0&
1$
0%
0'
1?
#880000
0!
0<
0=
#885000
1!
1<
1=
1B
17
1O
1I
1'
0E
0?
1J
#890000
0!
0<
0=
#895000
1!
1<
1=
1K
0F
0B
07
0:
13
1L
0O
0I
1+
0$
0'
0T
0J
1?
1M
1J
#900000
0!
0<
0=
#905000
1!
1<
1=
1B
17
1'
1G
0?
#910000
0!
0<
0=
#915000
1!
1<
1=
1H
0B
07
18
1&
0'
1?
#920000
0!
0<
0=
#925000
1!
1<
1=
1B
17
1'
0G
1C
0?
#930000
0!
0<
0=
#935000
1!
1<
1=
0H
1D
0B
07
19
08
0N
0&
1%
0'
1?
#940000
0!
0<
0=
#945000
1!
1<
1=
1B
17
1'
1G
0?
#950000
0!
0<
0=
#955000
1!
1<
1=
1H
0B
07
18
1&
0'
1?
#960000
0!
0<
0=
#965000
1!
1<
1=
1B
17
1'
0G
1E
0C
0?
#970000
0!
0<
0=
#975000
1!
1<
1=
0H
1F
0D
0B
07
09
1:
08
1N
0&
1$
0%
0'
1?
#980000
0!
0<
0=
#985000
1!
1<
1=
1B
17
1O
1I
1'
0E
0?
0J
#990000
0!
0<
0=
#995000
1!
1<
1=
0U
1P
0K
0F
0B
07
0:
03
15
04
0L
0O
0I
0*
1)
0+
0$
0'
1Q
0M
1J
1?
0Q
1M
0J
