Lab 1/prj/decoder_3_8/simulation/qsim/decoder_3_8.msim.vcd
$comment
	File created using the following command:
		vcd file decoder_3_8.msim.vcd -direction
$end
$date
	Sat Apr 25 16:50:56 2020
$end
$version
	ModelSim Version 10.5b
$end
$timescale
	1ps
$end

$scope module decoder_3_8_vlg_vec_tst $end
$var reg 1 ! enable $end
$var reg 3 " x [2:0] $end
$var wire 1 # y [7] $end
$var wire 1 $ y [6] $end
$var wire 1 % y [5] $end
$var wire 1 & y [4] $end
$var wire 1 ' y [3] $end
$var wire 1 ( y [2] $end
$var wire 1 ) y [1] $end
$var wire 1 * y [0] $end

$scope module i1 $end
$var wire 1 + gnd $end
$var wire 1 , vcc $end
$var wire 1 - unknown $end
$var tri1 1 . devclrn $end
$var tri1 1 / devpor $end
$var tri1 1 0 devoe $end
$var wire 1 1 y[0]~output_o $end
$var wire 1 2 y[1]~output_o $end
$var wire 1 3 y[2]~output_o $end
$var wire 1 4 y[3]~output_o $end
$var wire 1 5 y[4]~output_o $end
$var wire 1 6 y[5]~output_o $end
$var wire 1 7 y[6]~output_o $end
$var wire 1 8 y[7]~output_o $end
$var wire 1 9 x[2]~input_o $end
$var wire 1 : x[0]~input_o $end
$var wire 1 ; x[1]~input_o $end
$var wire 1 < enable~input_o $end
$var wire 1 = y~0_combout $end
$var wire 1 > y~1_combout $end
$var wire 1 ? y~2_combout $end
$var wire 1 @ y~3_combout $end
$var wire 1 A y~4_combout $end
$var wire 1 B y~5_combout $end
$var wire 1 C y~6_combout $end
$var wire 1 D y~7_combout $end
$upscope $end
$upscope $end
$enddefinitions $end
#0
$dumpvars
1!
b0 "
1*
0)
0(
0'
0&
0%
0$
0#
0+
1,
x-
1.
1/
10
11
02
03
04
05
06
07
08
09
0:
0;
1<
1=
0>
0?
0@
0A
0B
0C
0D
$end
#5000
b1 "
1:
1>
0=
01
12
1)
0*
#10000
b11 "
b10 "
0:
1;
1?
0>
02
13
1(
0)
#15000
b11 "
1:
1@
0?
03
14
1'
0(
#20000
b111 "
b101 "
b100 "
0:
0;
19
1A
0@
04
15
1&
0'
#25000
b101 "
1:
1B
0A
05
16
1%
0&
#30000
b111 "
b110 "
0:
1;
1C
0B
06
17
1$
0%
#35000
b111 "
1:
1D
0C
07
18
1#
0$
#40000
b11 "
b1 "
b0 "
0:
0;
09
0D
1=
11
08
0#
1*
#45000
b1 "
1:
1>
0=
01
12
1)
0*
#50000
b11 "
b10 "
0:
1;
1?
0>
02
13
1(
0)
#55000
b11 "
1:
1@
0?
03
14
1'
0(
#60000
b111 "
b101 "
b100 "
0:
0;
19
1A
0@
04
15
1&
0'
#65000
b101 "
1:
1B
0A
05
16
1%
0&
#70000
b111 "
b110 "
0:
1;
1C
0B
06
17
1$
0%
#75000
b111 "
1:
1D
0C
07
18
1#
0$
#80000
b11 "
b1 "
b0 "
0:
0;
09
0D
1=
11
08
0#
1*
#85000
b1 "
1:
1>
0=
01
12
1)
0*
#90000
b11 "
b10 "
0:
1;
1?
0>
02
13
1(
0)
#95000
b11 "
1:
1@
0?
03
14
1'
0(
#100000
b111 "
b101 "
b100 "
0:
0;
19
1A
0@
04
15
1&
0'
#105000
b101 "
1:
1B
0A
05
16
1%
0&
#110000
b111 "
b110 "
0:
1;
1C
0B
06
17
1$
0%
#115000
b111 "
1:
1D
0C
07
18
1#
0$
#120000
0!
b11 "
b1 "
b0 "
0<
0:
0;
09
0D
08
0#
#125000
b1 "
1:
#130000
b11 "
b10 "
0:
1;
#135000
b11 "
1:
#140000
b111 "
b101 "
b100 "
0:
0;
19
#145000
b101 "
1:
#150000
b111 "
b110 "
0:
1;
#155000
b111 "
1:
#160000
b11 "
b1 "
b0 "
0:
0;
09
#165000
b1 "
1:
#170000
b11 "
b10 "
0:
1;
#175000
b11 "
1:
#180000
b111 "
b101 "
b100 "
0:
0;
19
#185000
b101 "
1:
#190000
b111 "
b110 "
0:
1;
#195000
b111 "
1:
#200000
b11 "
b1 "
b0 "
0:
0;
09
#205000
b1 "
1:
#210000
b11 "
b10 "
0:
1;
#215000
b11 "
1:
#220000
b111 "
b101 "
b100 "
0:
0;
19
#225000
b101 "
1:
#230000
b111 "
b110 "
0:
1;
#235000
b111 "
1:
#240000
1!
b11 "
b1 "
b0 "
1<
0:
0;
09
1=
11
1*
#245000
b1 "
1:
1>
0=
01
12
1)
0*
#250000
b11 "
b10 "
0:
1;
1?
0>
02
13
1(
0)
#255000
b11 "
1:
1@
0?
03
14
1'
0(
#260000
b111 "
b101 "
b100 "
0:
0;
19
1A
0@
04
15
1&
0'
#265000
b101 "
1:
1B
0A
05
16
1%
0&
#270000
b111 "
b110 "
0:
1;
1C
0B
06
17
1$
0%
#275000
b111 "
1:
1D
0C
07
18
1#
0$
#280000
b11 "
b1 "
b0 "
0:
0;
09
0D
1=
11
08
0#
1*
#285000
b1 "
1:
1>
0=
01
12
1)
0*
#290000
b11 "
b10 "
0:
1;
1?
0>
02
13
1(
0)
#295000
b11 "
1:
1@
0?
03
14
1'
0(
#300000
b111 "
b101 "
b100 "
0:
0;
19
1A
0@
04
15
1&
0'
#305000
b101 "
1:
1B
0A
05
16
1%
0&
#310000
b111 "
b110 "
0:
1;
1C
0B
06
17
1$
0%
#315000
b111 "
1:
1D
0C
07
18
1#
0$
#320000
b11 "
b1 "
b0 "
0:
0;
09
0D
1=
11
08
0#
1*
#325000
b1 "
1:
1>
0=
01
12
1)
0*
#330000
b11 "
b10 "
0:
1;
1?
0>
02
13
1(
0)
#335000
b11 "
1:
1@
0?
03
14
1'
0(
#340000
b111 "
b101 "
b100 "
0:
0;
19
1A
0@
04
15
1&
0'
#345000
b101 "
1:
1B
0A
05
16
1%
0&
#350000
b111 "
b110 "
0:
1;
1C
0B
06
17
1$
0%
#355000
b111 "
1:
1D
0C
07
18
1#
0$
#360000
0!
b11 "
b1 "
b0 "
0<
0:
0;
09
0D
08
0#
#365000
b1 "
1:
#370000
b11 "
b10 "
0:
1;
#375000
b11 "
1:
#380000
b111 "
b101 "
b100 "
0:
0;
19
#385000
b101 "
1:
#390000
b111 "
b110 "
0:
1;
#395000
b111 "
1:
#400000
b11 "
b1 "
b0 "
0:
0;
09
#405000
b1 "
1:
#410000
b11 "
b10 "
0:
1;
#415000
b11 "
1:
#420000
b111 "
b101 "
b100 "
0:
0;
19
#425000
b101 "
1:
#430000
b111 "
b110 "
0:
1;
#435000
b111 "
1:
#440000
b11 "
b1 "
b0 "
0:
0;
09
#445000
b1 "
1:
#450000
b11 "
b10 "
0:
1;
#455000
b11 "
1:
#460000
b111 "
b101 "
b100 "
0:
0;
19
#465000
b101 "
1:
#470000
b111 "
b110 "
0:
1;
#475000
b111 "
1:
#480000
1!
b11 "
b1 "
b0 "
1<
0:
0;
09
1=
11
1*
#485000
b1 "
1:
1>
0=
01
12
1)
0*
#490000
b11 "
b10 "
0:
1;
1?
0>
02
13
1(
0)
#495000
b11 "
1:
1@
0?
03
14
1'
0(
#500000
b111 "
b101 "
b100 "
0:
0;
19
1A
0@
04
15
1&
0'
#505000
b101 "
1:
1B
0A
05
16
1%
0&
#510000
b111 "
b110 "
0:
1;
1C
0B
06
17
1$
0%
#515000
b111 "
1:
1D
0C
07
18
1#
0$
#520000
b11 "
b1 "
b0 "
0:
0;
09
0D
1=
11
08
0#
1*
#525000
b1 "
1:
1>
0=
01
12
1)
0*
#530000
b11 "
b10 "
0:
1;
1?
0>
02
13
1(
0)
#535000
b11 "
1:
1@
0?
03
14
1'
0(
#540000
b111 "
b101 "
b100 "
0:
0;
19
1A
0@
04
15
1&
0'
#545000
b101 "
1:
1B
0A
05
16
1%
0&
#550000
b111 "
b110 "
0:
1;
1C
0B
06
17
1$
0%
#555000
b111 "
1:
1D
0C
07
18
1#
0$
#560000
b11 "
b1 "
b0 "
0:
0;
09
0D
1=
11
08
0#
1*
#565000
b1 "
1:
1>
0=
01
12
1)
0*
#570000
b11 "
b10 "
0:
1;
1?
0>
02
13
1(
0)
#575000
b11 "
1:
1@
0?
03
14
1'
0(
#580000
b111 "
b101 "
b100 "
0:
0;
19
1A
0@
04
15
1&
0'
#585000
b101 "
1:
1B
0A
05
16
1%
0&
#590000
b111 "
b110 "
0:
1;
1C
0B
06
17
1$
0%
#595000
b111 "
1:
1D
0C
07
18
1#
0$
#600000
0!
b11 "
b1 "
b0 "
0<
0:
0;
09
0D
08
0#
#605000
b1 "
1:
#610000
b11 "
b10 "
0:
1;
#615000
b11 "
1:
#620000
b111 "
b101 "
b100 "
0:
0;
19
#625000
b101 "
1:
#630000
b111 "
b110 "
0:
1;
#635000
b111 "
1:
#640000
b11 "
b1 "
b0 "
0:
0;
09
#645000
b1 "
1:
#650000
b11 "
b10 "
0:
1;
#655000
b11 "
1:
#660000
b111 "
b101 "
b100 "
0:
0;
19
#665000
b101 "
1:
#670000
b111 "
b110 "
0:
1;
#675000
b111 "
1:
#680000
b11 "
b1 "
b0 "
0:
0;
09
#685000
b1 "
1:
#690000
b11 "
b10 "
0:
1;
#695000
b11 "
1:
#700000
b111 "
b101 "
b100 "
0:
0;
19
#705000
b101 "
1:
#710000
b111 "
b110 "
0:
1;
#715000
b111 "
1:
#720000
1!
b11 "
b1 "
b0 "
1<
0:
0;
09
1=
11
1*
#725000
b1 "
1:
1>
0=
01
12
1)
0*
#730000
b11 "
b10 "
0:
1;
1?
0>
02
13
1(
0)
#735000
b11 "
1:
1@
0?
03
14
1'
0(
#740000
b111 "
b101 "
b100 "
0:
0;
19
1A
0@
04
15
1&
0'
#745000
b101 "
1:
1B
0A
05
16
1%
0&
#750000
b111 "
b110 "
0:
1;
1C
0B
06
17
1$
0%
#755000
b111 "
1:
1D
0C
07
18
1#
0$
#760000
b11 "
b1 "
b0 "
0:
0;
09
0D
1=
11
08
0#
1*
#765000
b1 "
1:
1>
0=
01
12
1)
0*
#770000
b11 "
b10 "
0:
1;
1?
0>
02
13
1(
0)
#775000
b11 "
1:
1@
0?
03
14
1'
0(
#780000
b111 "
b101 "
b100 "
0:
0;
19
1A
0@
04
15
1&
0'
#785000
b101 "
1:
1B
0A
05
16
1%
0&
#790000
b111 "
b110 "
0:
1;
1C
0B
06
17
1$
0%
#795000
b111 "
1:
1D
0C
07
18
1#
0$
#800000
b11 "
b1 "
b0 "
0:
0;
09
0D
1=
11
08
0#
1*
#805000
b1 "
1:
1>
0=
01
12
1)
0*
#810000
b11 "
b10 "
0:
1;
1?
0>
02
13
1(
0)
#815000
b11 "
1:
1@
0?
03
14
1'
0(
#820000
b111 "
b101 "
b100 "
0:
0;
19
1A
0@
04
15
1&
0'
#825000
b101 "
1:
1B
0A
05
16
1%
0&
#830000
b111 "
b110 "
0:
1;
1C
0B
06
17
1$
0%
#835000
b111 "
1:
1D
0C
07
18
1#
0$
#840000
0!
b11 "
b1 "
b0 "
0<
0:
0;
09
0D
08
0#
#845000
b1 "
1:
#850000
b11 "
b10 "
0:
1;
#855000
b11 "
1:
#860000
b111 "
b101 "
b100 "
0:
0;
19
#865000
b101 "
1:
#870000
b111 "
b110 "
0:
1;
#875000
b111 "
1:
#880000
b11 "
b1 "
b0 "
0:
0;
09
#885000
b1 "
1:
#890000
b11 "
b10 "
0:
1;
#895000
b11 "
1:
#900000
b111 "
b101 "
b100 "
0:
0;
19
#905000
b101 "
1:
#910000
b111 "
b110 "
0:
1;
#915000
b111 "
1:
#920000
b11 "
b1 "
b0 "
0:
0;
09
#925000
b1 "
1:
#930000
b11 "
b10 "
0:
1;
#935000
b11 "
1:
#940000
b111 "
b101 "
b100 "
0:
0;
19
#945000
b101 "
1:
#950000
b111 "
b110 "
0:
1;
#955000
b111 "
1:
#960000
1!
b11 "
b1 "
b0 "
1<
0:
0;
09
1=
11
1*
#965000
b1 "
1:
1>
0=
01
12
1)
0*
#970000
b11 "
b10 "
0:
1;
1?
0>
02
13
1(
0)
#975000
b11 "
1:
1@
0?
03
14
1'
0(
#980000
b111 "
b101 "
b100 "
0:
0;
19
1A
0@
04
15
1&
0'
#985000
b101 "
1:
1B
0A
05
16
1%
0&
#990000
b111 "
b110 "
0:
1;
1C
0B
06
17
1$
0%
#995000
b111 "
1:
1D
0C
07
18
1#
0$
