Lab 1/prj/bi_direction_counter_8/simulation/qsim/bi_direction_counter_8.msim.vcd
$comment
	File created using the following command:
		vcd file bi_direction_counter_8.msim.vcd -direction
$end
$date
	Fri Apr 24 17:17:12 2020
$end
$version
	ModelSim Version 10.5b
$end
$timescale
	1ps
$end

$scope module bi_direction_counter_8_vlg_vec_tst $end
$var reg 1 ! clk $end
$var reg 1 " reset_n $end
$var wire 1 # num_out [2] $end
$var wire 1 $ num_out [1] $end
$var wire 1 % num_out [0] $end

$scope module i1 $end
$var wire 1 & gnd $end
$var wire 1 ' vcc $end
$var wire 1 ( unknown $end
$var tri1 1 ) devclrn $end
$var tri1 1 * devpor $end
$var tri1 1 + devoe $end
$var wire 1 , num_out[0]~output_o $end
$var wire 1 - num_out[1]~output_o $end
$var wire 1 . num_out[2]~output_o $end
$var wire 1 / clk~input_o $end
$var wire 1 0 clk~inputclkctrl_outclk $end
$var wire 1 1 num_out[0]~0_combout $end
$var wire 1 2 reset_n~input_o $end
$var wire 1 3 reset_n~inputclkctrl_outclk $end
$var wire 1 4 num_out[0]~reg0_q $end
$var wire 1 5 Add0~1_combout $end
$var wire 1 6 num_out[2]~reg0_q $end
$var wire 1 7 M~0_combout $end
$var wire 1 8 M~q $end
$var wire 1 9 Add0~0_combout $end
$var wire 1 : num_out[1]~reg0_q $end
$upscope $end
$upscope $end
$enddefinitions $end
#0
$dumpvars
1!
1"
0%
0$
0#
0&
1'
x(
1)
1*
1+
0,
0-
0.
1/
10
11
12
13
04
05
06
07
08
09
0:
$end
#5000
0!
0/
00
#10000
1!
1/
10
14
1,
1%
19
01
#15000
0!
0/
00
#20000
1!
1/
10
1:
04
0,
1-
1$
0%
11
#25000
0!
0/
00
#30000
1!
1/
10
14
1,
1%
09
15
01
#35000
0!
0/
00
#40000
1!
1/
10
0:
16
04
0,
1.
0-
0$
1#
0%
11
#45000
0!
0/
00
#50000
1!
1/
10
14
1,
1%
19
01
#55000
0!
0/
00
#60000
1!
1/
10
1:
04
0,
1-
1$
0%
17
11
#65000
0!
0/
00
#70000
1!
1/
10
18
14
1,
1%
01
#75000
0!
0/
00
#80000
1!
1/
10
04
0,
0%
09
11
#85000
0!
0/
00
#90000
1!
1/
10
0:
14
1,
0-
0$
1%
01
#95000
0!
0/
00
#100000
1!
1/
10
04
0,
0%
19
05
11
#105000
0!
0/
00
#110000
1!
1/
10
1:
06
14
1,
0.
1-
1$
0#
1%
01
#115000
0!
0/
00
#120000
1!
1/
10
04
0,
0%
09
11
#125000
0!
0/
00
#130000
1!
1/
10
0:
14
1,
0-
0$
1%
07
01
#135000
0!
0/
00
#140000
1!
1/
10
08
04
0,
0%
11
#145000
0!
0/
00
#150000
1!
1/
10
14
1,
1%
19
01
#155000
0!
0/
00
#160000
1!
1/
10
1:
04
0,
1-
1$
0%
11
#165000
0!
0/
00
#170000
1!
1/
10
14
1,
1%
09
15
01
#175000
0!
0/
00
#180000
1!
1/
10
0:
16
04
0,
1.
0-
0$
1#
0%
11
#185000
0!
0/
00
#190000
0"
1!
02
1/
03
10
06
0.
0#
05
#195000
0!
0/
00
#200000
1"
1!
12
1/
13
10
14
1,
1%
19
01
#205000
0!
0/
00
#210000
1!
1/
10
1:
04
0,
1-
1$
0%
11
#215000
0!
0/
00
#220000
1!
1/
10
14
1,
1%
09
15
01
#225000
0!
0/
00
#230000
1!
1/
10
0:
16
04
0,
1.
0-
0$
1#
0%
11
#235000
0!
0/
00
#240000
1!
1/
10
14
1,
1%
19
01
#245000
0!
0/
00
#250000
1!
1/
10
1:
04
0,
1-
1$
0%
17
11
#255000
0!
0/
00
#260000
1!
1/
10
18
14
1,
1%
01
#265000
0!
0/
00
#270000
1!
1/
10
04
0,
0%
09
11
#275000
0!
0/
00
#280000
1!
1/
10
0:
14
1,
0-
0$
1%
01
#285000
0!
0/
00
#290000
1!
1/
10
04
0,
0%
19
05
11
#295000
0!
0/
00
#300000
1!
1/
10
1:
06
14
1,
0.
1-
1$
0#
1%
01
#305000
0!
0/
00
#310000
1!
1/
10
04
0,
0%
09
11
#315000
0!
0/
00
#320000
1!
1/
10
0:
14
1,
0-
0$
1%
07
01
#325000
0!
0/
00
#330000
1!
1/
10
08
04
0,
0%
11
#335000
0!
0/
00
#340000
1!
1/
10
14
1,
1%
19
01
#345000
0!
0/
00
#350000
1!
1/
10
1:
04
0,
1-
1$
0%
11
#355000
0!
0/
00
#360000
1!
1/
10
14
1,
1%
09
15
01
#365000
0!
0/
00
#370000
1!
1/
10
0:
16
04
0,
1.
0-
0$
1#
0%
11
#375000
0!
0/
00
#380000
1!
1/
10
14
1,
1%
19
01
#385000
0!
0/
00
#390000
0"
1!
02
1/
03
10
04
06
0.
0,
0%
0#
09
05
11
#395000
0!
0/
00
#400000
1"
1!
12
1/
13
10
14
1,
1%
19
01
#405000
0!
0/
00
#410000
1!
1/
10
1:
04
0,
1-
1$
0%
11
#415000
0!
0/
00
#420000
1!
1/
10
14
1,
1%
09
15
01
#425000
0!
0/
00
#430000
1!
1/
10
0:
16
04
0,
1.
0-
0$
1#
0%
11
#435000
0!
0/
00
#440000
1!
1/
10
14
1,
1%
19
01
#445000
0!
0/
00
#450000
1!
1/
10
1:
04
0,
1-
1$
0%
17
11
#455000
0!
0/
00
#460000
1!
1/
10
18
14
1,
1%
01
#465000
0!
0/
00
#470000
1!
1/
10
04
0,
0%
09
11
#475000
0!
0/
00
#480000
1!
1/
10
0:
14
1,
0-
0$
1%
01
#485000
0!
0/
00
#490000
1!
1/
10
04
0,
0%
19
05
11
#495000
0!
0/
00
#500000
1!
1/
10
1:
06
14
1,
0.
1-
1$
0#
1%
01
#505000
0!
0/
00
#510000
1!
1/
10
04
0,
0%
09
11
#515000
0!
0/
00
#520000
1!
1/
10
0:
14
1,
0-
0$
1%
07
01
#525000
0!
0/
00
#530000
1!
1/
10
08
04
0,
0%
11
#535000
0!
0/
00
#540000
1!
1/
10
14
1,
1%
19
01
#545000
0!
0/
00
#550000
1!
1/
10
1:
04
0,
1-
1$
0%
11
#555000
0!
0/
00
#560000
0"
1!
02
1/
03
10
0:
0-
0$
09
#565000
0!
0/
00
#570000
1"
1!
12
1/
13
10
14
1,
1%
19
01
#575000
0!
0/
00
#580000
1!
1/
10
1:
04
0,
1-
1$
0%
11
#585000
0!
0/
00
#590000
1!
1/
10
14
1,
1%
09
15
01
#595000
0!
0/
00
#600000
1!
1/
10
0:
16
04
0,
1.
0-
0$
1#
0%
11
#605000
0!
0/
00
#610000
1!
1/
10
14
1,
1%
19
01
#615000
0!
0/
00
#620000
1!
1/
10
1:
04
0,
1-
1$
0%
17
11
#625000
0!
0/
00
#630000
1!
1/
10
18
14
1,
1%
01
#635000
0!
0/
00
#640000
1!
1/
10
04
0,
0%
09
11
#645000
0!
0/
00
#650000
1!
1/
10
0:
14
1,
0-
0$
1%
01
#655000
0!
0/
00
#660000
1!
1/
10
04
0,
0%
19
05
11
#665000
0!
0/
00
#670000
1!
1/
10
1:
06
14
1,
0.
1-
1$
0#
1%
01
#675000
0!
0/
00
#680000
1!
1/
10
04
0,
0%
09
11
#685000
0!
0/
00
#690000
1!
1/
10
0:
14
1,
0-
0$
1%
07
01
#695000
0!
0/
00
#700000
1!
1/
10
08
04
0,
0%
11
#705000
0!
0/
00
#710000
1!
1/
10
14
1,
1%
19
01
#715000
0!
0/
00
#720000
1!
1/
10
1:
04
0,
1-
1$
0%
11
#725000
0!
0/
00
#730000
1!
1/
10
14
1,
1%
09
15
01
#735000
0!
0/
00
#740000
1!
1/
10
0:
16
04
0,
1.
0-
0$
1#
0%
11
#745000
0!
0/
00
#750000
1!
1/
10
14
1,
1%
19
01
#755000
0!
0/
00
#760000
1!
1/
10
1:
04
0,
1-
1$
0%
17
11
#765000
0!
0/
00
#770000
1!
1/
10
18
14
1,
1%
01
#775000
0!
0/
00
#780000
1!
1/
10
04
0,
0%
09
11
#785000
0!
0/
00
#790000
1!
1/
10
0:
14
1,
0-
0$
1%
01
#795000
0!
0/
00
#800000
1!
1/
10
04
0,
0%
19
05
11
#805000
0!
0/
00
#810000
1!
1/
10
1:
06
14
1,
0.
1-
1$
0#
1%
01
#815000
0!
0/
00
#820000
1!
1/
10
04
0,
0%
09
11
#825000
0!
0/
00
#830000
1!
1/
10
0:
14
1,
0-
0$
1%
07
01
#835000
0!
0/
00
#840000
1!
1/
10
08
04
0,
0%
11
#845000
0!
0/
00
#850000
1!
1/
10
14
1,
1%
19
01
#855000
0!
0/
00
#860000
1!
1/
10
1:
04
0,
1-
1$
0%
11
#865000
0!
0/
00
#870000
1!
1/
10
14
1,
1%
09
15
01
#875000
0!
0/
00
#880000
1!
1/
10
0:
16
04
0,
1.
0-
0$
1#
0%
11
#885000
0!
0/
00
#890000
1!
1/
10
14
1,
1%
19
01
#895000
0!
0/
00
#900000
1!
1/
10
1:
04
0,
1-
1$
0%
17
11
#905000
0!
0/
00
#910000
1!
1/
10
18
14
1,
1%
01
#915000
0!
0/
00
#920000
1!
1/
10
04
0,
0%
09
11
#925000
0!
0/
00
#930000
1!
1/
10
0:
14
1,
0-
0$
1%
01
#935000
0!
0/
00
#940000
1!
1/
10
04
0,
0%
19
05
11
#945000
0!
0/
00
#950000
1!
1/
10
1:
06
14
1,
0.
1-
1$
0#
1%
01
#955000
0!
0/
00
#960000
1!
1/
10
04
0,
0%
09
11
#965000
0!
0/
00
#970000
1!
1/
10
0:
14
1,
0-
0$
1%
07
01
#975000
0!
0/
00
#980000
1!
1/
10
08
04
0,
0%
11
#985000
0!
0/
00
#990000
1!
1/
10
14
1,
1%
19
01
#995000
0!
0/
00
