Lab 1/prj/LEDs/simulation/qsim/LEDs.msim.vcd
$comment
	File created using the following command:
		vcd file LEDs.msim.vcd -direction
$end
$date
	Sat Apr 25 18:02:06 2020
$end
$version
	ModelSim Version 10.5b
$end
$timescale
	1ps
$end

$scope module LEDs_vlg_vec_tst $end
$var reg 1 ! clk $end
$var reg 1 " clr_n $end
$var reg 1 # select $end
$var wire 1 $ LED_pins [7] $end
$var wire 1 % LED_pins [6] $end
$var wire 1 & LED_pins [5] $end
$var wire 1 ' LED_pins [4] $end
$var wire 1 ( LED_pins [3] $end
$var wire 1 ) LED_pins [2] $end
$var wire 1 * LED_pins [1] $end
$var wire 1 + LED_pins [0] $end

$scope module i1 $end
$var wire 1 , gnd $end
$var wire 1 - vcc $end
$var wire 1 . unknown $end
$var tri1 1 / devclrn $end
$var tri1 1 0 devpor $end
$var tri1 1 1 devoe $end
$var wire 1 2 LED_pins[0]~output_o $end
$var wire 1 3 LED_pins[1]~output_o $end
$var wire 1 4 LED_pins[2]~output_o $end
$var wire 1 5 LED_pins[3]~output_o $end
$var wire 1 6 LED_pins[4]~output_o $end
$var wire 1 7 LED_pins[5]~output_o $end
$var wire 1 8 LED_pins[6]~output_o $end
$var wire 1 9 LED_pins[7]~output_o $end
$var wire 1 : clk~input_o $end
$var wire 1 ; clk~inputclkctrl_outclk $end
$var wire 1 < freq_div_inst|Add0~0_combout $end
$var wire 1 = clr_n~input_o $end
$var wire 1 > clr_n~inputclkctrl_outclk $end
$var wire 1 ? freq_div_inst|Add0~1 $end
$var wire 1 @ freq_div_inst|Add0~2_combout $end
$var wire 1 A freq_div_inst|Add0~7 $end
$var wire 1 B freq_div_inst|Add0~8_combout $end
$var wire 1 C freq_div_inst|Add0~9 $end
$var wire 1 D freq_div_inst|Add0~10_combout $end
$var wire 1 E freq_div_inst|Add0~11 $end
$var wire 1 F freq_div_inst|Add0~12_combout $end
$var wire 1 G freq_div_inst|Add0~13 $end
$var wire 1 H freq_div_inst|Add0~14_combout $end
$var wire 1 I freq_div_inst|Add0~15 $end
$var wire 1 J freq_div_inst|Add0~16_combout $end
$var wire 1 K freq_div_inst|Add0~17 $end
$var wire 1 L freq_div_inst|Add0~18_combout $end
$var wire 1 M freq_div_inst|Add0~19 $end
$var wire 1 N freq_div_inst|Add0~20_combout $end
$var wire 1 O freq_div_inst|Add0~21 $end
$var wire 1 P freq_div_inst|Add0~22_combout $end
$var wire 1 Q freq_div_inst|Add0~23 $end
$var wire 1 R freq_div_inst|Add0~24_combout $end
$var wire 1 S freq_div_inst|Add0~25 $end
$var wire 1 T freq_div_inst|Add0~26_combout $end
$var wire 1 U freq_div_inst|Equal0~3_combout $end
$var wire 1 V freq_div_inst|Add0~27 $end
$var wire 1 W freq_div_inst|Add0~28_combout $end
$var wire 1 X freq_div_inst|Add0~29 $end
$var wire 1 Y freq_div_inst|Add0~30_combout $end
$var wire 1 Z freq_div_inst|Add0~31 $end
$var wire 1 [ freq_div_inst|Add0~32_combout $end
$var wire 1 \ freq_div_inst|Add0~33 $end
$var wire 1 ] freq_div_inst|Add0~34_combout $end
$var wire 1 ^ freq_div_inst|Add0~35 $end
$var wire 1 _ freq_div_inst|Add0~36_combout $end
$var wire 1 ` freq_div_inst|Add0~37 $end
$var wire 1 a freq_div_inst|Add0~38_combout $end
$var wire 1 b freq_div_inst|Add0~39 $end
$var wire 1 c freq_div_inst|Add0~40_combout $end
$var wire 1 d freq_div_inst|Add0~41 $end
$var wire 1 e freq_div_inst|Add0~42_combout $end
$var wire 1 f freq_div_inst|Equal0~1_combout $end
$var wire 1 g freq_div_inst|Equal0~2_combout $end
$var wire 1 h freq_div_inst|Add0~43 $end
$var wire 1 i freq_div_inst|Add0~44_combout $end
$var wire 1 j freq_div_inst|Add0~45 $end
$var wire 1 k freq_div_inst|Add0~46_combout $end
$var wire 1 l freq_div_inst|Add0~47 $end
$var wire 1 m freq_div_inst|Add0~48_combout $end
$var wire 1 n freq_div_inst|Add0~49 $end
$var wire 1 o freq_div_inst|Add0~50_combout $end
$var wire 1 p freq_div_inst|Equal0~0_combout $end
$var wire 1 q freq_div_inst|Equal0~4_combout $end
$var wire 1 r freq_div_inst|clk_cnt~0_combout $end
$var wire 1 s freq_div_inst|Add0~3 $end
$var wire 1 t freq_div_inst|Add0~4_combout $end
$var wire 1 u freq_div_inst|Add0~5 $end
$var wire 1 v freq_div_inst|Add0~6_combout $end
$var wire 1 w freq_div_inst|Equal0~6_combout $end
$var wire 1 x freq_div_inst|Equal0~5_combout $end
$var wire 1 y freq_div_inst|Equal0~7_combout $end
$var wire 1 z freq_div_inst|clk_1Hz~0_combout $end
$var wire 1 { freq_div_inst|clk_1Hz~q $end
$var wire 1 | freq_div_inst|clk_1Hz~clkctrl_outclk $end
$var wire 1 } bi_register_8_inst|Q~7_combout $end
$var wire 1 ~ bi_register_8_inst|Q~1_combout $end
$var wire 1 !! bi_register_8_inst|Q~2_combout $end
$var wire 1 "! bi_register_8_inst|Q~3_combout $end
$var wire 1 #! bi_register_8_inst|Q~4_combout $end
$var wire 1 $! bi_register_8_inst|Q~5_combout $end
$var wire 1 %! bi_register_8_inst|Q~6_combout $end
$var wire 1 &! bi_register_8_inst|dir~0_combout $end
$var wire 1 '! bi_register_8_inst|dir~1_combout $end
$var wire 1 (! bi_register_8_inst|dir~2_combout $end
$var wire 1 )! bi_register_8_inst|dir~q $end
$var wire 1 *! bi_register_8_inst|Q~0_combout $end
$var wire 1 +! bi_direction_counter_8_inst|num_out[0]~0_combout $end
$var wire 1 ,! bi_direction_counter_8_inst|Add0~1_combout $end
$var wire 1 -! bi_direction_counter_8_inst|M~0_combout $end
$var wire 1 .! bi_direction_counter_8_inst|M~q $end
$var wire 1 /! bi_direction_counter_8_inst|Add0~0_combout $end
$var wire 1 0! select~input_o $end
$var wire 1 1! mux_8_inst|y[2]~0_combout $end
$var wire 1 2! mux_8_inst|y[0]~1_combout $end
$var wire 1 3! mux_8_inst|y[3]~2_combout $end
$var wire 1 4! mux_8_inst|y[1]~3_combout $end
$var wire 1 5! mux_8_inst|y[2]~4_combout $end
$var wire 1 6! mux_8_inst|y[3]~5_combout $end
$var wire 1 7! mux_8_inst|y[6]~6_combout $end
$var wire 1 8! mux_8_inst|y[4]~7_combout $end
$var wire 1 9! mux_8_inst|y[7]~8_combout $end
$var wire 1 :! mux_8_inst|y[5]~9_combout $end
$var wire 1 ;! mux_8_inst|y[6]~10_combout $end
$var wire 1 <! mux_8_inst|y[7]~11_combout $end
$var wire 1 =! bi_direction_counter_8_inst|num_out [2] $end
$var wire 1 >! bi_direction_counter_8_inst|num_out [1] $end
$var wire 1 ?! bi_direction_counter_8_inst|num_out [0] $end
$var wire 1 @! freq_div_inst|clk_cnt [25] $end
$var wire 1 A! freq_div_inst|clk_cnt [24] $end
$var wire 1 B! freq_div_inst|clk_cnt [23] $end
$var wire 1 C! freq_div_inst|clk_cnt [22] $end
$var wire 1 D! freq_div_inst|clk_cnt [21] $end
$var wire 1 E! freq_div_inst|clk_cnt [20] $end
$var wire 1 F! freq_div_inst|clk_cnt [19] $end
$var wire 1 G! freq_div_inst|clk_cnt [18] $end
$var wire 1 H! freq_div_inst|clk_cnt [17] $end
$var wire 1 I! freq_div_inst|clk_cnt [16] $end
$var wire 1 J! freq_div_inst|clk_cnt [15] $end
$var wire 1 K! freq_div_inst|clk_cnt [14] $end
$var wire 1 L! freq_div_inst|clk_cnt [13] $end
$var wire 1 M! freq_div_inst|clk_cnt [12] $end
$var wire 1 N! freq_div_inst|clk_cnt [11] $end
$var wire 1 O! freq_div_inst|clk_cnt [10] $end
$var wire 1 P! freq_div_inst|clk_cnt [9] $end
$var wire 1 Q! freq_div_inst|clk_cnt [8] $end
$var wire 1 R! freq_div_inst|clk_cnt [7] $end
$var wire 1 S! freq_div_inst|clk_cnt [6] $end
$var wire 1 T! freq_div_inst|clk_cnt [5] $end
$var wire 1 U! freq_div_inst|clk_cnt [4] $end
$var wire 1 V! freq_div_inst|clk_cnt [3] $end
$var wire 1 W! freq_div_inst|clk_cnt [2] $end
$var wire 1 X! freq_div_inst|clk_cnt [1] $end
$var wire 1 Y! freq_div_inst|clk_cnt [0] $end
$var wire 1 Z! bi_register_8_inst|Q [7] $end
$var wire 1 [! bi_register_8_inst|Q [6] $end
$var wire 1 \! bi_register_8_inst|Q [5] $end
$var wire 1 ]! bi_register_8_inst|Q [4] $end
$var wire 1 ^! bi_register_8_inst|Q [3] $end
$var wire 1 _! bi_register_8_inst|Q [2] $end
$var wire 1 `! bi_register_8_inst|Q [1] $end
$var wire 1 a! bi_register_8_inst|Q [0] $end
$upscope $end
$upscope $end
$enddefinitions $end
#0
$dumpvars
1!
1"
0#
1+
0*
0)
0(
0'
0&
0%
0$
0,
1-
x.
1/
10
11
12
03
04
05
06
07
08
09
1:
1;
1<
1=
1>
0?
0@
1A
0B
0C
0D
1E
0F
0G
0H
1I
0J
0K
0L
1M
0N
0O
0P
1Q
0R
0S
0T
1U
1V
0W
0X
0Y
1Z
0[
0\
0]
1^
0_
0`
0a
1b
0c
0d
0e
1f
1g
1h
0i
0j
0k
1l
0m
0n
0o
1p
1q
0r
1s
0t
0u
0v
1w
1x
0y
0z
0{
0|
0}
1~
0!!
0"!
0#!
0$!
0%!
1&!
0'!
0(!
0)!
1*!
1+!
0,!
0-!
0.!
0/!
00!
01!
12!
03!
04!
05!
06!
07!
08!
09!
0:!
0;!
0<!
0?!
0>!
0=!
0Y!
0X!
0W!
0V!
0U!
0T!
0S!
0R!
0Q!
0P!
0O!
0N!
0M!
0L!
0K!
0J!
0I!
0H!
0G!
0F!
0E!
0D!
0C!
0B!
0A!
0@!
0a!
0`!
0_!
0^!
0]!
0\!
0[!
0Z!
$end
#2500
0!
0:
0;
#5000
1!
1:
1;
1Y!
1y
1?
0<
1z
1@
#7500
0!
0:
0;
#10000
1!
1:
1;
1{
0Y!
1|
0z
0y
0?
1<
1z
0@
1r
0r
1?!
1a!
1`!
1'!
1,!
0+!
02!
0~
14!
1!!
13
02
0+
1*
#12500
0!
0:
0;
#15000
1!
1:
1;
1Y!
1y
1?
0<
0z
1@
#17500
0!
0:
0;
#20000
1!
1:
1;
0{
0Y!
0|
1z
0y
0?
1<
0z
0@
1r
0r
#22500
0!
0:
0;
#25000
1!
1:
1;
1Y!
1y
1?
0<
1z
1@
#27500
0!
0:
0;
#30000
1!
1:
1;
1{
0Y!
1|
0z
0y
0?
1<
1z
0@
1r
0r
1>!
0?!
1_!
0`!
0'!
15!
04!
1+!
1"!
0!!
03
14
1)
0*
#32500
0!
0:
0;
#35000
1!
1:
1;
1Y!
1y
1?
0<
0z
1@
#37500
0!
0:
0;
#40000
1!
1:
1;
0{
0Y!
0|
1z
0y
0?
1<
0z
0@
1r
0r
#42500
0!
0:
0;
#45000
1!
1:
1;
1Y!
1y
1?
0<
1z
1@
#47500
0!
0:
0;
#50000
1!
1:
1;
1{
0Y!
1|
0z
0y
0?
1<
1z
0@
1r
0r
1?!
1^!
0_!
0&!
1'!
1/!
0,!
0+!
16!
1#!
05!
0"!
04
15
0'!
1(
0)
#52500
0!
0:
0;
#55000
1!
1:
1;
1Y!
1y
1?
0<
0z
1@
#57500
0!
0:
0;
#60000
1!
1:
1;
0{
0Y!
0|
1z
0y
0?
1<
0z
0@
1r
0r
#62500
0!
0:
0;
#65000
1!
1:
1;
1Y!
1y
1?
0<
1z
1@
#67500
0!
0:
0;
#70000
1!
1:
1;
1{
0Y!
1|
0z
0y
0?
1<
1z
0@
1r
0r
1=!
0>!
0?!
1]!
0^!
18!
06!
1+!
1$!
0#!
05
16
1'
0(
#72500
0!
0:
0;
#75000
1!
1:
1;
1Y!
1y
1?
0<
0z
1@
#77500
0!
0:
0;
#80000
1!
1:
1;
0{
0Y!
0|
1z
0y
0?
1<
0z
0@
1r
0r
#82500
0!
0:
0;
#85000
1!
1:
1;
1Y!
1y
1?
0<
1z
1@
#87500
0!
0:
0;
#90000
1!
1:
1;
1{
0Y!
1|
0z
0y
0?
1<
1z
0@
1r
0r
1?!
1\!
0]!
1,!
0+!
1:!
1%!
08!
0$!
06
17
1&
0'
#92500
0!
0:
0;
#95000
1!
1:
1;
1Y!
1y
1?
0<
0z
1@
#97500
0!
0:
0;
#100000
1!
1:
1;
0{
0Y!
0|
1z
0y
0?
1<
0z
0@
1r
0r
#102500
0!
0:
0;
#105000
1!
1:
1;
1Y!
1y
1?
0<
1z
1@
#107500
0!
0:
0;
#110000
1!
1:
1;
1{
0Y!
1|
0z
0y
0?
1<
1z
0@
1r
0r
1>!
0?!
1[!
0\!
1&!
1;!
0:!
1-!
1+!
1}
0%!
07
18
1'!
1%
0&
1(!
#112500
0!
0:
0;
#115000
1!
1:
1;
1Y!
1y
1?
0<
0z
1@
#117500
0!
0:
0;
#120000
1!
1:
1;
0{
0Y!
0|
1z
0y
0?
1<
0z
0@
1r
0r
#122500
0!
0:
0;
#125000
1!
1:
1;
1Y!
1y
1?
0<
1z
1@
#127500
0!
0:
0;
#130000
1!
1:
1;
1{
0Y!
1|
0z
0y
0?
1<
1z
0@
1r
0r
1.!
1?!
1)!
0[!
1Z!
0&!
0+!
1%!
0}
0;!
1<!
19
08
0'!
0%
1$
#132500
0!
0:
0;
#135000
1!
1:
1;
1Y!
1y
1?
0<
0z
1@
#137500
0!
0:
0;
#140000
1!
1:
1;
0{
0Y!
0|
1z
0y
0?
1<
0z
0@
1r
0r
#142500
0!
0:
0;
#145000
1!
1:
1;
1Y!
1y
1?
0<
1z
1@
#147500
0!
0:
0;
#150000
1!
1:
1;
1{
0Y!
1|
0z
0y
0?
1<
1z
0@
1r
0r
0?!
1[!
0Z!
1&!
0,!
1+!
1;!
1$!
0<!
0%!
09
18
1'!
1%
0$
#152500
0!
0:
0;
#155000
1!
1:
1;
1Y!
1y
1?
0<
0z
1@
#157500
0!
0:
0;
#160000
1!
1:
1;
0{
0Y!
0|
1z
0y
0?
1<
0z
0@
1r
0r
#162500
0!
0:
0;
#165000
1!
1:
1;
1Y!
1y
1?
0<
1z
1@
#167500
0!
0:
0;
#170000
1!
1:
1;
1{
0Y!
1|
0z
0y
0?
1<
1z
0@
1r
0r
0>!
1?!
0[!
1\!
0&!
0;!
1:!
0+!
0$!
1#!
17
08
0'!
0%
1&
#172500
0!
0:
0;
#175000
1!
1:
1;
1Y!
1y
1?
0<
0z
1@
#177500
0!
0:
0;
#180000
1!
1:
1;
0{
0Y!
0|
1z
0y
0?
1<
0z
0@
1r
0r
#182500
0!
0:
0;
#185000
1!
1:
1;
1Y!
1y
1?
0<
1z
1@
#187500
0!
0:
0;
#190000
1!
1:
1;
1{
0Y!
1|
0z
0y
0?
1<
1z
0@
1r
0r
0?!
0\!
1]!
0/!
1,!
1+!
0:!
0#!
18!
1"!
16
07
0&
1'
#192500
0!
0:
0;
#195000
1!
1:
1;
1Y!
1y
1?
0<
0z
1@
#197500
0!
0:
0;
#200000
1!
1:
1;
0{
0Y!
0|
1z
0y
0?
1<
0z
0@
1r
0r
#202500
0!
0:
0;
#205000
1!
1:
1;
1Y!
1y
1?
0<
1z
1@
#207500
0!
0:
0;
#210000
1!
1:
1;
1{
0Y!
1|
0z
0y
0?
1<
1z
0@
1r
0r
0=!
1>!
1?!
0]!
1^!
08!
16!
0+!
0"!
1!!
15
06
0'
1(
#212500
0!
0:
0;
#215000
1!
1:
1;
1Y!
1y
1?
0<
0z
1@
#217500
0!
0:
0;
#220000
1!
1:
1;
0{
0Y!
0|
1z
0y
0?
1<
0z
0@
1r
0r
#222500
0!
0:
0;
#225000
1!
1:
1;
1Y!
1y
1?
0<
1z
1@
#227500
0!
0:
0;
#230000
1!
1:
1;
1{
0Y!
1|
0z
0y
0?
1<
1z
0@
1r
0r
0?!
0^!
1_!
1&!
0,!
1+!
06!
0!!
15!
1~
14
05
0(
1)
#232500
0!
0:
0;
#235000
1!
1:
1;
1Y!
1y
1?
0<
0z
1@
#237500
0!
0:
0;
#240000
1!
1:
1;
0{
0Y!
0|
1z
0y
0?
1<
0z
0@
1r
0r
#242500
0!
0:
0;
#245000
1!
1:
1;
1Y!
1y
1?
0<
1z
1@
#247500
0!
0:
0;
#250000
1!
1:
1;
1{
0Y!
1|
0z
0y
0?
1<
1z
0@
1r
0r
0>!
1?!
0_!
1`!
1'!
05!
14!
0-!
0+!
0~
0*!
13
04
0)
1*
0(!
#252500
0!
0:
0;
#255000
1!
1:
1;
1Y!
1y
1?
0<
0z
1@
#257500
0!
0:
0;
#260000
1!
1:
1;
0{
0Y!
0|
1z
0y
0?
1<
0z
0@
1r
0r
#262500
0!
0:
0;
#265000
1!
1:
1;
1Y!
1y
1?
0<
1z
1@
#267500
0!
0:
0;
#270000
1!
1:
1;
1{
0Y!
1|
0z
0y
0?
1<
1z
0@
1r
0r
0.!
0?!
0a!
0)!
0`!
0'!
1+!
12!
1~
1*!
04!
03
12
1+
0*
#272500
0!
0:
0;
#275000
1!
1:
1;
1Y!
1y
1?
0<
0z
1@
#277500
0!
0:
0;
#280000
1!
1:
1;
0{
0Y!
0|
1z
0y
0?
1<
0z
0@
1r
0r
#282500
0!
0:
0;
#285000
1!
1:
1;
1Y!
1y
1?
0<
1z
1@
#287500
0!
0:
0;
#290000
1!
1:
1;
1{
0Y!
1|
0z
0y
0?
1<
1z
0@
1r
0r
1?!
1a!
1`!
1'!
1,!
0+!
02!
0~
14!
1!!
13
02
0+
1*
#292500
0!
0:
0;
#295000
1!
1:
1;
1Y!
1y
1?
0<
0z
1@
#297500
0!
0:
0;
#300000
1#
1!
10!
1:
1;
13!
04!
03
0*
14!
13
1*
0{
0Y!
0|
1z
0y
0?
1<
0z
0@
1r
0r
#302500
0!
0:
0;
#305000
1!
1:
1;
1Y!
1y
1?
0<
1z
1@
#307500
0!
0:
0;
#310000
1!
1:
1;
1{
0Y!
1|
0z
0y
0?
1<
1z
0@
1r
0r
1>!
0?!
1_!
0`!
03!
11!
0'!
16!
04!
1+!
1"!
0!!
03
15
1(
0*
06!
15!
14
05
0(
1)
#312500
0!
0:
0;
#315000
1!
1:
1;
1Y!
1y
1?
0<
0z
1@
#317500
0!
0:
0;
#320000
1!
1:
1;
0{
0Y!
0|
1z
0y
0?
1<
0z
0@
1r
0r
#322500
0!
0:
0;
#325000
1!
1:
1;
1Y!
1y
1?
0<
1z
1@
#327500
0!
0:
0;
#330000
1!
1:
1;
1{
0Y!
1|
0z
0y
0?
1<
1z
0@
1r
0r
1?!
1^!
0_!
13!
01!
0&!
1'!
1/!
0,!
0+!
1#!
0"!
0'!
16!
05!
04
15
1(
0)
#332500
0!
0:
0;
#335000
1!
1:
1;
1Y!
1y
1?
0<
0z
1@
#337500
0!
0:
0;
#340000
1!
1:
1;
0{
0Y!
0|
1z
0y
0?
1<
0z
0@
1r
0r
#342500
0!
0:
0;
#345000
1!
1:
1;
1Y!
1y
1?
0<
1z
1@
#347500
0!
0:
0;
#350000
1!
1:
1;
1{
0Y!
1|
0z
0y
0?
1<
1z
0@
1r
0r
1=!
0>!
0?!
1]!
0^!
17!
03!
06!
14!
1+!
1$!
0#!
13
05
0(
1*
18!
04!
03
16
1'
0*
#352500
0!
0:
0;
#355000
1!
1:
1;
1Y!
1y
1?
0<
0z
1@
#357500
0!
0:
0;
#360000
1!
1:
1;
0{
0Y!
0|
1z
0y
0?
1<
0z
0@
1r
0r
#362500
0!
0:
0;
#365000
1!
1:
1;
1Y!
1y
1?
0<
1z
1@
#367500
0!
0:
0;
#370000
1!
1:
1;
1{
0Y!
1|
0z
0y
0?
1<
1z
0@
1r
0r
1?!
1\!
0]!
19!
07!
1,!
0+!
1%!
0$!
1:!
08!
06
17
1&
0'
#372500
0!
0:
0;
#375000
1!
1:
1;
1Y!
1y
1?
0<
0z
1@
#377500
0!
0:
0;
#380000
0"
1!
0=
1:
0>
1;
0Y!
0{
0\!
0a!
0?!
0=!
0|
0y
0?
1z
1&!
09!
11!
1<
0%!
1~
0/!
0,!
1+!
0z
0@
1r
0:!
12!
12
07
0&
1+
0r
#382500
0!
0:
0;
#385000
1!
1:
1;
#387500
0!
0:
0;
#390000
1"
1!
1=
1:
1>
1;
1Y!
1y
1?
0<
1z
1@
#392500
0!
0:
0;
#395000
1!
1:
1;
1{
0Y!
1|
0z
0y
0?
1<
1z
0@
1r
0r
1?!
1a!
1`!
13!
01!
1'!
1,!
0+!
0~
1!!
14!
02!
02
13
1*
0+
#397500
0!
0:
0;
#400000
1!
1:
1;
1Y!
1y
1?
0<
0z
1@
#402500
0!
0:
0;
#405000
1!
1:
1;
0{
0Y!
0|
1z
0y
0?
1<
0z
0@
1r
0r
#407500
0!
0:
0;
#410000
1!
1:
1;
1Y!
1y
1?
0<
1z
1@
#412500
0!
0:
0;
#415000
1!
1:
1;
1{
0Y!
1|
0z
0y
0?
1<
1z
0@
1r
0r
1>!
0?!
1_!
0`!
03!
11!
0'!
16!
04!
1+!
1"!
0!!
03
15
1(
0*
06!
15!
14
05
0(
1)
#417500
0!
0:
0;
#420000
1!
1:
1;
1Y!
1y
1?
0<
0z
1@
#422500
0!
0:
0;
#425000
1!
1:
1;
0{
0Y!
0|
1z
0y
0?
1<
0z
0@
1r
0r
#427500
0!
0:
0;
#430000
1!
1:
1;
1Y!
1y
1?
0<
1z
1@
#432500
0!
0:
0;
#435000
1!
1:
1;
1{
0Y!
1|
0z
0y
0?
1<
1z
0@
1r
0r
1?!
1^!
0_!
13!
01!
0&!
1'!
1/!
0,!
0+!
1#!
0"!
0'!
16!
05!
04
15
1(
0)
#437500
0!
0:
0;
#440000
1!
1:
1;
1Y!
1y
1?
0<
0z
1@
#442500
0!
0:
0;
#445000
1!
1:
1;
0{
0Y!
0|
1z
0y
0?
1<
0z
0@
1r
0r
#447500
0!
0:
0;
#450000
1!
1:
1;
1Y!
1y
1?
0<
1z
1@
#452500
0!
0:
0;
#455000
1!
1:
1;
1{
0Y!
1|
0z
0y
0?
1<
1z
0@
1r
0r
1=!
0>!
0?!
1]!
0^!
17!
03!
06!
14!
1+!
1$!
0#!
13
05
0(
1*
18!
04!
03
16
1'
0*
#457500
0!
0:
0;
#460000
1!
1:
1;
1Y!
1y
1?
0<
0z
1@
#462500
0!
0:
0;
#465000
1!
1:
1;
0{
0Y!
0|
1z
0y
0?
1<
0z
0@
1r
0r
#467500
0!
0:
0;
#470000
1!
1:
1;
1Y!
1y
1?
0<
1z
1@
#472500
0!
0:
0;
#475000
1!
1:
1;
1{
0Y!
1|
0z
0y
0?
1<
1z
0@
1r
0r
1?!
1\!
0]!
19!
07!
1,!
0+!
1%!
0$!
1:!
08!
06
17
1&
0'
#477500
0!
0:
0;
#480000
1!
1:
1;
1Y!
1y
1?
0<
0z
1@
#482500
0!
0:
0;
#485000
1!
1:
1;
0{
0Y!
0|
1z
0y
0?
1<
0z
0@
1r
0r
#487500
0!
0:
0;
#490000
1!
1:
1;
1Y!
1y
1?
0<
1z
1@
#492500
0!
0:
0;
#495000
1!
1:
1;
1{
0Y!
1|
0z
0y
0?
1<
1z
0@
1r
0r
1>!
0?!
1[!
0\!
09!
17!
1&!
1<!
0:!
1-!
1+!
1}
0%!
07
19
1'!
1$
0&
0<!
1;!
18
09
0$
1%
1(!
#497500
0!
0:
0;
#500000
1!
1:
1;
1Y!
1y
1?
0<
0z
1@
#502500
0!
0:
0;
#505000
1!
1:
1;
0{
0Y!
0|
1z
0y
0?
1<
0z
0@
1r
0r
#507500
0!
0:
0;
#510000
1!
1:
1;
1Y!
1y
1?
0<
1z
1@
#512500
0!
0:
0;
#515000
1!
1:
1;
1{
0Y!
1|
0z
0y
0?
1<
1z
0@
1r
0r
1.!
1?!
1)!
0[!
1Z!
19!
07!
0&!
0+!
1%!
0}
0'!
1<!
0;!
08
19
1$
0%
#517500
0!
0:
0;
#520000
1!
1:
1;
1Y!
1y
1?
0<
0z
1@
#522500
0!
0:
0;
#525000
1!
1:
1;
0{
0Y!
0|
1z
0y
0?
1<
0z
0@
1r
0r
#527500
0!
0:
0;
#530000
1!
1:
1;
1Y!
1y
1?
0<
1z
1@
#532500
0!
0:
0;
#535000
1!
1:
1;
1{
0Y!
1|
0z
0y
0?
1<
1z
0@
1r
0r
0?!
1[!
0Z!
09!
17!
1&!
0,!
1+!
1$!
0%!
1'!
0<!
1;!
18
09
0$
1%
#537500
0!
0:
0;
#540000
1!
1:
1;
1Y!
1y
1?
0<
0z
1@
#542500
0!
0:
0;
#545000
1!
1:
1;
0{
0Y!
0|
1z
0y
0?
1<
0z
0@
1r
0r
#547500
0!
0:
0;
#550000
1!
1:
1;
1Y!
1y
1?
0<
1z
1@
#552500
0!
0:
0;
#555000
1!
1:
1;
1{
0Y!
1|
0z
0y
0?
1<
1z
0@
1r
0r
0>!
1?!
0[!
1\!
19!
07!
0&!
0;!
18!
0+!
0$!
1#!
16
08
0'!
0%
1'
1:!
08!
06
17
1&
0'
#557500
0!
0:
0;
#560000
1!
1:
1;
1Y!
1y
1?
0<
0z
1@
#562500
0!
0:
0;
#565000
1!
1:
1;
0{
0Y!
0|
1z
0y
0?
1<
0z
0@
1r
0r
#567500
0!
0:
0;
#570000
1!
1:
1;
1Y!
1y
1?
0<
1z
1@
#572500
0!
0:
0;
#575000
1!
1:
1;
1{
0Y!
1|
0z
0y
0?
1<
1z
0@
1r
0r
0?!
0\!
1]!
09!
17!
0/!
1,!
1+!
0#!
1"!
0:!
18!
16
07
0&
1'
#577500
0!
0:
0;
#580000
1!
1:
1;
1Y!
1y
1?
0<
0z
1@
#582500
0!
0:
0;
#585000
1!
1:
1;
0{
0Y!
0|
1z
0y
0?
1<
0z
0@
1r
0r
#587500
0!
0:
0;
#590000
1!
1:
1;
1Y!
1y
1?
0<
1z
1@
#592500
0!
0:
0;
#595000
1!
1:
1;
1{
0Y!
1|
0z
0y
0?
1<
1z
0@
1r
0r
0=!
1>!
1?!
0]!
1^!
07!
13!
1;!
08!
0+!
0"!
1!!
06
18
1%
0'
0;!
16!
15
08
0%
1(
#597500
0!
0:
0;
#600000
1!
1:
1;
1Y!
1y
1?
0<
0z
1@
#602500
0!
0:
0;
#605000
1!
1:
1;
0{
0Y!
0|
1z
0y
0?
1<
0z
0@
1r
0r
#607500
0!
0:
0;
#610000
1!
1:
1;
1Y!
1y
1?
0<
1z
1@
#612500
0!
0:
0;
#615000
1!
1:
1;
1{
0Y!
1|
0z
0y
0?
1<
1z
0@
1r
0r
0?!
0^!
1_!
03!
11!
1&!
0,!
1+!
0!!
1~
06!
15!
14
05
0(
1)
#617500
0!
0:
0;
#620000
1!
1:
1;
1Y!
1y
1?
0<
0z
1@
#622500
0!
0:
0;
#625000
1!
1:
1;
0{
0Y!
0|
1z
0y
0?
1<
0z
0@
1r
0r
#627500
0!
0:
0;
#630000
1!
1:
1;
1Y!
1y
1?
0<
1z
1@
#632500
0!
0:
0;
#635000
1!
1:
1;
1{
0Y!
1|
0z
0y
0?
1<
1z
0@
1r
0r
0>!
1?!
0_!
1`!
13!
01!
1'!
05!
12!
0-!
0+!
0~
0*!
12
04
0)
1+
14!
02!
0(!
02
13
1*
0+
#637500
0!
0:
0;
#640000
1!
1:
1;
1Y!
1y
1?
0<
0z
1@
#642500
0!
0:
0;
#645000
1!
1:
1;
0{
0Y!
0|
1z
0y
0?
1<
0z
0@
1r
0r
#647500
0!
0:
0;
#650000
1!
1:
1;
1Y!
1y
1?
0<
1z
1@
#652500
0!
0:
0;
#655000
1!
1:
1;
1{
0Y!
1|
0z
0y
0?
1<
1z
0@
1r
0r
0.!
0?!
0a!
0)!
0`!
03!
11!
0'!
1+!
1~
1*!
04!
12!
12
03
0*
1+
#657500
0!
0:
0;
#660000
0#
1!
00!
1:
1;
01!
1Y!
1y
1?
0<
0z
1@
#662500
0!
0:
0;
#665000
1!
1:
1;
0{
0Y!
0|
1z
0y
0?
1<
0z
0@
1r
0r
#667500
0!
0:
0;
#670000
1!
1:
1;
1Y!
1y
1?
0<
1z
1@
#672500
0!
0:
0;
#675000
1!
1:
1;
1{
0Y!
1|
0z
0y
0?
1<
1z
0@
1r
0r
1?!
1a!
1`!
1'!
1,!
0+!
02!
0~
14!
1!!
13
02
0+
1*
#677500
0!
0:
0;
#680000
1!
1:
1;
1Y!
1y
1?
0<
0z
1@
#682500
0!
0:
0;
#685000
1!
1:
1;
0{
0Y!
0|
1z
0y
0?
1<
0z
0@
1r
0r
#687500
0!
0:
0;
#690000
1!
1:
1;
1Y!
1y
1?
0<
1z
1@
#692500
0!
0:
0;
#695000
1!
1:
1;
1{
0Y!
1|
0z
0y
0?
1<
1z
0@
1r
0r
1>!
0?!
1_!
0`!
0'!
15!
04!
1+!
1"!
0!!
03
14
1)
0*
#697500
0!
0:
0;
#700000
1!
1:
1;
1Y!
1y
1?
0<
0z
1@
#702500
0!
0:
0;
#705000
1!
1:
1;
0{
0Y!
0|
1z
0y
0?
1<
0z
0@
1r
0r
#707500
0!
0:
0;
#710000
1!
1:
1;
1Y!
1y
1?
0<
1z
1@
#712500
0!
0:
0;
#715000
1!
1:
1;
1{
0Y!
1|
0z
0y
0?
1<
1z
0@
1r
0r
1?!
1^!
0_!
0&!
1'!
1/!
0,!
0+!
16!
1#!
05!
0"!
04
15
0'!
1(
0)
#717500
0!
0:
0;
#720000
1!
1:
1;
1Y!
1y
1?
0<
0z
1@
#722500
0!
0:
0;
#725000
1!
1:
1;
0{
0Y!
0|
1z
0y
0?
1<
0z
0@
1r
0r
#727500
0!
0:
0;
#730000
1!
1:
1;
1Y!
1y
1?
0<
1z
1@
#732500
0!
0:
0;
