Lab 2/prj/alarm_clock/simulation/qsim/alarm_clock.msim.vcd
$comment
	File created using the following command:
		vcd file alarm_clock.msim.vcd -direction
$end
$date
	Sat May 02 00:28:03 2020
$end
$version
	ModelSim Version 10.5b
$end
$timescale
	1ps
$end

$scope module alarm_clock_vlg_vec_tst $end
$var reg 1 ! alarm_hour_set $end
$var reg 1 " alarm_min_set $end
$var reg 1 # clk $end
$var reg 1 $ hour_correct $end
$var reg 1 % min_correct $end
$var wire 1 & alarm_en $end
$var wire 1 ' hour_01 [3] $end
$var wire 1 ( hour_01 [2] $end
$var wire 1 ) hour_01 [1] $end
$var wire 1 * hour_01 [0] $end
$var wire 1 + hour_10 [3] $end
$var wire 1 , hour_10 [2] $end
$var wire 1 - hour_10 [1] $end
$var wire 1 . hour_10 [0] $end
$var wire 1 / min_01 [3] $end
$var wire 1 0 min_01 [2] $end
$var wire 1 1 min_01 [1] $end
$var wire 1 2 min_01 [0] $end
$var wire 1 3 min_10 [3] $end
$var wire 1 4 min_10 [2] $end
$var wire 1 5 min_10 [1] $end
$var wire 1 6 min_10 [0] $end
$var wire 1 7 sec_01 [3] $end
$var wire 1 8 sec_01 [2] $end
$var wire 1 9 sec_01 [1] $end
$var wire 1 : sec_01 [0] $end
$var wire 1 ; sec_10 [3] $end
$var wire 1 < sec_10 [2] $end
$var wire 1 = sec_10 [1] $end
$var wire 1 > sec_10 [0] $end

$scope module i1 $end
$var wire 1 ? gnd $end
$var wire 1 @ vcc $end
$var wire 1 A unknown $end
$var tri1 1 B devclrn $end
$var tri1 1 C devpor $end
$var tri1 1 D devoe $end
$var wire 1 E sec_01[0]~output_o $end
$var wire 1 F sec_01[1]~output_o $end
$var wire 1 G sec_01[2]~output_o $end
$var wire 1 H sec_01[3]~output_o $end
$var wire 1 I sec_10[0]~output_o $end
$var wire 1 J sec_10[1]~output_o $end
$var wire 1 K sec_10[2]~output_o $end
$var wire 1 L sec_10[3]~output_o $end
$var wire 1 M min_01[0]~output_o $end
$var wire 1 N min_01[1]~output_o $end
$var wire 1 O min_01[2]~output_o $end
$var wire 1 P min_01[3]~output_o $end
$var wire 1 Q min_10[0]~output_o $end
$var wire 1 R min_10[1]~output_o $end
$var wire 1 S min_10[2]~output_o $end
$var wire 1 T min_10[3]~output_o $end
$var wire 1 U hour_01[0]~output_o $end
$var wire 1 V hour_01[1]~output_o $end
$var wire 1 W hour_01[2]~output_o $end
$var wire 1 X hour_01[3]~output_o $end
$var wire 1 Y hour_10[0]~output_o $end
$var wire 1 Z hour_10[1]~output_o $end
$var wire 1 [ hour_10[2]~output_o $end
$var wire 1 \ hour_10[3]~output_o $end
$var wire 1 ] alarm_en~output_o $end
$var wire 1 ^ clk~input_o $end
$var wire 1 _ clk~inputclkctrl_outclk $end
$var wire 1 ` sec_counter|Q_01[0]~3_combout $end
$var wire 1 a sec_counter|Q_01[2]~1_combout $end
$var wire 1 b sec_counter|Q_01~2_combout $end
$var wire 1 c sec_counter|Q_01~0_combout $end
$var wire 1 d sec_counter|Equal1~0_combout $end
$var wire 1 e sec_counter|Q_10[0]~0_combout $end
$var wire 1 f sec_counter|Add0~0_combout $end
$var wire 1 g sec_counter|Q_10[1]~2_combout $end
$var wire 1 h sec_counter|Q_10[2]~3_combout $end
$var wire 1 i sec_counter|Add0~1_combout $end
$var wire 1 j sec_counter|Q_10[3]~4_combout $end
$var wire 1 k sec_counter|cout~0_combout $end
$var wire 1 l sec_counter|Q_10[1]~1_combout $end
$var wire 1 m min_counter|Q_01[0]~3_combout $end
$var wire 1 n min_correct~input_o $end
$var wire 1 o min_en~combout $end
$var wire 1 p alarm_min_set~input_o $end
$var wire 1 q alarm_seting|min_alarm|Q_01[0]~3_combout $end
$var wire 1 r min_01~0_combout $end
$var wire 1 s min_counter|Q_01[2]~1_combout $end
$var wire 1 t min_counter|Q_01~2_combout $end
$var wire 1 u min_counter|Q_01~0_combout $end
$var wire 1 v alarm_seting|min_alarm|Q_01[2]~1_combout $end
$var wire 1 w alarm_seting|min_alarm|Q_01~2_combout $end
$var wire 1 x alarm_seting|min_alarm|Q_01~0_combout $end
$var wire 1 y min_01~1_combout $end
$var wire 1 z min_01~2_combout $end
$var wire 1 { min_01~3_combout $end
$var wire 1 | alarm_seting|min_alarm|Equal1~0_combout $end
$var wire 1 } alarm_seting|min_alarm|Q_10[0]~0_combout $end
$var wire 1 ~ min_counter|Equal1~0_combout $end
$var wire 1 !! min_counter|Q_10[0]~0_combout $end
$var wire 1 "! min_10~0_combout $end
$var wire 1 #! min_counter|Add0~0_combout $end
$var wire 1 $! min_counter|Q_10~3_combout $end
$var wire 1 %! sec_counter|cout~combout $end
$var wire 1 &! min_counter|Q_10[0]~2_combout $end
$var wire 1 '! min_counter|Q_10[3]~4_combout $end
$var wire 1 (! min_counter|cout~0_combout $end
$var wire 1 )! min_counter|Q_10~1_combout $end
$var wire 1 *! alarm_seting|min_alarm|Q_10[0]~2_combout $end
$var wire 1 +! alarm_seting|min_alarm|Q_10[0]~3_combout $end
$var wire 1 ,! alarm_seting|min_alarm|Add0~0_combout $end
$var wire 1 -! alarm_seting|min_alarm|Q_10~4_combout $end
$var wire 1 .! alarm_seting|min_alarm|Q_10[3]~5_combout $end
$var wire 1 /! alarm_seting|min_alarm|cout~0_combout $end
$var wire 1 0! alarm_seting|min_alarm|Q_10~1_combout $end
$var wire 1 1! min_10~1_combout $end
$var wire 1 2! min_10~2_combout $end
$var wire 1 3! min_10~3_combout $end
$var wire 1 4! hour_counter|Q_01[0]~6_combout $end
$var wire 1 5! hour_correct~input_o $end
$var wire 1 6! hour_en~combout $end
$var wire 1 7! alarm_hour_set~input_o $end
$var wire 1 8! alarm_seting|hour_alarm|Q_01[0]~6_combout $end
$var wire 1 9! hour_01~0_combout $end
$var wire 1 :! alarm_seting|hour_alarm|always0~2_combout $end
$var wire 1 ;! alarm_seting|hour_alarm|Q_01~5_combout $end
$var wire 1 <! alarm_seting|hour_alarm|Add1~0_combout $end
$var wire 1 =! alarm_seting|hour_alarm|Q_01~4_combout $end
$var wire 1 >! alarm_seting|hour_alarm|Equal2~0_combout $end
$var wire 1 ?! alarm_seting|hour_alarm|Q_10[0]~4_combout $end
$var wire 1 @! alarm_seting|hour_alarm|Q_10[1]~5_combout $end
$var wire 1 A! alarm_seting|hour_alarm|Q_10[2]~9_combout $end
$var wire 1 B! alarm_seting|hour_alarm|Q_10[2]~6_combout $end
$var wire 1 C! alarm_seting|hour_alarm|Q_10[3]~7_combout $end
$var wire 1 D! alarm_seting|hour_alarm|always0~1_combout $end
$var wire 1 E! alarm_seting|hour_alarm|Q_10[0]~8_combout $end
$var wire 1 F! alarm_seting|hour_alarm|always0~0_combout $end
$var wire 1 G! alarm_seting|hour_alarm|Q_01[1]~2_combout $end
$var wire 1 H! alarm_seting|hour_alarm|Q_01~3_combout $end
$var wire 1 I! hour_counter|Q_01~5_combout $end
$var wire 1 J! hour_counter|Add1~0_combout $end
$var wire 1 K! hour_counter|Q_01~4_combout $end
$var wire 1 L! hour_counter|Equal2~0_combout $end
$var wire 1 M! hour_counter|Q_10[0]~0_combout $end
$var wire 1 N! hour_counter|Q_10[0]~1_combout $end
$var wire 1 O! hour_counter|Q_10[1]~2_combout $end
$var wire 1 P! hour_counter|Q_10[2]~3_combout $end
$var wire 1 Q! hour_counter|Q_10[2]~4_combout $end
$var wire 1 R! hour_counter|Q_10[3]~5_combout $end
$var wire 1 S! hour_counter|always0~0_combout $end
$var wire 1 T! hour_counter|always0~1_combout $end
$var wire 1 U! hour_counter|Q_01[2]~2_combout $end
$var wire 1 V! hour_counter|Q_01~3_combout $end
$var wire 1 W! hour_01~1_combout $end
$var wire 1 X! hour_01~2_combout $end
$var wire 1 Y! hour_01~3_combout $end
$var wire 1 Z! hour_10~0_combout $end
$var wire 1 [! hour_10~1_combout $end
$var wire 1 \! hour_10~2_combout $end
$var wire 1 ]! hour_10~3_combout $end
$var wire 1 ^! Equal0~6_combout $end
$var wire 1 _! Equal0~5_combout $end
$var wire 1 `! Equal0~0_combout $end
$var wire 1 a! Equal0~1_combout $end
$var wire 1 b! Equal0~3_combout $end
$var wire 1 c! Equal0~2_combout $end
$var wire 1 d! Equal0~4_combout $end
$var wire 1 e! Equal0~8_combout $end
$var wire 1 f! Equal0~7_combout $end
$var wire 1 g! Equal0~9_combout $end
$var wire 1 h! Equal0~10_combout $end
$var wire 1 i! alarm_seting|hour_alarm|Q_10 [3] $end
$var wire 1 j! alarm_seting|hour_alarm|Q_10 [2] $end
$var wire 1 k! alarm_seting|hour_alarm|Q_10 [1] $end
$var wire 1 l! alarm_seting|hour_alarm|Q_10 [0] $end
$var wire 1 m! sec_counter|Q_01 [3] $end
$var wire 1 n! sec_counter|Q_01 [2] $end
$var wire 1 o! sec_counter|Q_01 [1] $end
$var wire 1 p! sec_counter|Q_01 [0] $end
$var wire 1 q! alarm_seting|min_alarm|Q_01 [3] $end
$var wire 1 r! alarm_seting|min_alarm|Q_01 [2] $end
$var wire 1 s! alarm_seting|min_alarm|Q_01 [1] $end
$var wire 1 t! alarm_seting|min_alarm|Q_01 [0] $end
$var wire 1 u! sec_counter|Q_10 [3] $end
$var wire 1 v! sec_counter|Q_10 [2] $end
$var wire 1 w! sec_counter|Q_10 [1] $end
$var wire 1 x! sec_counter|Q_10 [0] $end
$var wire 1 y! min_counter|Q_01 [3] $end
$var wire 1 z! min_counter|Q_01 [2] $end
$var wire 1 {! min_counter|Q_01 [1] $end
$var wire 1 |! min_counter|Q_01 [0] $end
$var wire 1 }! alarm_seting|hour_alarm|Q_01 [3] $end
$var wire 1 ~! alarm_seting|hour_alarm|Q_01 [2] $end
$var wire 1 !" alarm_seting|hour_alarm|Q_01 [1] $end
$var wire 1 "" alarm_seting|hour_alarm|Q_01 [0] $end
$var wire 1 #" alarm_seting|min_alarm|Q_10 [3] $end
$var wire 1 $" alarm_seting|min_alarm|Q_10 [2] $end
$var wire 1 %" alarm_seting|min_alarm|Q_10 [1] $end
$var wire 1 &" alarm_seting|min_alarm|Q_10 [0] $end
$var wire 1 '" min_counter|Q_10 [3] $end
$var wire 1 (" min_counter|Q_10 [2] $end
$var wire 1 )" min_counter|Q_10 [1] $end
$var wire 1 *" min_counter|Q_10 [0] $end
$var wire 1 +" hour_counter|Q_01 [3] $end
$var wire 1 ," hour_counter|Q_01 [2] $end
$var wire 1 -" hour_counter|Q_01 [1] $end
$var wire 1 ." hour_counter|Q_01 [0] $end
$var wire 1 /" hour_counter|Q_10 [3] $end
$var wire 1 0" hour_counter|Q_10 [2] $end
$var wire 1 1" hour_counter|Q_10 [1] $end
$var wire 1 2" hour_counter|Q_10 [0] $end
$upscope $end
$upscope $end
$enddefinitions $end
#0
$dumpvars
0!
0"
1#
0$
0%
1&
0*
0)
0(
0'
0.
0-
0,
0+
02
01
00
0/
06
05
04
03
0:
09
08
07
0>
0=
0<
0;
0?
1@
xA
1B
1C
1D
0E
0F
0G
0H
0I
0J
0K
0L
0M
0N
0O
0P
0Q
0R
0S
0T
0U
0V
0W
0X
0Y
0Z
0[
0\
1]
1^
1_
1`
0a
0b
0c
0d
0e
0f
0g
0h
0i
0j
0k
0l
1m
0n
0o
0p
1q
0r
0s
0t
0u
0v
0w
0x
0y
0z
0{
0|
0}
0~
0!!
0"!
0#!
0$!
0%!
0&!
0'!
0(!
0)!
0*!
0+!
0,!
0-!
0.!
0/!
00!
01!
02!
03!
14!
05!
06!
07!
18!
09!
0:!
0;!
0<!
0=!
0>!
0?!
0@!
0A!
0B!
0C!
0D!
0E!
0F!
0G!
0H!
0I!
0J!
0K!
0L!
0M!
0N!
0O!
0P!
0Q!
0R!
0S!
0T!
0U!
0V!
0W!
0X!
0Y!
0Z!
0[!
0\!
0]!
1^!
1_!
1`!
1a!
1b!
1c!
1d!
0e!
1f!
1g!
1h!
0l!
0k!
0j!
0i!
0p!
0o!
0n!
0m!
0t!
0s!
0r!
0q!
0x!
0w!
0v!
0u!
0|!
0{!
0z!
0y!
0""
0!"
0~!
0}!
0&"
0%"
0$"
0#"
0*"
0)"
0("
0'"
0."
0-"
0,"
0+"
02"
01"
00"
0/"
$end
#2500
0#
0^
0_
#5000
1#
1^
1_
1p!
1E
1:
1c
0`
#7500
0#
0^
0_
#10000
1"
1#
1p
1^
1_
1*!
1t!
1o!
0p!
0E
1F
0`!
19
0:
1x
1r
0q
1`
1M
0d!
12
0h!
0]
0&
#12500
0#
0^
0_
#15000
1#
1^
1_
1s!
0t!
1p!
1E
0*!
1:
1y
0r
1q
0c
1a
0`
0M
1N
11
02
#17500
0#
0^
0_
#20000
0"
1#
0p
1^
1_
0y
0N
01
0o!
1n!
0p!
0E
1G
0F
09
18
0:
1`
#22500
0#
0^
0_
#25000
1#
1^
1_
1p!
1E
1:
1c
0`
#27500
0#
0^
0_
#30000
1#
1^
1_
1o!
0p!
0E
1F
19
0:
1`
#32500
0#
0^
0_
#35000
1#
1^
1_
1p!
1E
1:
0c
1b
0a
0`
#37500
0#
0^
0_
#40000
1#
1^
1_
0o!
1m!
0n!
0p!
0E
0G
1H
0F
09
17
08
0:
1`
#42500
0#
0^
0_
#45000
1#
1^
1_
1p!
1E
1d
1:
0b
0`
1g
1e
#47500
0#
0^
0_
#50000
1#
1^
1_
1x!
0m!
0p!
0E
0H
1I
0d
1>
07
0:
1l
0e
1`
0g
0l
1e
#52500
0#
0^
0_
#55000
1#
1^
1_
1p!
1E
1:
1c
0`
#57500
0#
0^
0_
#60000
1#
1^
1_
1o!
0p!
0E
1F
19
0:
1`
#62500
0#
0^
0_
#65000
1#
1^
1_
1p!
1E
1:
0c
1a
0`
#67500
0#
0^
0_
#70000
1#
1^
1_
0o!
1n!
0p!
0E
1G
0F
09
18
0:
1`
#72500
0#
0^
0_
#75000
1#
1^
1_
1p!
1E
1:
1c
0`
#77500
0#
0^
0_
#80000
1#
1^
1_
1o!
0p!
0E
1F
19
0:
1`
#82500
0#
0^
0_
#85000
1#
1^
1_
1p!
1E
1:
0c
1b
0a
0`
#87500
0#
0^
0_
#90000
1#
1^
1_
0o!
1m!
0n!
0p!
0E
0G
1H
0F
09
17
08
0:
1`
#92500
0#
0^
0_
#95000
1#
1^
1_
1p!
1E
1d
1:
0b
0`
1g
1l
0e
#97500
0#
0^
0_
#100000
1#
1^
1_
1w!
0x!
0m!
0p!
0E
0H
0I
1J
0d
1=
0>
07
0:
1e
1`
0g
0e
#102500
0#
0^
0_
#105000
1#
1^
1_
1p!
1E
1:
1c
0`
#107500
0#
0^
0_
#110000
1#
1^
1_
1o!
0p!
0E
1F
19
0:
1`
#112500
0#
0^
0_
#115000
1#
1^
1_
1p!
1E
1:
0c
1a
0`
#117500
0#
0^
0_
#120000
1#
1^
1_
0o!
1n!
0p!
0E
1G
0F
09
18
0:
1`
#122500
0#
0^
0_
#125000
1#
1^
1_
1p!
1E
1:
1c
0`
#127500
0#
0^
0_
#130000
1#
1^
1_
1o!
0p!
0E
1F
19
0:
1`
#132500
0#
0^
0_
#135000
1#
1^
1_
1p!
1E
1:
0c
1b
0a
0`
#137500
0#
0^
0_
#140000
1#
1^
1_
0o!
1m!
0n!
0p!
0E
0G
1H
0F
09
17
08
0:
1`
#142500
0#
0^
0_
#145000
1#
1^
1_
1p!
1E
1d
1:
0b
0`
1g
1e
#147500
0#
0^
0_
#150000
1#
1^
1_
1x!
0m!
0p!
0E
0H
1I
1f
0d
1>
07
0:
0l
0e
1`
0g
1h
1l
1e
0h
#152500
0#
0^
0_
#155000
1#
1^
1_
1p!
1E
1:
1c
0`
#157500
0#
0^
0_
#160000
1#
1^
1_
1o!
0p!
0E
1F
19
0:
1`
#162500
0#
0^
0_
#165000
1#
1^
1_
1p!
1E
1:
0c
1a
0`
#167500
0#
0^
0_
#170000
1#
1^
1_
0o!
1n!
0p!
0E
1G
0F
09
18
0:
1`
#172500
0#
0^
0_
#175000
1#
1^
1_
1p!
1E
1:
1c
0`
#177500
0#
0^
0_
#180000
1#
1^
1_
1o!
0p!
0E
1F
19
0:
1`
#182500
0#
0^
0_
#185000
1#
1^
1_
1p!
1E
1:
0c
1b
0a
0`
#187500
0#
0^
0_
#190000
1#
1^
1_
0o!
1m!
0n!
0p!
0E
0G
1H
0F
09
17
08
0:
1`
#192500
0#
0^
0_
#195000
1#
1^
1_
1p!
1E
1d
1:
0b
0`
1g
0l
0e
1h
#197500
0#
0^
0_
#200000
1#
1^
1_
0w!
1v!
0x!
0m!
0p!
0E
0H
0I
1K
0J
1k
0d
0=
1<
0>
07
0:
1e
1`
0g
0e
#202500
0#
0^
0_
#205000
1#
1^
1_
1p!
1E
1:
1c
0`
#207500
0#
0^
0_
#210000
1#
1^
1_
1o!
0p!
0E
1F
19
0:
1`
#212500
0#
0^
0_
#215000
1#
1^
1_
1p!
1E
1:
0c
1a
0`
#217500
0#
0^
0_
#220000
1#
1^
1_
0o!
1n!
0p!
0E
1G
0F
09
18
0:
1`
#222500
0#
0^
0_
#225000
1#
1^
1_
1p!
1E
1:
1c
0`
#227500
0#
0^
0_
#230000
1#
1^
1_
1o!
0p!
0E
1F
19
0:
1`
#232500
0#
0^
0_
#235000
1#
1^
1_
1p!
1E
1:
0c
1b
0a
0`
#237500
0#
0^
0_
#240000
1#
1^
1_
0o!
1m!
0n!
0p!
0E
0G
1H
0F
09
17
08
0:
1`
#242500
0#
0^
0_
#245000
1#
1^
1_
1p!
1E
1d
1:
0b
0`
1g
0h
1e
1h
#247500
0#
0^
0_
#250000
1#
1^
1_
1x!
0m!
0p!
0E
0H
1I
1%!
1o
0g
0d
1>
07
0:
0e
1`
0%!
0o
1e
#252500
0#
0^
0_
#255000
1#
1^
1_
1p!
1E
1:
1c
0`
#257500
0#
0^
0_
#260000
1#
1^
1_
1o!
0p!
0E
1F
19
0:
1`
#262500
0#
0^
0_
#265000
1#
1^
1_
1p!
1E
1:
0c
1a
0`
#267500
0#
0^
0_
#270000
1#
1^
1_
0o!
1n!
0p!
0E
1G
0F
09
18
0:
1`
#272500
0#
0^
0_
#275000
1#
1^
1_
1p!
1E
1:
1c
0`
#277500
0#
0^
0_
#280000
1#
1^
1_
1o!
0p!
0E
1F
19
0:
1`
#282500
0#
0^
0_
#285000
1#
1^
1_
1p!
1E
1:
0c
1b
0a
0`
#287500
0#
0^
0_
#290000
1#
1^
1_
0o!
1m!
0n!
0p!
0E
0G
1H
0F
09
17
08
0:
1`
#292500
0#
0^
0_
#295000
1#
1^
1_
1p!
1E
1d
1:
0b
0`
1%!
1o
0h
0e
#297500
0#
0^
0_
#300000
1#
1^
1_
1|!
0v!
0x!
0m!
0p!
0E
0H
0I
0K
0k
0f
0%!
0o
1g
0d
0<
0>
07
0:
1u
1r
0m
1e
1`
1M
0g
12
0e
#302500
0#
0^
0_
#305000
1#
1^
1_
1p!
1E
1:
1c
0`
#307500
0#
0^
0_
#310000
1#
1^
1_
1o!
0p!
0E
1F
19
0:
1`
#312500
0#
0^
0_
#315000
1#
1^
1_
1p!
1E
1:
0c
1a
0`
#317500
0#
0^
0_
#320000
1#
1^
1_
0o!
1n!
0p!
0E
1G
0F
09
18
0:
1`
#322500
0#
0^
0_
#325000
1#
1^
1_
1p!
1E
1:
1c
0`
#327500
0#
0^
0_
#330000
1#
1^
1_
1o!
0p!
0E
1F
19
0:
1`
#332500
0#
0^
0_
#335000
1#
1^
1_
1p!
1E
1:
0c
1b
0a
0`
#337500
0#
0^
0_
#340000
1#
1^
1_
0o!
1m!
0n!
0p!
0E
0G
1H
0F
09
17
08
0:
1`
#342500
0#
0^
0_
#345000
1#
1^
1_
1p!
1E
1d
1:
0b
0`
1g
1e
#347500
0#
0^
0_
#350000
1#
1^
1_
1x!
0m!
0p!
0E
0H
1I
0d
1>
07
0:
1l
0e
1`
0g
0l
1e
#352500
0#
0^
0_
#355000
1#
1^
1_
1p!
1E
1:
1c
0`
#357500
0#
0^
0_
#360000
1#
1^
1_
1o!
0p!
0E
1F
19
0:
1`
#362500
0#
0^
0_
#365000
1#
1^
1_
1p!
1E
1:
0c
1a
0`
#367500
0#
0^
0_
#370000
1#
1^
1_
0o!
1n!
0p!
0E
1G
0F
09
18
0:
1`
#372500
0#
0^
0_
#375000
1#
1^
1_
1p!
1E
1:
1c
0`
#377500
0#
0^
0_
#380000
1#
1^
1_
1o!
0p!
0E
1F
19
0:
1`
#382500
0#
0^
0_
#385000
1#
1^
1_
1p!
1E
1:
0c
1b
0a
0`
#387500
0#
0^
0_
#390000
1#
1^
1_
0o!
1m!
0n!
0p!
0E
0G
1H
0F
09
17
08
0:
1`
#392500
0#
0^
0_
#395000
1#
1^
1_
1p!
1E
1d
1:
0b
0`
1g
1l
0e
#397500
0#
0^
0_
#400000
1#
1^
1_
1w!
0x!
0m!
0p!
0E
0H
0I
1J
0d
1=
0>
07
0:
1e
1`
0g
0e
#402500
0#
0^
0_
#405000
1#
1^
1_
1p!
1E
1:
1c
0`
#407500
0#
0^
0_
#410000
1#
1^
1_
1o!
0p!
0E
1F
19
0:
1`
#412500
0#
0^
0_
#415000
1#
1^
1_
1p!
1E
1:
0c
1a
0`
#417500
0#
0^
0_
#420000
1#
1^
1_
0o!
1n!
0p!
0E
1G
0F
09
18
0:
1`
#422500
0#
0^
0_
#425000
1#
1^
1_
1p!
1E
1:
1c
0`
#427500
0#
0^
0_
#430000
1#
1^
1_
1o!
0p!
0E
1F
19
0:
1`
#432500
0#
0^
0_
#435000
1#
1^
1_
1p!
1E
1:
0c
1b
0a
0`
#437500
0#
0^
0_
#440000
1#
1^
1_
0o!
1m!
0n!
0p!
0E
0G
1H
0F
09
17
08
0:
1`
#442500
0#
0^
0_
#445000
1#
1^
1_
1p!
1E
1d
1:
0b
0`
1g
1e
#447500
0#
0^
0_
#450000
1#
1^
1_
1x!
0m!
0p!
0E
0H
1I
1f
0d
1>
07
0:
0l
0e
1`
0g
1h
1l
1e
0h
#452500
0#
0^
0_
#455000
1#
1^
1_
1p!
1E
1:
1c
0`
#457500
0#
0^
0_
#460000
1#
1^
1_
1o!
0p!
0E
1F
19
0:
1`
#462500
0#
0^
0_
#465000
1#
1^
1_
1p!
1E
1:
0c
1a
0`
#467500
0#
0^
0_
#470000
1#
1^
1_
0o!
1n!
0p!
0E
1G
0F
09
18
0:
1`
#472500
0#
0^
0_
#475000
1#
1^
1_
1p!
1E
1:
1c
0`
#477500
0#
0^
0_
#480000
1#
1^
1_
1o!
0p!
0E
1F
19
0:
1`
#482500
0#
0^
0_
#485000
1#
1^
1_
1p!
1E
1:
0c
1b
0a
0`
#487500
0#
0^
0_
#490000
1#
1^
1_
0o!
1m!
0n!
0p!
0E
0G
1H
0F
09
17
08
0:
1`
#492500
0#
0^
0_
#495000
1#
1^
1_
1p!
1E
1d
1:
0b
0`
1g
0l
0e
1h
#497500
0#
0^
0_
#500000
1#
1^
1_
0w!
1v!
0x!
0m!
0p!
0E
0H
0I
1K
0J
1k
0d
0=
1<
0>
07
0:
1e
1`
0g
0e
#502500
0#
0^
0_
#505000
1#
1^
1_
1p!
1E
1:
1c
0`
#507500
0#
0^
0_
#510000
1#
1^
1_
1o!
0p!
0E
1F
19
0:
1`
#512500
0#
0^
0_
#515000
1#
1^
1_
1p!
1E
1:
0c
1a
0`
#517500
0#
0^
0_
#520000
1#
1^
1_
0o!
1n!
0p!
0E
1G
0F
09
18
0:
1`
#522500
0#
0^
0_
#525000
1#
1^
1_
1p!
1E
1:
1c
0`
#527500
0#
0^
0_
#530000
1#
1^
1_
1o!
0p!
0E
1F
19
0:
1`
#532500
0#
0^
0_
#535000
1#
1^
1_
1p!
1E
1:
0c
1b
0a
0`
#537500
0#
0^
0_
#540000
1#
1^
1_
0o!
1m!
0n!
0p!
0E
0G
1H
0F
09
17
08
0:
1`
#542500
0#
0^
0_
#545000
1#
1^
1_
1p!
1E
1d
1:
0b
0`
1g
0h
1e
1h
#547500
0#
0^
0_
#550000
1#
1^
1_
1x!
0m!
0p!
0E
0H
1I
1%!
1o
0g
0d
1>
07
0:
0e
1`
0%!
0o
1e
#552500
0#
0^
0_
#555000
1#
1^
1_
1p!
1E
1:
1c
0`
#557500
0#
0^
0_
#560000
1#
1^
1_
1o!
0p!
0E
1F
19
0:
1`
#562500
0#
0^
0_
#565000
1#
1^
1_
1p!
1E
1:
0c
1a
0`
#567500
0#
0^
0_
#570000
1#
1^
1_
0o!
1n!
0p!
0E
1G
0F
09
18
0:
1`
#572500
0#
0^
0_
#575000
1#
1^
1_
1p!
1E
1:
1c
0`
#577500
0#
0^
0_
#580000
1#
1^
1_
1o!
0p!
0E
1F
19
0:
1`
#582500
0#
0^
0_
#585000
1#
1^
1_
1p!
1E
1:
0c
1b
0a
0`
#587500
0#
0^
0_
#590000
1#
1^
1_
0o!
1m!
0n!
0p!
0E
0G
1H
0F
09
17
08
0:
1`
#592500
0#
0^
0_
#595000
1#
1^
1_
1p!
1E
1d
1:
0b
0`
1%!
1o
0h
0e
#597500
0#
0^
0_
#600000
1#
1^
1_
1{!
0|!
0v!
0x!
0m!
0p!
0E
0H
0I
0K
1`!
0k
0f
0%!
0o
1g
0d
0<
0>
07
0:
1y
0r
1m
1e
1`
0M
1N
1d!
0g
11
02
0e
1h!
1]
1&
#602500
0#
0^
0_
#605000
1#
1^
1_
1p!
1E
1:
1c
0`
#607500
0#
0^
0_
#610000
1#
1^
1_
1o!
0p!
0E
1F
19
0:
1`
#612500
0#
0^
0_
#615000
1#
1^
1_
1p!
1E
1:
0c
1a
0`
#617500
0#
0^
0_
#620000
1#
1^
1_
0o!
1n!
0p!
0E
1G
0F
09
18
0:
1`
#622500
0#
0^
0_
#625000
1#
1^
1_
1p!
1E
1:
1c
0`
#627500
0#
0^
0_
#630000
1#
1^
1_
1o!
0p!
0E
1F
19
0:
1`
#632500
0#
0^
0_
#635000
1#
1^
1_
1p!
1E
1:
0c
1b
0a
0`
#637500
0#
0^
0_
#640000
1#
1^
1_
0o!
1m!
0n!
0p!
0E
0G
1H
0F
09
17
08
0:
1`
#642500
0#
0^
0_
#645000
1#
1^
1_
1p!
1E
1d
1:
0b
0`
1g
1e
#647500
0#
0^
0_
#650000
1#
1^
1_
1x!
0m!
0p!
0E
0H
1I
0d
1>
07
0:
1l
0e
1`
0g
0l
1e
#652500
0#
0^
0_
#655000
1#
1^
1_
1p!
1E
1:
1c
0`
#657500
0#
0^
0_
#660000
1#
1^
1_
1o!
0p!
0E
1F
19
0:
1`
#662500
0#
0^
0_
#665000
1#
1^
1_
1p!
1E
1:
0c
1a
0`
#667500
0#
0^
0_
#670000
1#
1^
1_
0o!
1n!
0p!
0E
1G
0F
09
18
0:
1`
#672500
0#
0^
0_
#675000
1#
1^
1_
1p!
1E
1:
1c
0`
#677500
0#
0^
0_
#680000
1#
1^
1_
1o!
0p!
0E
1F
19
0:
1`
#682500
0#
0^
0_
#685000
1#
1^
1_
1p!
1E
1:
0c
1b
0a
0`
#687500
0#
0^
0_
#690000
1#
1^
1_
0o!
1m!
0n!
0p!
0E
0G
1H
0F
09
17
08
0:
1`
#692500
0#
0^
0_
#695000
1#
1^
1_
1p!
1E
1d
1:
0b
0`
1g
1l
0e
#697500
0#
0^
0_
#700000
1#
1^
1_
1w!
0x!
0m!
0p!
0E
0H
0I
1J
0d
1=
0>
07
0:
1e
1`
0g
0e
#702500
0#
0^
0_
#705000
1#
1^
1_
1p!
1E
1:
1c
0`
#707500
0#
0^
0_
#710000
1#
1^
1_
1o!
0p!
0E
1F
19
0:
1`
#712500
0#
0^
0_
#715000
1#
1^
1_
1p!
1E
1:
0c
1a
0`
#717500
0#
0^
0_
#720000
1#
1^
1_
0o!
1n!
0p!
0E
1G
0F
09
18
0:
1`
#722500
0#
0^
0_
#725000
1#
1^
1_
1p!
1E
1:
1c
0`
#727500
0#
0^
0_
#730000
1#
1^
1_
1o!
0p!
0E
1F
19
0:
1`
#732500
0#
0^
0_
#735000
1#
1^
1_
1p!
1E
1:
0c
1b
0a
0`
#737500
0#
0^
0_
#740000
1#
1^
1_
0o!
1m!
0n!
0p!
0E
0G
1H
0F
09
17
08
0:
1`
#742500
0#
0^
0_
#745000
1#
1^
1_
1p!
1E
1d
1:
0b
0`
1g
1e
#747500
0#
0^
0_
#750000
1#
1^
1_
1x!
0m!
0p!
0E
0H
1I
1f
0d
1>
07
0:
0l
0e
1`
0g
1h
1l
1e
0h
#752500
0#
0^
0_
#755000
1#
1^
1_
1p!
1E
1:
1c
0`
#757500
0#
0^
0_
#760000
1#
1^
1_
1o!
0p!
0E
1F
19
0:
1`
#762500
0#
0^
0_
#765000
1#
1^
1_
1p!
1E
1:
0c
1a
0`
#767500
0#
0^
0_
#770000
1#
1^
1_
0o!
1n!
0p!
0E
1G
0F
09
18
0:
1`
#772500
0#
0^
0_
#775000
1#
1^
1_
1p!
1E
1:
1c
0`
#777500
0#
0^
0_
#780000
1#
1^
1_
1o!
0p!
0E
1F
19
0:
1`
#782500
0#
0^
0_
#785000
1#
1^
1_
1p!
1E
1:
0c
1b
0a
0`
#787500
0#
0^
0_
#790000
1#
1^
1_
0o!
1m!
0n!
0p!
0E
0G
1H
0F
09
17
08
0:
1`
#792500
0#
0^
0_
#795000
1#
1^
1_
1p!
1E
1d
1:
0b
0`
1g
0l
0e
1h
#797500
0#
0^
0_
#800000
1#
1^
1_
0w!
1v!
0x!
0m!
0p!
0E
0H
0I
1K
0J
1k
0d
0=
1<
0>
07
0:
1e
1`
0g
0e
#802500
0#
0^
0_
#805000
1#
1^
1_
1p!
1E
1:
1c
0`
#807500
0#
0^
0_
#810000
1#
1^
1_
1o!
0p!
0E
1F
19
0:
1`
#812500
0#
0^
0_
#815000
1#
1^
1_
1p!
1E
1:
0c
1a
0`
