Lab 2/prj/alarm_clock/simulation/qsim/alarm_clock.msim.vcd
$comment
	File created using the following command:
		vcd file alarm_clock.msim.vcd -direction
$end
$date
	Sun May 10 12:56:51 2020
$end
$version
	ModelSim Version 10.5b
$end
$timescale
	1ps
$end

$scope module alarm_clock_vlg_vec_tst $end
$var reg 1 ! alarm_hour_set $end
$var reg 1 " alarm_min_set $end
$var reg 1 # clk_1Hz $end
$var reg 1 $ hour_correct $end
$var reg 1 % min_correct $end
$var wire 1 & alarm_en $end
$var wire 1 ' hour_01 [3] $end
$var wire 1 ( hour_01 [2] $end
$var wire 1 ) hour_01 [1] $end
$var wire 1 * hour_01 [0] $end
$var wire 1 + hour_10 [3] $end
$var wire 1 , hour_10 [2] $end
$var wire 1 - hour_10 [1] $end
$var wire 1 . hour_10 [0] $end
$var wire 1 / min_01 [3] $end
$var wire 1 0 min_01 [2] $end
$var wire 1 1 min_01 [1] $end
$var wire 1 2 min_01 [0] $end
$var wire 1 3 min_10 [3] $end
$var wire 1 4 min_10 [2] $end
$var wire 1 5 min_10 [1] $end
$var wire 1 6 min_10 [0] $end
$var wire 1 7 sec_01 [3] $end
$var wire 1 8 sec_01 [2] $end
$var wire 1 9 sec_01 [1] $end
$var wire 1 : sec_01 [0] $end
$var wire 1 ; sec_10 [3] $end
$var wire 1 < sec_10 [2] $end
$var wire 1 = sec_10 [1] $end
$var wire 1 > sec_10 [0] $end
$var wire 1 ? timing_en_1 $end
$var wire 1 @ timing_en_2 $end

$scope module i1 $end
$var wire 1 A gnd $end
$var wire 1 B vcc $end
$var wire 1 C unknown $end
$var tri1 1 D devclrn $end
$var tri1 1 E devpor $end
$var tri1 1 F devoe $end
$var wire 1 G sec_01[0]~output_o $end
$var wire 1 H sec_01[1]~output_o $end
$var wire 1 I sec_01[2]~output_o $end
$var wire 1 J sec_01[3]~output_o $end
$var wire 1 K sec_10[0]~output_o $end
$var wire 1 L sec_10[1]~output_o $end
$var wire 1 M sec_10[2]~output_o $end
$var wire 1 N sec_10[3]~output_o $end
$var wire 1 O min_01[0]~output_o $end
$var wire 1 P min_01[1]~output_o $end
$var wire 1 Q min_01[2]~output_o $end
$var wire 1 R min_01[3]~output_o $end
$var wire 1 S min_10[0]~output_o $end
$var wire 1 T min_10[1]~output_o $end
$var wire 1 U min_10[2]~output_o $end
$var wire 1 V min_10[3]~output_o $end
$var wire 1 W hour_01[0]~output_o $end
$var wire 1 X hour_01[1]~output_o $end
$var wire 1 Y hour_01[2]~output_o $end
$var wire 1 Z hour_01[3]~output_o $end
$var wire 1 [ hour_10[0]~output_o $end
$var wire 1 \ hour_10[1]~output_o $end
$var wire 1 ] hour_10[2]~output_o $end
$var wire 1 ^ hour_10[3]~output_o $end
$var wire 1 _ alarm_en~output_o $end
$var wire 1 ` timing_en_1~output_o $end
$var wire 1 a timing_en_2~output_o $end
$var wire 1 b clk_1Hz~input_o $end
$var wire 1 c clk_1Hz~inputclkctrl_outclk $end
$var wire 1 d sec_counter|Q_01[0]~3_combout $end
$var wire 1 e sec_counter|Q_01[2]~1_combout $end
$var wire 1 f sec_counter|Q_01~2_combout $end
$var wire 1 g sec_counter|Q_01~0_combout $end
$var wire 1 h sec_counter|Equal1~0_combout $end
$var wire 1 i sec_counter|Q_10[0]~0_combout $end
$var wire 1 j sec_counter|Add0~0_combout $end
$var wire 1 k sec_counter|Q_10[2]~3_combout $end
$var wire 1 l sec_counter|Add0~1_combout $end
$var wire 1 m sec_counter|Q_10[3]~4_combout $end
$var wire 1 n T_alarm|Equal3~1_combout $end
$var wire 1 o sec_counter|Q_10[1]~1_combout $end
$var wire 1 p sec_counter|Q_10[1]~2_combout $end
$var wire 1 q alarm_seting|min_alarm|Q_01[0]~3_combout $end
$var wire 1 r alarm_min_set~input_o $end
$var wire 1 s alarm_hour_set~input_o $end
$var wire 1 t min_counter|Q_01[0]~3_combout $end
$var wire 1 u min_correct~input_o $end
$var wire 1 v sec_counter|cout~combout $end
$var wire 1 w min_en~combout $end
$var wire 1 x min_01~0_combout $end
$var wire 1 y min_counter|Q_01[2]~1_combout $end
$var wire 1 z min_counter|Q_01~2_combout $end
$var wire 1 { min_counter|Q_01~0_combout $end
$var wire 1 | alarm_seting|min_alarm|Q_01[2]~1_combout $end
$var wire 1 } alarm_seting|min_alarm|Q_01~2_combout $end
$var wire 1 ~ alarm_seting|min_alarm|Q_01~0_combout $end
$var wire 1 !! min_01~1_combout $end
$var wire 1 "! min_01~2_combout $end
$var wire 1 #! min_01~3_combout $end
$var wire 1 $! alarm_seting|min_alarm|Equal1~0_combout $end
$var wire 1 %! alarm_seting|min_alarm|Q_10[0]~0_combout $end
$var wire 1 &! min_counter|Equal1~0_combout $end
$var wire 1 '! min_counter|Q_10[0]~2_combout $end
$var wire 1 (! min_10~0_combout $end
$var wire 1 )! min_counter|Add0~0_combout $end
$var wire 1 *! min_counter|Q_10~6_combout $end
$var wire 1 +! min_counter|Q_10[0]~4_combout $end
$var wire 1 ,! min_counter|Q_10[3]~5_combout $end
$var wire 1 -! T_alarm|timing_en_1~1_combout $end
$var wire 1 .! min_counter|cout~combout $end
$var wire 1 /! min_counter|Q_10~3_combout $end
$var wire 1 0! alarm_seting|min_alarm|Add0~0_combout $end
$var wire 1 1! alarm_seting|min_alarm|Q_10~4_combout $end
$var wire 1 2! alarm_seting|min_alarm|Q_10[0]~2_combout $end
$var wire 1 3! alarm_seting|min_alarm|Q_10[0]~3_combout $end
$var wire 1 4! alarm_seting|min_alarm|Q_10[3]~5_combout $end
$var wire 1 5! alarm_seting|min_alarm|cout~0_combout $end
$var wire 1 6! alarm_seting|min_alarm|Q_10~1_combout $end
$var wire 1 7! min_10~1_combout $end
$var wire 1 8! min_10~2_combout $end
$var wire 1 9! min_10~3_combout $end
$var wire 1 :! alarm_seting|hour_alarm|Q_01[0]~7_combout $end
$var wire 1 ;! hour_counter|Q_01[0]~6_combout $end
$var wire 1 <! hour_correct~input_o $end
$var wire 1 =! hour_en~combout $end
$var wire 1 >! hour_01~0_combout $end
$var wire 1 ?! hour_counter|Q_01~5_combout $end
$var wire 1 @! hour_counter|Equal2~0_combout $end
$var wire 1 A! hour_counter|Add1~0_combout $end
$var wire 1 B! hour_counter|Q_01~4_combout $end
$var wire 1 C! hour_counter|Q_10[0]~2_combout $end
$var wire 1 D! hour_counter|Q_10[0]~7_combout $end
$var wire 1 E! hour_counter|Q_10[1]~3_combout $end
$var wire 1 F! hour_counter|Q_10[2]~4_combout $end
$var wire 1 G! hour_counter|Q_10[2]~5_combout $end
$var wire 1 H! hour_counter|Q_10[3]~6_combout $end
$var wire 1 I! hour_counter|always0~0_combout $end
$var wire 1 J! hour_counter|always0~1_combout $end
$var wire 1 K! hour_counter|Q_01[2]~2_combout $end
$var wire 1 L! hour_counter|Q_01~3_combout $end
$var wire 1 M! alarm_seting|hour_alarm|always0~2_combout $end
$var wire 1 N! alarm_seting|hour_alarm|Q_01[1]~4_combout $end
$var wire 1 O! alarm_seting|hour_alarm|Q_01~6_combout $end
$var wire 1 P! alarm_seting|hour_alarm|Add1~0_combout $end
$var wire 1 Q! alarm_seting|hour_alarm|Q_01~5_combout $end
$var wire 1 R! alarm_seting|hour_alarm|Equal2~0_combout $end
$var wire 1 S! alarm_seting|hour_alarm|Q_10[0]~4_combout $end
$var wire 1 T! alarm_seting|hour_alarm|Q_10[1]~5_combout $end
$var wire 1 U! alarm_seting|hour_alarm|Q_10[2]~9_combout $end
$var wire 1 V! alarm_seting|hour_alarm|Q_10[2]~6_combout $end
$var wire 1 W! alarm_seting|hour_alarm|Q_10[3]~7_combout $end
$var wire 1 X! alarm_seting|hour_alarm|always0~1_combout $end
$var wire 1 Y! alarm_seting|hour_alarm|Q_10[0]~8_combout $end
$var wire 1 Z! alarm_seting|hour_alarm|always0~0_combout $end
$var wire 1 [! alarm_seting|hour_alarm|Q_01~2_combout $end
$var wire 1 \! alarm_seting|hour_alarm|Q_01~3_combout $end
$var wire 1 ]! hour_01~1_combout $end
$var wire 1 ^! hour_01~2_combout $end
$var wire 1 _! hour_01~3_combout $end
$var wire 1 `! hour_10~0_combout $end
$var wire 1 a! hour_10~1_combout $end
$var wire 1 b! hour_10~2_combout $end
$var wire 1 c! hour_10~3_combout $end
$var wire 1 d! ALARM|alarm_en~0_combout $end
$var wire 1 e! ALARM|alarm_en~3_combout $end
$var wire 1 f! ALARM|alarm_en~1_combout $end
$var wire 1 g! ALARM|alarm_en~2_combout $end
$var wire 1 h! ALARM|alarm_en~4_combout $end
$var wire 1 i! ALARM|alarm_en~8_combout $end
$var wire 1 j! ALARM|alarm_en~9_combout $end
$var wire 1 k! ALARM|alarm_en~6_combout $end
$var wire 1 l! ALARM|alarm_en~7_combout $end
$var wire 1 m! ALARM|alarm_en~10_combout $end
$var wire 1 n! ALARM|alarm_en~5_combout $end
$var wire 1 o! ALARM|alarm_en~11_combout $end
$var wire 1 p! T_alarm|Equal3~0_combout $end
$var wire 1 q! T_alarm|Equal3~2_combout $end
$var wire 1 r! T_alarm|timing_en_1~0_combout $end
$var wire 1 s! T_alarm|timing_en_1~2_combout $end
$var wire 1 t! T_alarm|timing_en_1~3_combout $end
$var wire 1 u! T_alarm|Equal3~3_combout $end
$var wire 1 v! T_alarm|Equal3~5_combout $end
$var wire 1 w! T_alarm|Equal3~4_combout $end
$var wire 1 x! T_alarm|Equal3~6_combout $end
$var wire 1 y! alarm_seting|min_alarm|Q_01 [3] $end
$var wire 1 z! alarm_seting|min_alarm|Q_01 [2] $end
$var wire 1 {! alarm_seting|min_alarm|Q_01 [1] $end
$var wire 1 |! alarm_seting|min_alarm|Q_01 [0] $end
$var wire 1 }! sec_counter|Q_01 [3] $end
$var wire 1 ~! sec_counter|Q_01 [2] $end
$var wire 1 !" sec_counter|Q_01 [1] $end
$var wire 1 "" sec_counter|Q_01 [0] $end
$var wire 1 #" min_counter|Q_10 [3] $end
$var wire 1 $" min_counter|Q_10 [2] $end
$var wire 1 %" min_counter|Q_10 [1] $end
$var wire 1 &" min_counter|Q_10 [0] $end
$var wire 1 '" sec_counter|Q_10 [3] $end
$var wire 1 (" sec_counter|Q_10 [2] $end
$var wire 1 )" sec_counter|Q_10 [1] $end
$var wire 1 *" sec_counter|Q_10 [0] $end
$var wire 1 +" min_counter|Q_01 [3] $end
$var wire 1 ," min_counter|Q_01 [2] $end
$var wire 1 -" min_counter|Q_01 [1] $end
$var wire 1 ." min_counter|Q_01 [0] $end
$var wire 1 /" alarm_seting|hour_alarm|Q_01 [3] $end
$var wire 1 0" alarm_seting|hour_alarm|Q_01 [2] $end
$var wire 1 1" alarm_seting|hour_alarm|Q_01 [1] $end
$var wire 1 2" alarm_seting|hour_alarm|Q_01 [0] $end
$var wire 1 3" alarm_seting|min_alarm|Q_10 [3] $end
$var wire 1 4" alarm_seting|min_alarm|Q_10 [2] $end
$var wire 1 5" alarm_seting|min_alarm|Q_10 [1] $end
$var wire 1 6" alarm_seting|min_alarm|Q_10 [0] $end
$var wire 1 7" hour_counter|Q_01 [3] $end
$var wire 1 8" hour_counter|Q_01 [2] $end
$var wire 1 9" hour_counter|Q_01 [1] $end
$var wire 1 :" hour_counter|Q_01 [0] $end
$var wire 1 ;" alarm_seting|hour_alarm|Q_10 [3] $end
$var wire 1 <" alarm_seting|hour_alarm|Q_10 [2] $end
$var wire 1 =" alarm_seting|hour_alarm|Q_10 [1] $end
$var wire 1 >" alarm_seting|hour_alarm|Q_10 [0] $end
$var wire 1 ?" hour_counter|Q_10 [3] $end
$var wire 1 @" hour_counter|Q_10 [2] $end
$var wire 1 A" hour_counter|Q_10 [1] $end
$var wire 1 B" hour_counter|Q_10 [0] $end
$upscope $end
$upscope $end
$enddefinitions $end
#0
$dumpvars
0!
0"
1#
0$
0%
1&
0*
0)
0(
0'
0.
0-
0,
0+
02
01
00
0/
06
05
04
03
0:
09
08
07
0>
0=
0<
0;
0?
1@
0A
1B
xC
1D
1E
1F
0G
0H
0I
0J
0K
0L
0M
0N
0O
0P
0Q
0R
0S
0T
0U
0V
0W
0X
0Y
0Z
0[
0\
0]
0^
1_
0`
1a
1b
1c
1d
0e
0f
0g
0h
0i
0j
0k
0l
0m
1n
0o
0p
1q
0r
0s
1t
0u
0v
0w
0x
0y
0z
0{
0|
0}
0~
0!!
0"!
0#!
0$!
0%!
0&!
0'!
0(!
0)!
0*!
0+!
0,!
0-!
0.!
0/!
00!
01!
02!
03!
04!
05!
06!
07!
08!
09!
1:!
1;!
0<!
0=!
0>!
0?!
0@!
0A!
0B!
0C!
0D!
0E!
0F!
0G!
0H!
0I!
0J!
0K!
0L!
0M!
0N!
0O!
0P!
0Q!
0R!
0S!
0T!
0U!
0V!
0W!
0X!
0Y!
0Z!
0[!
0\!
0]!
0^!
0_!
0`!
0a!
0b!
0c!
1d!
1e!
1f!
1g!
1h!
1i!
1j!
1k!
1l!
1m!
1n!
1o!
1p!
1q!
0r!
0s!
0t!
1u!
1v!
1w!
1x!
0|!
0{!
0z!
0y!
0""
0!"
0~!
0}!
0&"
0%"
0$"
0#"
0*"
0)"
0("
0'"
0."
0-"
0,"
0+"
02"
01"
00"
0/"
06"
05"
04"
03"
0:"
09"
08"
07"
0>"
0="
0<"
0;"
0B"
0A"
0@"
0?"
$end
#2500
0#
0b
0c
#5000
1#
1b
1c
1""
1G
0v!
1:
1g
0d
0x!
0a
0@
#7500
0#
0b
0c
#10000
1%
1#
1u
1b
1c
1w
1!"
0""
0G
1H
0w!
1v!
19
0:
1d
#12500
0#
0b
0c
#15000
1#
1b
1c
1."
1""
1G
0u!
0i!
0v!
1:
1{
1x
0t
0g
1e
0d
1O
0m!
12
0o!
0_
0&
#17500
0#
0b
0c
#20000
1#
1b
1c
1-"
0."
0!"
1~!
0""
0G
1I
0H
0q!
0j!
1u!
1i!
1v!
09
18
0:
1!!
0x
1t
1d
0O
1P
11
02
#22500
0#
0b
0c
#25000
1#
1b
1c
1."
1""
1G
0u!
0i!
0v!
1r!
1:
0{
1y
1x
0t
1g
0d
1O
12
#27500
0#
0b
0c
#30000
1#
1b
1c
0-"
1,"
0."
1!"
0""
0G
1H
1u!
1i!
1v!
19
0:
0!!
1"!
0x
1t
1d
0O
1Q
0P
01
10
02
#32500
0#
0b
0c
#35000
1#
1b
1c
1."
1""
1G
0u!
0i!
0v!
1:
1{
1x
0t
0g
1f
0e
0d
1O
12
#37500
0#
0b
0c
#40000
1#
1b
1c
1-"
0."
0!"
1}!
0~!
0""
0G
0I
1J
0H
1u!
1i!
1v!
09
17
08
0:
1!!
0x
1t
1d
0O
1P
11
02
#42500
0#
0b
0c
#45000
1#
1b
1c
1."
1""
1G
0u!
0i!
0v!
1h
1:
0{
1z
0y
1x
0t
0f
0d
1O
1o
12
1i
#47500
0#
0b
0c
#50000
1#
1b
1c
0-"
1+"
0,"
0."
1*"
0}!
0""
0G
0J
1K
1q!
1j!
0n!
1u!
1i!
0r!
0h
1>
07
0:
0!!
1#!
0"!
0x
1t
1p
0i
1d
0O
0Q
1R
0P
1m!
0o
01
1/
00
02
1i
0p
#52500
0#
0b
0c
#55000
1#
1b
1c
1."
1""
1G
0u!
0i!
1&!
1:
0z
1x
0t
1g
0d
1O
0m!
1+!
12
1'!
#57500
0#
0b
0c
#60000
1#
1b
1c
1&"
0+"
0."
1!"
0""
0G
1H
0k!
1n!
0&!
1u!
1i!
19
0:
1/!
1(!
0'!
0#!
0x
1t
1d
0O
0R
1S
0+!
16
0/
02
1'!
#62500
0#
0b
0c
#65000
1#
1b
1c
1."
1""
1G
0u!
0i!
1:
1{
1x
0t
0g
1e
0d
1O
12
#67500
0#
0b
0c
#70000
1#
1b
1c
1-"
0."
0!"
1~!
0""
0G
1I
0H
0q!
0j!
1u!
1i!
09
18
0:
1!!
0x
1t
1d
0O
1P
11
02
#72500
0#
0b
0c
#75000
1#
1b
1c
1."
1""
1G
0u!
0i!
1r!
1:
0{
1y
1x
0t
1g
0d
1O
12
#77500
0#
0b
0c
#80000
1#
1b
1c
0-"
1,"
0."
1!"
0""
0G
1H
1u!
1i!
19
0:
0!!
1"!
0x
1t
1d
0O
1Q
0P
01
10
02
#82500
0#
0b
0c
#85000
1#
1b
1c
1."
1""
1G
0u!
0i!
1:
1{
1x
0t
0g
1f
0e
0d
1O
12
#87500
0#
0b
0c
#90000
1#
1b
1c
1-"
0."
0!"
1}!
0~!
0""
0G
0I
1J
0H
1u!
1i!
09
17
08
0:
1!!
0x
1t
1d
0O
1P
11
02
#92500
0#
0b
0c
#95000
1#
1b
1c
1."
1""
1G
0u!
0i!
1h
1:
0{
1z
0y
1x
0t
0f
0d
1O
1o
12
0i
1p
#97500
0#
0b
0c
#100000
1#
1b
1c
0-"
1+"
0,"
0."
1)"
0*"
0}!
0""
0G
0J
0K
1L
1q!
1j!
0n!
1u!
1i!
0n
1w!
0r!
0h
1=
0>
07
0:
0!!
1#!
0"!
0x
1t
1i
1d
0O
0Q
1R
0P
0q!
0o
01
1/
00
02
0i
#102500
0#
0b
0c
#105000
1#
1b
1c
1."
1""
1G
0u!
0i!
1&!
1:
0z
1x
0t
1g
0d
1O
1+!
12
0'!
#107500
0#
0b
0c
#110000
1#
1b
1c
1%"
0&"
0+"
0."
1!"
0""
0G
1H
0p!
0l!
1v!
1k!
1n!
0&!
1u!
1i!
0w!
19
0:
17!
0(!
1'!
0#!
0x
1t
1d
0O
0R
0S
1T
0+!
15
06
0/
02
0'!
#112500
0#
0b
0c
#115000
1#
1b
1c
1."
1""
1G
0u!
0i!
0v!
1:
1{
1x
0t
0g
1e
0d
1O
12
#117500
0#
0b
0c
#120000
1#
1b
1c
1-"
0."
0!"
1~!
0""
0G
1I
0H
0j!
1u!
1i!
1v!
09
18
0:
1!!
0x
1t
1d
0O
1P
11
02
#122500
0#
0b
0c
#125000
1#
1b
1c
1."
1""
1G
0u!
0i!
0v!
1r!
1:
0{
1y
1x
0t
1g
0d
1O
12
#127500
0#
0b
0c
#130000
1#
1b
1c
0-"
1,"
0."
1!"
0""
0G
1H
1u!
1i!
1v!
19
0:
0!!
1"!
0x
1t
1d
0O
1Q
0P
01
10
02
#132500
0#
0b
0c
#135000
1#
1b
1c
1."
1""
1G
0u!
0i!
0v!
1:
1{
1x
0t
0g
1f
0e
0d
1O
12
#137500
0#
0b
0c
#140000
1#
1b
1c
1-"
0."
0!"
1}!
0~!
0""
0G
0I
1J
0H
1u!
1i!
1v!
09
17
08
0:
1!!
0x
1t
1d
0O
1P
11
02
#142500
0#
0b
0c
#145000
1#
1b
1c
1."
1""
1G
0u!
0i!
0v!
1h
1:
0{
1z
0y
1x
0t
0f
0d
1O
1o
12
0p
1i
1p
#147500
0#
0b
0c
#150000
1#
1b
1c
0-"
1+"
0,"
0."
1*"
0}!
0""
0G
0J
1K
1j!
0n!
1u!
1i!
0d!
1j
0r!
0h
1>
07
0:
0!!
1#!
0"!
0x
1t
0p
0i
1d
0O
0Q
1R
0P
0h!
0o
01
1/
00
02
1k
1p
1i
0k
#152500
0#
0b
0c
#155000
1#
1b
1c
1."
1""
1G
0u!
0i!
1&!
1:
0z
1x
0t
1g
0d
1O
1+!
12
1'!
#157500
0#
0b
0c
#160000
1#
1b
1c
1&"
0+"
0."
1!"
0""
0G
1H
0k!
1)!
1n!
0&!
1u!
1i!
19
0:
0/!
1*!
1(!
0'!
0#!
0x
1t
1d
0O
0R
1S
0+!
16
0/
02
1'!
#162500
0#
0b
0c
#165000
1#
1b
1c
1."
1""
1G
0u!
0i!
1:
1{
1x
0t
0g
1e
0d
1O
12
#167500
0#
0b
0c
#170000
1#
1b
1c
1-"
0."
0!"
1~!
0""
0G
1I
0H
0j!
1u!
1i!
09
18
0:
1!!
0x
1t
1d
0O
1P
11
02
#172500
0#
0b
0c
#175000
1#
1b
1c
1."
1""
1G
0u!
0i!
1r!
1:
0{
1y
1x
0t
1g
0d
1O
12
#177500
0#
0b
0c
#180000
1#
1b
1c
0-"
1,"
0."
1!"
0""
0G
1H
1u!
1i!
19
0:
0!!
1"!
0x
1t
1d
0O
1Q
0P
01
10
02
#182500
0#
0b
0c
#185000
1#
1b
1c
1."
1""
1G
0u!
0i!
1:
1{
1x
0t
0g
1f
0e
0d
1O
12
#187500
0#
0b
0c
#190000
1#
1b
1c
1-"
0."
0!"
1}!
0~!
0""
0G
0I
1J
0H
1u!
1i!
09
17
08
0:
1!!
0x
1t
1d
0O
1P
11
02
#192500
0#
0b
0c
#195000
1#
1b
1c
1."
1""
1G
0u!
0i!
1h
1:
0{
1z
0y
1x
0t
0f
0d
1O
1o
12
0p
0i
1k
#197500
0#
0b
0c
#200000
1#
1b
1c
0-"
1+"
0,"
0."
0)"
1("
0*"
0}!
0""
0G
0J
0K
1M
0L
1j!
0n!
1u!
1i!
1d!
1n
1w!
0r!
0h
0=
1<
0>
07
0:
0!!
1#!
0"!
0x
1t
1i
1d
0O
0Q
1R
0P
1h!
0o
01
1/
00
02
0i
#202500
0#
0b
0c
#205000
1#
1b
1c
1."
1""
1G
0u!
0i!
1&!
1:
0z
1x
0t
1g
0d
1O
1+!
12
0'!
#207500
0#
0b
0c
#210000
1#
1b
1c
0%"
1$"
0&"
0+"
0."
1!"
0""
0G
1H
1p!
0)!
1k!
0&!
1i!
0w!
19
0:
07!
18!
1,!
0(!
1'!
0#!
0x
1t
1d
0O
0R
0S
1U
0T
1q!
0+!
05
14
06
0/
02
0,!
0'!
#212500
0#
0b
0c
#215000
1#
1b
1c
1."
1""
1G
0i!
1:
1{
1x
0t
0g
1e
0d
1O
12
#217500
0#
0b
0c
#220000
1#
1b
1c
1-"
0."
0!"
1~!
0""
0G
1I
0H
0q!
0j!
1i!
09
18
0:
1!!
0x
1t
1d
0O
1P
11
02
#222500
0#
0b
0c
#225000
1#
1b
1c
1."
1""
1G
0i!
1r!
1:
0{
1y
1x
0t
1g
0d
1O
12
#227500
0#
0b
0c
#230000
1#
1b
1c
0-"
1,"
0."
1!"
0""
0G
1H
1i!
19
0:
0!!
1"!
0x
1t
1d
0O
1Q
0P
01
10
02
#232500
0#
0b
0c
#235000
1#
1b
1c
1."
1""
1G
0i!
1:
1{
1x
0t
0g
1f
0e
0d
1O
12
#237500
0#
0b
0c
#240000
1#
1b
1c
1-"
0."
0!"
1}!
0~!
0""
0G
0I
1J
0H
1i!
09
17
08
0:
1!!
0x
1t
1d
0O
1P
11
02
#242500
0#
0b
0c
#245000
1#
1b
1c
1."
1""
1G
0i!
1h
1:
0{
1z
0y
1x
0t
0f
0d
1O
1o
12
0k
1i
1k
#247500
0#
0b
0c
#250000
1#
1b
1c
0-"
1+"
0,"
0."
1*"
0}!
0""
0G
0J
1K
1q!
1j!
1i!
1v
0o
0r!
0h
1>
07
0:
0!!
1#!
0"!
0x
1t
1p
0i
1d
0O
0Q
1R
0P
0v
01
1/
00
02
0p
1i
#252500
0#
0b
0c
#255000
1#
1b
1c
1."
1""
1G
0i!
1&!
1:
0z
1x
0t
1g
0d
1O
1+!
12
1'!
#257500
0#
0b
0c
#260000
1#
1b
1c
1&"
0+"
0."
1!"
0""
0G
1H
0k!
1-!
0&!
1i!
19
0:
1/!
1(!
0'!
0#!
0x
1t
1d
0O
0R
1S
0+!
16
0/
02
1'!
#262500
0#
0b
0c
#265000
1#
1b
1c
1."
1""
1G
0i!
1:
1{
1x
0t
0g
1e
0d
1O
12
#267500
0#
0b
0c
#270000
1#
1b
1c
1-"
0."
0!"
1~!
0""
0G
1I
0H
0q!
0j!
1i!
09
18
0:
1!!
0x
1t
1d
0O
1P
11
02
#272500
0#
0b
0c
#275000
1#
1b
1c
1."
1""
1G
0i!
1r!
1:
0{
1y
1x
0t
1g
0d
1O
12
#277500
0#
0b
0c
#280000
1#
1b
1c
0-"
1,"
0."
1!"
0""
0G
1H
1i!
19
0:
0!!
1"!
0x
1t
1d
0O
1Q
0P
01
10
02
#282500
0#
0b
0c
#285000
1#
1b
1c
1."
1""
1G
0i!
1:
1{
1x
0t
0g
1f
0e
0d
1O
12
#287500
0#
0b
0c
#290000
0%
1#
0u
1b
1c
0w
1-"
0."
0!"
1}!
0~!
0""
0G
0I
1J
0H
1i!
09
17
08
0:
1!!
0x
1t
1d
0O
1P
11
02
#292500
0#
0b
0c
#295000
1#
1b
1c
1""
1G
1h
1:
0f
0d
1v
0k
0i
1w
#297500
0#
0b
0c
#300000
1#
1b
1c
1."
0("
0*"
0}!
0""
0G
0J
0K
0M
0i!
1n!
0v
1o
0j
1w!
0r!
0h
0<
0>
07
0:
0{
1z
0y
1x
0t
1i
1d
1O
0w
0o
12
0i
1y
#302500
0#
0b
0c
#305000
1#
1b
1c
1""
1G
1:
1g
0d
#307500
0#
0b
0c
#310000
1#
1b
1c
1!"
0""
0G
1H
0w!
19
0:
1d
#312500
0#
0b
0c
#315000
1#
1b
1c
1""
1G
1:
0g
1e
0d
#317500
0#
0b
0c
#320000
1#
1b
1c
0!"
1~!
0""
0G
1I
0H
09
18
0:
1d
#322500
0#
0b
0c
#325000
1#
1b
1c
1""
1G
1r!
1:
1g
0d
#327500
0#
0b
0c
#330000
1#
1b
1c
1!"
0""
0G
1H
19
0:
1d
#332500
0#
0b
0c
#335000
1#
1b
1c
1""
1G
1:
0g
1f
0e
0d
#337500
0#
0b
0c
#340000
1#
1b
1c
0!"
1}!
0~!
0""
0G
0I
1J
0H
09
17
08
0:
1d
#342500
0#
0b
0c
#345000
1#
1b
1c
1""
1G
1h
1:
0f
0d
1o
1i
#347500
0#
0b
0c
#350000
1#
1b
1c
1*"
0}!
0""
0G
0J
1K
0r!
0h
1>
07
0:
1p
0i
1d
0o
1i
0p
#352500
0#
0b
0c
#355000
1#
1b
1c
1""
1G
1:
1g
0d
#357500
0#
0b
0c
#360000
1#
1b
1c
1!"
0""
0G
1H
19
0:
1d
#362500
0#
0b
0c
#365000
1#
1b
1c
1""
1G
1:
0g
1e
0d
#367500
0#
0b
0c
#370000
1#
1b
1c
0!"
1~!
0""
0G
1I
0H
09
18
0:
1d
#372500
0#
0b
0c
#375000
1#
1b
1c
1""
1G
1r!
1:
1g
0d
#377500
0#
0b
0c
#380000
1#
1b
1c
1!"
0""
0G
1H
19
0:
1d
#382500
0#
0b
0c
#385000
1#
1b
1c
1""
1G
1:
0g
1f
0e
0d
#387500
0#
0b
0c
#390000
1#
1b
1c
0!"
1}!
0~!
0""
0G
0I
1J
0H
09
17
08
0:
1d
#392500
0#
0b
0c
#395000
1#
1b
1c
1""
1G
1h
1:
0f
0d
1o
0i
1p
#397500
0#
0b
0c
#400000
1#
1b
1c
1)"
0*"
0}!
0""
0G
0J
0K
1L
0n
1w!
0r!
0h
1=
0>
07
0:
1i
1d
0o
0i
#402500
0#
0b
0c
#405000
1#
1b
1c
1""
1G
1:
1g
0d
#407500
0#
0b
0c
#410000
1#
1b
1c
1!"
0""
0G
1H
0w!
19
0:
1d
#412500
0#
0b
0c
#415000
1#
1b
1c
1""
1G
1:
0g
1e
0d
#417500
0#
0b
0c
#420000
1#
1b
1c
0!"
1~!
0""
0G
1I
0H
09
18
0:
1d
#422500
0#
0b
0c
#425000
1#
1b
1c
1""
1G
1r!
1:
1g
0d
#427500
0#
0b
0c
#430000
1#
1b
1c
1!"
0""
0G
1H
19
0:
1d
#432500
0#
0b
0c
#435000
1#
1b
1c
1""
1G
1:
0g
1f
0e
0d
#437500
0#
0b
0c
#440000
1#
1b
1c
0!"
1}!
0~!
0""
0G
0I
1J
0H
09
17
08
0:
1d
#442500
0#
0b
0c
#445000
1#
1b
1c
1""
1G
1h
1:
0f
0d
1o
0p
1i
1p
#447500
0#
0b
0c
#450000
1#
1b
1c
1*"
0}!
0""
0G
0J
1K
0d!
1j
0r!
0h
1>
07
0:
0p
0i
1d
0h!
0o
1k
1p
1i
0k
#452500
0#
0b
0c
#455000
1#
1b
1c
1""
1G
1:
1g
0d
#457500
0#
0b
0c
#460000
1#
1b
1c
1!"
0""
0G
1H
19
0:
1d
#462500
0#
0b
0c
#465000
1#
1b
1c
1""
1G
1:
0g
1e
0d
#467500
0#
0b
0c
#470000
1#
1b
1c
0!"
1~!
0""
0G
1I
0H
09
18
0:
1d
#472500
0#
0b
0c
#475000
1#
1b
1c
1""
1G
1r!
1:
1g
0d
#477500
0#
0b
0c
#480000
1#
1b
1c
1!"
0""
0G
1H
19
0:
1d
#482500
0#
0b
0c
#485000
1#
1b
1c
1""
1G
1:
0g
1f
0e
0d
#487500
0#
0b
0c
#490000
1#
1b
1c
0!"
1}!
0~!
0""
0G
0I
1J
0H
09
17
08
0:
1d
#492500
0#
0b
0c
#495000
1#
1b
1c
1""
1G
1h
1:
0f
0d
1o
0p
0i
1k
#497500
0#
0b
0c
#500000
1#
1b
1c
0)"
1("
0*"
0}!
0""
0G
0J
0K
1M
0L
1d!
1n
0n!
1w!
0r!
0h
0=
1<
0>
07
0:
1i
1d
1h!
0o
0i
#502500
0#
0b
0c
#505000
1#
1b
1c
1""
1G
1:
1g
0d
#507500
0#
0b
0c
#510000
1#
1b
1c
1!"
0""
0G
1H
0w!
19
0:
1d
#512500
0#
0b
0c
#515000
1#
1b
1c
1""
1G
1:
0g
1e
0d
#517500
0#
0b
0c
#520000
1#
1b
1c
0!"
1~!
0""
0G
1I
0H
09
18
0:
1d
#522500
0#
0b
0c
#525000
1#
1b
1c
1""
1G
1r!
1:
1g
0d
#527500
0#
0b
0c
#530000
1#
1b
1c
1!"
0""
0G
1H
19
0:
1d
#532500
0#
0b
0c
#535000
1#
1b
1c
1""
1G
1:
0g
1f
0e
0d
#537500
0#
0b
0c
#540000
1#
1b
1c
0!"
1}!
0~!
0""
0G
0I
1J
0H
09
17
08
0:
1d
#542500
0#
0b
0c
