Lab 2/prj/clock/simulation/qsim/clock.msim.vcd
$comment
	File created using the following command:
		vcd file clock.msim.vcd -direction
$end
$date
	Fri May 01 21:53:58 2020
$end
$version
	ModelSim Version 10.5b
$end
$timescale
	1ps
$end

$scope module clock_vlg_vec_tst $end
$var reg 1 ! clk $end
$var reg 1 " hour_correct $end
$var reg 1 # min_correct $end
$var wire 1 $ hour_01 [3] $end
$var wire 1 % hour_01 [2] $end
$var wire 1 & hour_01 [1] $end
$var wire 1 ' hour_01 [0] $end
$var wire 1 ( hour_10 [3] $end
$var wire 1 ) hour_10 [2] $end
$var wire 1 * hour_10 [1] $end
$var wire 1 + hour_10 [0] $end
$var wire 1 , min_01 [3] $end
$var wire 1 - min_01 [2] $end
$var wire 1 . min_01 [1] $end
$var wire 1 / min_01 [0] $end
$var wire 1 0 min_10 [3] $end
$var wire 1 1 min_10 [2] $end
$var wire 1 2 min_10 [1] $end
$var wire 1 3 min_10 [0] $end
$var wire 1 4 sec_01 [3] $end
$var wire 1 5 sec_01 [2] $end
$var wire 1 6 sec_01 [1] $end
$var wire 1 7 sec_01 [0] $end
$var wire 1 8 sec_10 [3] $end
$var wire 1 9 sec_10 [2] $end
$var wire 1 : sec_10 [1] $end
$var wire 1 ; sec_10 [0] $end

$scope module i1 $end
$var wire 1 < gnd $end
$var wire 1 = vcc $end
$var wire 1 > unknown $end
$var tri1 1 ? devclrn $end
$var tri1 1 @ devpor $end
$var tri1 1 A devoe $end
$var wire 1 B sec_01[0]~output_o $end
$var wire 1 C sec_01[1]~output_o $end
$var wire 1 D sec_01[2]~output_o $end
$var wire 1 E sec_01[3]~output_o $end
$var wire 1 F sec_10[0]~output_o $end
$var wire 1 G sec_10[1]~output_o $end
$var wire 1 H sec_10[2]~output_o $end
$var wire 1 I sec_10[3]~output_o $end
$var wire 1 J min_01[0]~output_o $end
$var wire 1 K min_01[1]~output_o $end
$var wire 1 L min_01[2]~output_o $end
$var wire 1 M min_01[3]~output_o $end
$var wire 1 N min_10[0]~output_o $end
$var wire 1 O min_10[1]~output_o $end
$var wire 1 P min_10[2]~output_o $end
$var wire 1 Q min_10[3]~output_o $end
$var wire 1 R hour_01[0]~output_o $end
$var wire 1 S hour_01[1]~output_o $end
$var wire 1 T hour_01[2]~output_o $end
$var wire 1 U hour_01[3]~output_o $end
$var wire 1 V hour_10[0]~output_o $end
$var wire 1 W hour_10[1]~output_o $end
$var wire 1 X hour_10[2]~output_o $end
$var wire 1 Y hour_10[3]~output_o $end
$var wire 1 Z clk~input_o $end
$var wire 1 [ clk~inputclkctrl_outclk $end
$var wire 1 \ sec_counter|Q_01[0]~3_combout $end
$var wire 1 ] sec_counter|Q_01[2]~1_combout $end
$var wire 1 ^ sec_counter|Q_01~2_combout $end
$var wire 1 _ sec_counter|Q_01~0_combout $end
$var wire 1 ` sec_counter|Equal1~0_combout $end
$var wire 1 a sec_counter|Q_10[0]~0_combout $end
$var wire 1 b sec_counter|Add0~0_combout $end
$var wire 1 c sec_counter|Q_10[1]~2_combout $end
$var wire 1 d sec_counter|Q_10[2]~3_combout $end
$var wire 1 e sec_counter|Add0~1_combout $end
$var wire 1 f sec_counter|Q_10[3]~4_combout $end
$var wire 1 g sec_counter|cout~0_combout $end
$var wire 1 h sec_counter|Q_10[1]~1_combout $end
$var wire 1 i min_counter|Q_01[0]~3_combout $end
$var wire 1 j min_correct~input_o $end
$var wire 1 k min_en~combout $end
$var wire 1 l min_counter|Q_01[2]~1_combout $end
$var wire 1 m min_counter|Q_01~2_combout $end
$var wire 1 n min_counter|Q_01~0_combout $end
$var wire 1 o min_counter|Equal1~0_combout $end
$var wire 1 p min_counter|Q_10[0]~0_combout $end
$var wire 1 q min_counter|Add0~0_combout $end
$var wire 1 r min_counter|Q_10~3_combout $end
$var wire 1 s sec_counter|cout~combout $end
$var wire 1 t min_counter|Q_10[0]~2_combout $end
$var wire 1 u min_counter|Q_10[3]~4_combout $end
$var wire 1 v min_counter|cout~0_combout $end
$var wire 1 w min_counter|Q_10~1_combout $end
$var wire 1 x hour_counter|Q_01[0]~6_combout $end
$var wire 1 y hour_correct~input_o $end
$var wire 1 z hour_en~combout $end
$var wire 1 { hour_counter|Q_01~5_combout $end
$var wire 1 | hour_counter|Equal2~0_combout $end
$var wire 1 } hour_counter|Add1~0_combout $end
$var wire 1 ~ hour_counter|Q_01~4_combout $end
$var wire 1 !! hour_counter|Q_10[0]~0_combout $end
$var wire 1 "! hour_counter|Q_10[0]~1_combout $end
$var wire 1 #! hour_counter|Q_10[1]~2_combout $end
$var wire 1 $! hour_counter|Q_10[2]~3_combout $end
$var wire 1 %! hour_counter|Q_10[2]~4_combout $end
$var wire 1 &! hour_counter|Q_10[3]~5_combout $end
$var wire 1 '! hour_counter|always0~0_combout $end
$var wire 1 (! hour_counter|always0~1_combout $end
$var wire 1 )! hour_counter|Q_01[0]~2_combout $end
$var wire 1 *! hour_counter|Q_01~3_combout $end
$var wire 1 +! sec_counter|Q_01 [3] $end
$var wire 1 ,! sec_counter|Q_01 [2] $end
$var wire 1 -! sec_counter|Q_01 [1] $end
$var wire 1 .! sec_counter|Q_01 [0] $end
$var wire 1 /! sec_counter|Q_10 [3] $end
$var wire 1 0! sec_counter|Q_10 [2] $end
$var wire 1 1! sec_counter|Q_10 [1] $end
$var wire 1 2! sec_counter|Q_10 [0] $end
$var wire 1 3! hour_counter|Q_01 [3] $end
$var wire 1 4! hour_counter|Q_01 [2] $end
$var wire 1 5! hour_counter|Q_01 [1] $end
$var wire 1 6! hour_counter|Q_01 [0] $end
$var wire 1 7! min_counter|Q_01 [3] $end
$var wire 1 8! min_counter|Q_01 [2] $end
$var wire 1 9! min_counter|Q_01 [1] $end
$var wire 1 :! min_counter|Q_01 [0] $end
$var wire 1 ;! min_counter|Q_10 [3] $end
$var wire 1 <! min_counter|Q_10 [2] $end
$var wire 1 =! min_counter|Q_10 [1] $end
$var wire 1 >! min_counter|Q_10 [0] $end
$var wire 1 ?! hour_counter|Q_10 [3] $end
$var wire 1 @! hour_counter|Q_10 [2] $end
$var wire 1 A! hour_counter|Q_10 [1] $end
$var wire 1 B! hour_counter|Q_10 [0] $end
$upscope $end
$upscope $end
$enddefinitions $end
#0
$dumpvars
0!
0"
0#
0'
0&
0%
0$
0+
0*
0)
0(
0/
0.
0-
0,
03
02
01
00
07
06
05
04
0;
0:
09
08
0<
1=
x>
1?
1@
1A
0B
0C
0D
0E
0F
0G
0H
0I
0J
0K
0L
0M
0N
0O
0P
0Q
0R
0S
0T
0U
0V
0W
0X
0Y
0Z
0[
1\
0]
0^
0_
0`
0a
0b
0c
0d
0e
0f
0g
0h
1i
0j
0k
0l
0m
0n
0o
0p
0q
0r
0s
0t
0u
0v
0w
1x
0y
0z
0{
0|
0}
0~
0!!
0"!
0#!
0$!
0%!
0&!
0'!
0(!
0)!
0*!
0.!
0-!
0,!
0+!
02!
01!
00!
0/!
06!
05!
04!
03!
0:!
09!
08!
07!
0>!
0=!
0<!
0;!
0B!
0A!
0@!
0?!
$end
#2000
1!
1Z
1[
1.!
1B
0\
17
1_
#4000
0!
0Z
0[
#6000
1!
1Z
1[
1-!
0.!
0B
1C
1\
16
07
#8000
0!
0Z
0[
#10000
1!
1Z
1[
1.!
1B
0\
17
0_
1]
#12000
0!
0Z
0[
#14000
1!
1Z
1[
0-!
1,!
0.!
0B
1D
0C
1\
06
15
07
#16000
0!
0Z
0[
#18000
1!
1Z
1[
1.!
1B
0\
17
1_
#20000
0!
0Z
0[
#22000
1!
1Z
1[
1-!
0.!
0B
1C
1\
16
07
#24000
0!
0Z
0[
#26000
1!
1Z
1[
1.!
1B
0\
17
0_
1^
0]
#28000
0!
0Z
0[
#30000
1!
1Z
1[
0-!
1+!
0,!
0.!
0B
0D
1E
0C
1\
06
14
05
07
#32000
0!
0Z
0[
#34000
1!
1Z
1[
1.!
1B
1`
0\
17
0^
1c
1a
#36000
0!
0Z
0[
#38000
1!
1Z
1[
12!
0+!
0.!
0B
0E
1F
0`
1\
1;
04
07
1h
0a
0c
0h
1a
#40000
0!
0Z
0[
#42000
1!
1Z
1[
1.!
1B
0\
17
1_
#44000
0!
0Z
0[
#46000
1!
1Z
1[
1-!
0.!
0B
1C
1\
16
07
#48000
0!
0Z
0[
#50000
1!
1Z
1[
1.!
1B
0\
17
0_
1]
#52000
0!
0Z
0[
#54000
1!
1Z
1[
0-!
1,!
0.!
0B
1D
0C
1\
06
15
07
#56000
0!
0Z
0[
#58000
1!
1Z
1[
1.!
1B
0\
17
1_
#60000
0!
0Z
0[
#62000
1!
1Z
1[
1-!
0.!
0B
1C
1\
16
07
#64000
0!
0Z
0[
#66000
1!
1Z
1[
1.!
1B
0\
17
0_
1^
0]
#68000
0!
0Z
0[
#70000
1!
1Z
1[
0-!
1+!
0,!
0.!
0B
0D
1E
0C
1\
06
14
05
07
#72000
0!
0Z
0[
#74000
1!
1Z
1[
1.!
1B
1`
0\
17
0^
1c
1h
0a
#76000
0!
0Z
0[
#78000
1!
1Z
1[
11!
02!
0+!
0.!
0B
0E
0F
1G
0`
1\
1:
0;
04
07
1a
0c
0a
#80000
0!
0Z
0[
#82000
1!
1Z
1[
1.!
1B
0\
17
1_
#84000
0!
0Z
0[
#86000
1!
1Z
1[
1-!
0.!
0B
1C
1\
16
07
#88000
0!
0Z
0[
#90000
1#
1!
1j
1Z
1[
1k
1.!
1B
0\
17
0_
1]
#92000
0!
0Z
0[
#94000
1!
1Z
1[
1:!
0-!
1,!
0.!
0B
1D
0C
1J
1\
1/
06
15
07
1n
0i
#96000
0!
0Z
0[
#98000
1!
1Z
1[
19!
0:!
1.!
1B
0J
1K
0\
1.
0/
17
1i
1_
#100000
0!
0Z
0[
#102000
1!
1Z
1[
1:!
1-!
0.!
0B
1C
1J
1\
1/
16
07
0n
1l
0i
#104000
0!
0Z
0[
#106000
1!
1Z
1[
09!
18!
0:!
1.!
1B
0J
1L
0K
0\
0.
1-
0/
17
1i
0_
1^
0]
#108000
0!
0Z
0[
#110000
0#
1!
0j
1Z
1[
0k
1:!
0-!
1+!
0,!
0.!
0B
0D
1E
0C
1J
1\
1/
06
14
05
07
1n
0i
#112000
0!
0Z
0[
#114000
1!
1Z
1[
1.!
1B
1`
0\
17
0^
1c
1a
#116000
0!
0Z
0[
#118000
1!
1Z
1[
12!
0+!
0.!
0B
0E
1F
1b
0`
1\
1;
04
07
0h
0a
0c
1d
1h
1a
0d
#120000
0!
0Z
0[
#122000
1!
1Z
1[
1.!
1B
0\
17
1_
#124000
0!
0Z
0[
#126000
1!
1Z
1[
1-!
0.!
0B
1C
1\
16
07
#128000
0!
0Z
0[
#130000
1"
1!
1y
1Z
1[
1z
1.!
1B
0\
17
0_
1]
#132000
0!
0Z
0[
#134000
1!
1Z
1[
16!
0-!
1,!
0.!
0B
1D
0C
1R
1|
1\
1'
06
15
07
1*!
0x
#136000
0!
0Z
0[
#138000
1!
1Z
1[
15!
06!
1.!
1B
0R
1S
0|
0\
1&
0'
17
1x
1_
#140000
0!
0Z
0[
#142000
1!
1Z
1[
16!
1-!
0.!
0B
1C
1R
1}
1|
1\
1'
16
07
0*!
1{
0x
#144000
0!
0Z
0[
#146000
1!
1Z
1[
05!
14!
06!
1.!
1B
0R
1T
0S
0}
0|
0\
0&
1%
0'
17
1~
1x
0_
1^
0]
0~
#148000
0!
0Z
0[
#150000
0"
1!
0y
1Z
1[
0z
16!
0-!
1+!
0,!
0.!
0B
0D
1E
0C
1R
1\
1'
06
14
05
07
1*!
0x
#152000
0!
0Z
0[
#154000
1!
1Z
1[
1.!
1B
1`
0\
17
0^
1c
0h
0a
1d
#156000
0!
0Z
0[
#158000
1!
1Z
1[
01!
10!
02!
0+!
0.!
0B
0E
0F
1H
0G
1g
0`
1\
0:
19
0;
04
07
1a
0c
0a
#160000
0!
0Z
0[
#162000
1!
1Z
1[
1.!
1B
0\
17
1_
#164000
0!
0Z
0[
#166000
1!
1Z
1[
1-!
0.!
0B
1C
1\
16
07
#168000
0!
0Z
0[
#170000
1!
1Z
1[
1.!
1B
0\
17
0_
1]
#172000
0!
0Z
0[
#174000
1!
1Z
1[
0-!
1,!
0.!
0B
1D
0C
1\
06
15
07
#176000
0!
0Z
0[
#178000
1!
1Z
1[
1.!
1B
0\
17
1_
#180000
0!
0Z
0[
#182000
1!
1Z
1[
1-!
0.!
0B
1C
1\
16
07
#184000
0!
0Z
0[
#186000
1!
1Z
1[
1.!
1B
0\
17
0_
1^
0]
#188000
0!
0Z
0[
#190000
1!
1Z
1[
0-!
1+!
0,!
0.!
0B
0D
1E
0C
1\
06
14
05
07
#192000
0!
0Z
0[
#194000
1!
1Z
1[
1.!
1B
1`
0\
17
0^
1c
0d
1a
1d
#196000
0!
0Z
0[
#198000
1!
1Z
1[
12!
0+!
0.!
0B
0E
1F
1s
1k
0c
0`
1\
1;
04
07
0a
0s
0k
1a
#200000
1#
0!
1j
0Z
0[
1k
#202000
1!
1Z
1[
19!
0:!
1.!
1B
0J
1K
0\
1.
0/
17
1i
1_
#204000
0!
0Z
0[
#206000
1!
1Z
1[
1:!
1-!
0.!
0B
1C
1J
1\
1/
16
07
0n
1m
0l
0i
#208000
0!
0Z
0[
#210000
1!
1Z
1[
09!
17!
08!
0:!
1.!
1B
0J
0L
1M
0K
0\
0.
1,
0-
0/
17
1i
0_
1]
#212000
0!
0Z
0[
#214000
1!
1Z
1[
1:!
0-!
1,!
0.!
0B
1D
0C
1J
1o
1\
1/
06
15
07
0m
0i
1t
1p
#216000
0!
0Z
0[
#218000
1!
1Z
1[
1>!
07!
0:!
1.!
1B
0J
0M
1N
0o
0\
13
0,
0/
17
1w
0p
1i
1_
0t
1p
#220000
0!
0Z
0[
#222000
1!
1Z
1[
1:!
1-!
0.!
0B
1C
1J
1\
1/
16
07
1n
0i
#224000
0!
0Z
0[
#226000
1!
1Z
1[
19!
0:!
1.!
1B
0J
1K
0\
1.
0/
17
1i
0_
1^
0]
#228000
0!
0Z
0[
#230000
1!
1Z
1[
1:!
0-!
1+!
0,!
0.!
0B
0D
1E
0C
1J
1\
1/
06
14
05
07
0n
1l
0i
#232000
0!
0Z
0[
#234000
1!
1Z
1[
09!
18!
0:!
1.!
1B
0J
1L
0K
1`
0\
0.
1-
0/
17
1i
0^
1s
0d
0a
#236000
0!
0Z
0[
#238000
1!
1Z
1[
1:!
00!
02!
0+!
0.!
0B
0E
0F
0H
1J
0g
0b
0s
1c
0`
1\
1/
09
0;
04
07
1n
0i
1a
0c
0a
#240000
0#
0!
0j
0Z
0[
0k
#242000
1!
1Z
1[
1.!
1B
0\
17
1_
#244000
0!
0Z
0[
#246000
1!
1Z
1[
1-!
0.!
0B
1C
1\
16
07
#248000
0!
0Z
0[
#250000
1!
1Z
1[
1.!
1B
0\
17
0_
1]
#252000
0!
0Z
0[
#254000
1!
1Z
1[
0-!
1,!
0.!
0B
1D
0C
1\
06
15
07
#256000
0!
0Z
0[
#258000
1!
1Z
1[
1.!
1B
0\
17
1_
#260000
0!
0Z
0[
#262000
1!
1Z
1[
1-!
0.!
0B
1C
1\
16
07
#264000
0!
0Z
0[
#266000
1!
1Z
1[
1.!
1B
0\
17
0_
1^
0]
#268000
0!
0Z
0[
#270000
1!
1Z
1[
0-!
1+!
0,!
0.!
0B
0D
1E
0C
1\
06
14
05
07
#272000
0!
0Z
0[
#274000
1!
1Z
1[
1.!
1B
1`
0\
17
0^
1c
1a
#276000
0!
0Z
0[
#278000
1!
1Z
1[
12!
0+!
0.!
0B
0E
1F
0`
1\
1;
04
07
1h
0a
0c
0h
1a
#280000
1"
0!
1y
0Z
0[
1z
#282000
1!
1Z
1[
15!
06!
1.!
1B
0R
1S
0\
1&
0'
17
1x
1_
#284000
0!
0Z
0[
#286000
1!
1Z
1[
16!
1-!
0.!
0B
1C
1R
1}
1\
1'
16
07
0*!
0{
0x
1~
#288000
0!
0Z
0[
#290000
1!
1Z
1[
05!
13!
04!
06!
1.!
1B
0R
0T
1U
0S
0}
0\
0&
1$
0%
0'
17
1x
0_
1]
#292000
0!
0Z
0[
#294000
1!
1Z
1[
16!
0-!
1,!
0.!
0B
1D
0C
1R
1|
1\
1'
06
15
07
1*!
0x
1)!
1"!
0*!
1!!
0~
#296000
0!
0Z
0[
#298000
1!
1Z
1[
1B!
03!
06!
1.!
1B
0R
0U
1V
0)!
0|
0\
1+
0$
0'
17
1#!
0!!
1x
1_
0"!
1!!
0#!
#300000
0!
0Z
0[
#302000
1!
1Z
1[
16!
1-!
0.!
0B
1C
1R
1|
1\
1'
16
07
1*!
0x
#304000
0!
0Z
0[
#306000
1!
1Z
1[
15!
06!
1.!
1B
0R
1S
0|
0\
1&
0'
17
1x
0_
1^
0]
#308000
0!
0Z
0[
#310000
1!
1Z
1[
16!
0-!
1+!
0,!
0.!
0B
0D
1E
0C
1R
1}
1|
1\
1'
06
14
05
07
0*!
1{
0x
#312000
0!
0Z
0[
#314000
1!
1Z
1[
05!
14!
06!
1.!
1B
0R
1T
0S
0}
0|
1`
0\
0&
1%
0'
17
1~
1x
0^
1c
0~
1h
0a
#316000
0!
0Z
0[
#318000
1!
1Z
1[
16!
11!
02!
0+!
0.!
0B
0E
0F
1G
1R
0`
1\
1'
1:
0;
04
07
1*!
0x
1a
0c
0a
#320000
0"
0!
0y
0Z
0[
0z
#322000
1!
1Z
1[
1.!
1B
0\
17
1_
#324000
0!
0Z
0[
#326000
1!
1Z
1[
1-!
0.!
0B
1C
1\
16
07
#328000
0!
0Z
0[
#330000
1!
1Z
1[
1.!
1B
0\
17
0_
1]
#332000
0!
0Z
0[
#334000
1!
1Z
1[
0-!
1,!
0.!
0B
1D
0C
1\
06
15
07
#336000
0!
0Z
0[
#338000
1!
1Z
1[
1.!
1B
0\
17
1_
#340000
0!
0Z
0[
#342000
1!
1Z
1[
1-!
0.!
0B
1C
1\
16
07
#344000
0!
0Z
0[
#346000
1!
1Z
1[
1.!
1B
0\
17
0_
1^
0]
#348000
0!
0Z
0[
#350000
1!
1Z
1[
0-!
1+!
0,!
0.!
0B
0D
1E
0C
1\
06
14
05
07
#352000
0!
0Z
0[
#354000
1!
1Z
1[
1.!
1B
1`
0\
17
0^
1c
1a
#356000
0!
0Z
0[
#358000
1!
1Z
1[
12!
0+!
0.!
0B
0E
1F
1b
0`
1\
1;
04
07
0h
0a
0c
1d
1h
1a
0d
#360000
0!
0Z
0[
#362000
1!
1Z
1[
1.!
1B
0\
17
1_
#364000
0!
0Z
0[
#366000
1!
1Z
1[
1-!
0.!
0B
1C
1\
16
07
#368000
0!
0Z
0[
#370000
1!
1Z
1[
1.!
1B
0\
17
0_
1]
#372000
0!
0Z
0[
#374000
1!
1Z
1[
0-!
1,!
0.!
0B
1D
0C
1\
06
15
07
#376000
0!
0Z
0[
#378000
1!
1Z
1[
1.!
1B
0\
17
1_
#380000
0!
0Z
0[
#382000
1!
1Z
1[
1-!
0.!
0B
1C
1\
16
07
#384000
0!
0Z
0[
#386000
1!
1Z
1[
1.!
1B
0\
17
0_
1^
0]
#388000
0!
0Z
0[
#390000
1!
1Z
1[
0-!
1+!
0,!
0.!
0B
0D
1E
0C
1\
06
14
05
07
#392000
0!
0Z
0[
#394000
1!
1Z
1[
1.!
1B
1`
0\
17
0^
1c
0h
0a
1d
#396000
0!
0Z
0[
#398000
1!
1Z
1[
01!
10!
02!
0+!
0.!
0B
0E
0F
1H
0G
1g
0`
1\
0:
19
0;
04
07
1a
0c
0a
#400000
0!
0Z
0[
#402000
1!
1Z
1[
1.!
1B
0\
17
1_
#404000
0!
0Z
0[
#406000
1!
1Z
1[
1-!
0.!
0B
1C
1\
16
07
#408000
0!
0Z
0[
#410000
1!
1Z
1[
1.!
1B
0\
17
0_
1]
#412000
0!
0Z
0[
#414000
1!
1Z
1[
0-!
1,!
0.!
0B
1D
0C
1\
06
15
07
#416000
0!
0Z
0[
#418000
1!
1Z
1[
1.!
1B
0\
17
1_
#420000
0!
0Z
0[
#422000
1!
1Z
1[
1-!
0.!
0B
1C
1\
16
07
#424000
0!
0Z
0[
#426000
1!
1Z
1[
1.!
1B
0\
17
0_
1^
0]
#428000
0!
0Z
0[
#430000
1!
1Z
1[
0-!
1+!
0,!
0.!
0B
0D
1E
0C
1\
06
14
05
07
#432000
0!
0Z
0[
#434000
1!
1Z
1[
1.!
1B
1`
0\
17
0^
1c
0d
1a
1d
#436000
0!
0Z
0[
#438000
1!
1Z
1[
12!
0+!
0.!
0B
0E
1F
1s
1k
0c
0`
1\
1;
04
07
0a
0s
0k
1a
#440000
0!
0Z
0[
#442000
1!
1Z
1[
1.!
1B
0\
17
1_
#444000
0!
0Z
0[
#446000
1!
1Z
1[
1-!
0.!
0B
1C
1\
16
07
#448000
0!
0Z
0[
#450000
1!
1Z
1[
1.!
1B
0\
17
0_
1]
#452000
0!
0Z
0[
#454000
1!
1Z
1[
0-!
1,!
0.!
0B
1D
0C
1\
06
15
07
#456000
0!
0Z
0[
#458000
1!
1Z
1[
1.!
1B
0\
17
1_
#460000
0!
0Z
0[
#462000
1!
1Z
1[
1-!
0.!
0B
1C
1\
16
07
#464000
0!
0Z
0[
#466000
1!
1Z
1[
1.!
1B
0\
17
0_
1^
0]
#468000
0!
0Z
0[
#470000
1!
1Z
1[
0-!
1+!
0,!
0.!
0B
0D
1E
0C
1\
06
14
05
07
#472000
0!
0Z
0[
#474000
1!
1Z
1[
1.!
1B
1`
0\
17
0^
1s
1k
0d
0a
#476000
0!
0Z
0[
#478000
1!
1Z
1[
19!
0:!
00!
02!
0+!
0.!
0B
0E
0F
0H
0J
1K
0g
0b
0s
0k
1c
0`
1\
1.
0/
09
0;
04
07
1i
1a
0c
0a
#480000
0!
0Z
0[
#482000
1!
1Z
1[
1.!
1B
0\
17
1_
#484000
0!
0Z
0[
#486000
1!
1Z
1[
1-!
0.!
0B
1C
1\
16
07
#488000
0!
0Z
0[
#490000
1!
1Z
1[
1.!
1B
0\
17
0_
1]
#492000
0!
0Z
0[
#494000
1!
1Z
1[
0-!
1,!
0.!
0B
1D
0C
1\
06
15
07
#496000
0!
0Z
0[
#498000
1!
1Z
1[
1.!
1B
0\
17
1_
#500000
0!
0Z
0[
#502000
1!
1Z
1[
1-!
0.!
0B
1C
1\
16
07
#504000
0!
0Z
0[
#506000
1!
1Z
1[
1.!
1B
0\
17
0_
1^
0]
#508000
0!
0Z
0[
#510000
1!
1Z
1[
0-!
1+!
0,!
0.!
0B
0D
1E
0C
1\
06
14
05
07
#512000
0!
0Z
0[
#514000
1!
1Z
1[
1.!
1B
1`
0\
17
0^
1c
1a
#516000
0!
0Z
0[
#518000
1!
1Z
1[
12!
0+!
0.!
0B
0E
1F
0`
1\
1;
04
07
1h
0a
0c
0h
1a
#520000
0!
0Z
0[
#522000
1!
1Z
1[
1.!
1B
0\
17
1_
#524000
0!
0Z
0[
#526000
1!
1Z
1[
1-!
0.!
0B
1C
1\
16
07
#528000
0!
0Z
0[
#530000
1!
1Z
1[
1.!
1B
0\
17
0_
1]
#532000
0!
0Z
0[
#534000
1!
1Z
1[
0-!
1,!
0.!
0B
1D
0C
1\
06
15
07
#536000
0!
0Z
0[
#538000
1!
1Z
1[
1.!
1B
0\
17
1_
#540000
0!
0Z
0[
#542000
1!
1Z
1[
1-!
0.!
0B
1C
1\
16
07
#544000
0!
0Z
0[
#546000
1!
1Z
1[
1.!
1B
0\
17
0_
1^
0]
#548000
0!
0Z
0[
#550000
1!
1Z
1[
0-!
1+!
0,!
0.!
0B
0D
1E
0C
1\
06
14
05
07
#552000
0!
0Z
0[
#554000
1!
1Z
1[
1.!
1B
1`
0\
17
0^
1c
1h
0a
#556000
0!
0Z
0[
#558000
1!
1Z
1[
11!
02!
0+!
0.!
0B
0E
0F
1G
0`
1\
1:
0;
04
07
1a
0c
0a
#560000
0!
0Z
0[
#562000
1!
1Z
1[
1.!
1B
0\
17
1_
#564000
0!
0Z
0[
#566000
1!
1Z
1[
1-!
0.!
0B
1C
1\
16
07
#568000
0!
0Z
0[
#570000
1!
1Z
1[
1.!
1B
0\
17
0_
1]
#572000
0!
0Z
0[
#574000
1!
1Z
1[
0-!
1,!
0.!
0B
1D
0C
1\
06
15
07
#576000
0!
0Z
0[
#578000
1!
1Z
1[
1.!
1B
0\
17
1_
#580000
0!
0Z
0[
#582000
1!
1Z
1[
1-!
0.!
0B
1C
1\
16
07
#584000
0!
0Z
0[
#586000
1!
1Z
1[
1.!
1B
0\
17
0_
1^
0]
#588000
0!
0Z
0[
#590000
1!
1Z
1[
0-!
1+!
0,!
0.!
0B
0D
1E
0C
1\
06
14
05
07
#592000
0!
0Z
0[
#594000
1!
1Z
1[
1.!
1B
1`
0\
17
0^
1c
1a
#596000
0!
0Z
0[
#598000
1!
1Z
1[
12!
0+!
0.!
0B
0E
1F
1b
0`
1\
1;
04
07
0h
0a
0c
1d
1h
1a
0d
#600000
0!
0Z
0[
#602000
1!
1Z
1[
1.!
1B
0\
17
1_
#604000
0!
0Z
0[
#606000
1!
1Z
1[
1-!
0.!
0B
1C
1\
16
07
#608000
0!
0Z
0[
#610000
1!
1Z
1[
1.!
1B
0\
17
0_
1]
#612000
0!
0Z
0[
#614000
1!
1Z
1[
0-!
1,!
0.!
0B
1D
0C
1\
06
15
07
#616000
0!
0Z
0[
#618000
1!
1Z
1[
1.!
1B
0\
17
1_
#620000
0!
0Z
0[
#622000
1!
1Z
1[
1-!
0.!
0B
1C
1\
16
07
#624000
0!
0Z
0[
#626000
1!
1Z
1[
1.!
1B
0\
17
0_
1^
0]
#628000
0!
0Z
0[
#630000
1!
1Z
1[
0-!
1+!
0,!
0.!
0B
0D
1E
0C
1\
06
14
05
07
#632000
0!
0Z
0[
#634000
1!
1Z
1[
1.!
1B
1`
0\
17
0^
1c
0h
0a
1d
#636000
0!
0Z
0[
#638000
1!
1Z
1[
01!
10!
02!
0+!
0.!
0B
0E
0F
1H
0G
1g
0`
1\
0:
19
0;
04
07
1a
0c
0a
#640000
0!
0Z
0[
#642000
1!
1Z
1[
1.!
1B
0\
17
1_
#644000
0!
0Z
0[
#646000
1!
1Z
1[
1-!
0.!
0B
1C
1\
16
07
#648000
0!
0Z
0[
#650000
1!
1Z
1[
1.!
1B
0\
17
0_
1]
#652000
0!
0Z
0[
#654000
1!
1Z
1[
0-!
1,!
0.!
0B
1D
0C
1\
06
15
07
#656000
0!
0Z
0[
#658000
1!
1Z
1[
1.!
1B
0\
17
1_
#660000
0!
0Z
0[
#662000
1!
1Z
1[
1-!
0.!
0B
1C
1\
16
07
#664000
0!
0Z
0[
#666000
1!
1Z
1[
1.!
1B
0\
17
0_
1^
0]
#668000
0!
0Z
0[
#670000
1!
1Z
1[
0-!
1+!
0,!
0.!
0B
0D
1E
0C
1\
06
14
05
07
#672000
0!
0Z
0[
#674000
1!
1Z
1[
1.!
1B
1`
0\
17
0^
1c
0d
1a
1d
#676000
0!
0Z
0[
#678000
1!
1Z
1[
12!
0+!
0.!
0B
0E
1F
1s
1k
0c
0`
1\
1;
04
07
0a
0s
0k
1a
#680000
0!
0Z
0[
#682000
1!
1Z
1[
1.!
1B
0\
17
1_
#684000
0!
0Z
0[
#686000
1!
1Z
1[
1-!
0.!
0B
1C
1\
16
07
#688000
0!
0Z
0[
#690000
1!
1Z
1[
1.!
1B
0\
17
0_
1]
#692000
0!
0Z
0[
#694000
1!
1Z
1[
0-!
1,!
0.!
0B
1D
0C
1\
06
15
07
#696000
0!
0Z
0[
#698000
1!
1Z
1[
1.!
1B
0\
17
1_
#700000
0!
0Z
0[
#702000
1!
1Z
1[
1-!
0.!
0B
1C
1\
16
07
#704000
0!
0Z
0[
#706000
1!
1Z
1[
1.!
1B
0\
17
0_
1^
0]
#708000
0!
0Z
0[
#710000
1!
1Z
1[
0-!
1+!
0,!
0.!
0B
0D
1E
0C
1\
06
14
05
07
#712000
0!
0Z
0[
#714000
1!
1Z
1[
1.!
1B
1`
0\
17
0^
1s
1k
0d
0a
#716000
0!
0Z
0[
#718000
1!
1Z
1[
1:!
00!
02!
0+!
0.!
0B
0E
0F
0H
1J
0g
0b
0s
0k
1c
0`
1\
1/
09
0;
04
07
0n
1m
0l
0i
1a
0c
1l
0a
#720000
0!
0Z
0[
#722000
1!
1Z
1[
1.!
1B
0\
17
1_
#724000
0!
0Z
0[
#726000
1!
1Z
1[
1-!
0.!
0B
1C
1\
16
07
#728000
0!
0Z
0[
#730000
1!
1Z
1[
1.!
1B
0\
17
0_
1]
#732000
0!
0Z
0[
#734000
1!
1Z
1[
0-!
1,!
0.!
0B
1D
0C
1\
06
15
07
#736000
0!
0Z
0[
#738000
1!
1Z
1[
1.!
1B
0\
17
1_
#740000
0!
0Z
0[
#742000
1!
1Z
1[
1-!
0.!
0B
1C
1\
16
07
#744000
0!
0Z
0[
#746000
1!
1Z
1[
1.!
1B
0\
17
0_
1^
0]
#748000
0!
0Z
0[
#750000
1!
1Z
1[
0-!
1+!
0,!
0.!
0B
0D
1E
0C
1\
06
14
05
07
#752000
0!
0Z
0[
#754000
1!
1Z
1[
1.!
1B
1`
0\
17
0^
1c
1a
#756000
0!
0Z
0[
#758000
1!
1Z
1[
12!
0+!
0.!
0B
0E
1F
0`
1\
1;
04
07
1h
0a
0c
0h
1a
#760000
0!
0Z
0[
#762000
1!
1Z
1[
1.!
1B
0\
17
1_
#764000
0!
0Z
0[
#766000
1!
1Z
1[
1-!
0.!
0B
1C
1\
16
07
#768000
0!
0Z
0[
#770000
1!
1Z
1[
1.!
1B
0\
17
0_
1]
#772000
0!
0Z
0[
#774000
1!
1Z
1[
0-!
1,!
0.!
0B
1D
0C
1\
06
15
07
#776000
0!
0Z
0[
