Lab 2/prj/clock/simulation/qsim/clock.msim.vcd
$comment
	File created using the following command:
		vcd file clock.msim.vcd -direction
$end
$date
	Fri May 08 00:09:56 2020
$end
$version
	ModelSim Version 10.5b
$end
$timescale
	1ps
$end

$scope module clock_vlg_vec_tst $end
$var reg 1 ! clk $end
$var reg 1 " hour_correct $end
$var reg 1 # min_correct $end
$var wire 1 $ hour_01 [3] $end
$var wire 1 % hour_01 [2] $end
$var wire 1 & hour_01 [1] $end
$var wire 1 ' hour_01 [0] $end
$var wire 1 ( hour_10 [3] $end
$var wire 1 ) hour_10 [2] $end
$var wire 1 * hour_10 [1] $end
$var wire 1 + hour_10 [0] $end
$var wire 1 , min_01 [3] $end
$var wire 1 - min_01 [2] $end
$var wire 1 . min_01 [1] $end
$var wire 1 / min_01 [0] $end
$var wire 1 0 min_10 [3] $end
$var wire 1 1 min_10 [2] $end
$var wire 1 2 min_10 [1] $end
$var wire 1 3 min_10 [0] $end
$var wire 1 4 sec_01 [3] $end
$var wire 1 5 sec_01 [2] $end
$var wire 1 6 sec_01 [1] $end
$var wire 1 7 sec_01 [0] $end
$var wire 1 8 sec_10 [3] $end
$var wire 1 9 sec_10 [2] $end
$var wire 1 : sec_10 [1] $end
$var wire 1 ; sec_10 [0] $end

$scope module i1 $end
$var wire 1 < gnd $end
$var wire 1 = vcc $end
$var wire 1 > unknown $end
$var tri1 1 ? devclrn $end
$var tri1 1 @ devpor $end
$var tri1 1 A devoe $end
$var wire 1 B sec_01[0]~output_o $end
$var wire 1 C sec_01[1]~output_o $end
$var wire 1 D sec_01[2]~output_o $end
$var wire 1 E sec_01[3]~output_o $end
$var wire 1 F sec_10[0]~output_o $end
$var wire 1 G sec_10[1]~output_o $end
$var wire 1 H sec_10[2]~output_o $end
$var wire 1 I sec_10[3]~output_o $end
$var wire 1 J min_01[0]~output_o $end
$var wire 1 K min_01[1]~output_o $end
$var wire 1 L min_01[2]~output_o $end
$var wire 1 M min_01[3]~output_o $end
$var wire 1 N min_10[0]~output_o $end
$var wire 1 O min_10[1]~output_o $end
$var wire 1 P min_10[2]~output_o $end
$var wire 1 Q min_10[3]~output_o $end
$var wire 1 R hour_01[0]~output_o $end
$var wire 1 S hour_01[1]~output_o $end
$var wire 1 T hour_01[2]~output_o $end
$var wire 1 U hour_01[3]~output_o $end
$var wire 1 V hour_10[0]~output_o $end
$var wire 1 W hour_10[1]~output_o $end
$var wire 1 X hour_10[2]~output_o $end
$var wire 1 Y hour_10[3]~output_o $end
$var wire 1 Z clk~input_o $end
$var wire 1 [ clk~inputclkctrl_outclk $end
$var wire 1 \ sec_counter|Q_01[0]~3_combout $end
$var wire 1 ] sec_counter|Q_01[2]~1_combout $end
$var wire 1 ^ sec_counter|Q_01~2_combout $end
$var wire 1 _ sec_counter|Q_01~0_combout $end
$var wire 1 ` sec_counter|Equal1~0_combout $end
$var wire 1 a sec_counter|Q_10[0]~0_combout $end
$var wire 1 b sec_counter|Add0~0_combout $end
$var wire 1 c sec_counter|Q_10[1]~2_combout $end
$var wire 1 d sec_counter|Q_10[2]~3_combout $end
$var wire 1 e sec_counter|Add0~1_combout $end
$var wire 1 f sec_counter|Q_10[3]~4_combout $end
$var wire 1 g sec_counter|cout~0_combout $end
$var wire 1 h sec_counter|Q_10[1]~1_combout $end
$var wire 1 i min_counter|Q_01[0]~3_combout $end
$var wire 1 j min_correct~input_o $end
$var wire 1 k min_en~combout $end
$var wire 1 l min_counter|Q_01[2]~1_combout $end
$var wire 1 m min_counter|Q_01~2_combout $end
$var wire 1 n min_counter|Q_01~0_combout $end
$var wire 1 o min_counter|Equal1~0_combout $end
$var wire 1 p min_counter|Q_10[0]~0_combout $end
$var wire 1 q min_counter|Add0~0_combout $end
$var wire 1 r min_counter|Q_10~3_combout $end
$var wire 1 s sec_counter|cout~combout $end
$var wire 1 t min_counter|Q_10[0]~2_combout $end
$var wire 1 u min_counter|Q_10[3]~4_combout $end
$var wire 1 v min_counter|cout~0_combout $end
$var wire 1 w min_counter|Q_10~1_combout $end
$var wire 1 x hour_counter|Q_01[0]~6_combout $end
$var wire 1 y hour_correct~input_o $end
$var wire 1 z hour_en~combout $end
$var wire 1 { hour_counter|Q_01~5_combout $end
$var wire 1 | hour_counter|Equal2~0_combout $end
$var wire 1 } hour_counter|Add1~0_combout $end
$var wire 1 ~ hour_counter|Q_01~4_combout $end
$var wire 1 !! hour_counter|Q_10[0]~0_combout $end
$var wire 1 "! hour_counter|Q_10[0]~1_combout $end
$var wire 1 #! hour_counter|Q_10[1]~2_combout $end
$var wire 1 $! hour_counter|Q_10[2]~3_combout $end
$var wire 1 %! hour_counter|Q_10[2]~4_combout $end
$var wire 1 &! hour_counter|Q_10[3]~5_combout $end
$var wire 1 '! hour_counter|always0~0_combout $end
$var wire 1 (! hour_counter|always0~1_combout $end
$var wire 1 )! hour_counter|Q_01[0]~2_combout $end
$var wire 1 *! hour_counter|Q_01~3_combout $end
$var wire 1 +! sec_counter|Q_01 [3] $end
$var wire 1 ,! sec_counter|Q_01 [2] $end
$var wire 1 -! sec_counter|Q_01 [1] $end
$var wire 1 .! sec_counter|Q_01 [0] $end
$var wire 1 /! sec_counter|Q_10 [3] $end
$var wire 1 0! sec_counter|Q_10 [2] $end
$var wire 1 1! sec_counter|Q_10 [1] $end
$var wire 1 2! sec_counter|Q_10 [0] $end
$var wire 1 3! hour_counter|Q_01 [3] $end
$var wire 1 4! hour_counter|Q_01 [2] $end
$var wire 1 5! hour_counter|Q_01 [1] $end
$var wire 1 6! hour_counter|Q_01 [0] $end
$var wire 1 7! min_counter|Q_01 [3] $end
$var wire 1 8! min_counter|Q_01 [2] $end
$var wire 1 9! min_counter|Q_01 [1] $end
$var wire 1 :! min_counter|Q_01 [0] $end
$var wire 1 ;! min_counter|Q_10 [3] $end
$var wire 1 <! min_counter|Q_10 [2] $end
$var wire 1 =! min_counter|Q_10 [1] $end
$var wire 1 >! min_counter|Q_10 [0] $end
$var wire 1 ?! hour_counter|Q_10 [3] $end
$var wire 1 @! hour_counter|Q_10 [2] $end
$var wire 1 A! hour_counter|Q_10 [1] $end
$var wire 1 B! hour_counter|Q_10 [0] $end
$upscope $end
$upscope $end
$enddefinitions $end
#0
$dumpvars
0!
0"
0#
0'
0&
0%
0$
0+
0*
0)
0(
0/
0.
0-
0,
03
02
01
00
07
06
05
04
0;
0:
09
08
0<
1=
x>
1?
1@
1A
0B
0C
0D
0E
0F
0G
0H
0I
0J
0K
0L
0M
0N
0O
0P
0Q
0R
0S
0T
0U
0V
0W
0X
0Y
0Z
0[
1\
0]
0^
0_
0`
0a
0b
0c
0d
0e
0f
0g
0h
1i
0j
0k
0l
0m
0n
0o
0p
0q
0r
0s
0t
0u
0v
0w
1x
0y
0z
0{
0|
0}
0~
0!!
0"!
0#!
0$!
0%!
0&!
0'!
0(!
0)!
0*!
0.!
0-!
0,!
0+!
02!
01!
00!
0/!
06!
05!
04!
03!
0:!
09!
08!
07!
0>!
0=!
0<!
0;!
0B!
0A!
0@!
0?!
$end
#2500
1!
1Z
1[
1.!
1B
0\
17
1_
#5000
0!
0Z
0[
#7500
1!
1Z
1[
1-!
0.!
0B
1C
1\
16
07
#10000
0!
0Z
0[
#12500
1!
1Z
1[
1.!
1B
0\
17
0_
1]
#15000
0!
0Z
0[
#17500
1!
1Z
1[
0-!
1,!
0.!
0B
1D
0C
1\
06
15
07
#20000
0!
0Z
0[
#22500
1!
1Z
1[
1.!
1B
0\
17
1_
#25000
0!
0Z
0[
#27500
1!
1Z
1[
1-!
0.!
0B
1C
1\
16
07
#30000
0!
0Z
0[
#32500
1!
1Z
1[
1.!
1B
0\
17
0_
1^
0]
#35000
0!
0Z
0[
#37500
1!
1Z
1[
0-!
1+!
0,!
0.!
0B
0D
1E
0C
1\
06
14
05
07
#40000
0!
0Z
0[
#42500
1!
1Z
1[
1.!
1B
1`
0\
17
0^
1c
1a
#45000
0!
0Z
0[
#47500
1!
1Z
1[
12!
0+!
0.!
0B
0E
1F
0`
1\
1;
04
07
1h
0a
0c
0h
1a
#50000
0!
0Z
0[
#52500
1!
1Z
1[
1.!
1B
0\
17
1_
#55000
0!
0Z
0[
#57500
1!
1Z
1[
1-!
0.!
0B
1C
1\
16
07
#60000
0!
0Z
0[
#62500
1!
1Z
1[
1.!
1B
0\
17
0_
1]
#65000
0!
0Z
0[
#67500
1!
1Z
1[
0-!
1,!
0.!
0B
1D
0C
1\
06
15
07
#70000
0!
0Z
0[
#72500
1!
1Z
1[
1.!
1B
0\
17
1_
#75000
0!
0Z
0[
#77500
1!
1Z
1[
1-!
0.!
0B
1C
1\
16
07
#80000
0!
0Z
0[
#82500
1!
1Z
1[
1.!
1B
0\
17
0_
1^
0]
#85000
0!
0Z
0[
#87500
1!
1Z
1[
0-!
1+!
0,!
0.!
0B
0D
1E
0C
1\
06
14
05
07
#90000
0!
0Z
0[
#92500
1!
1Z
1[
1.!
1B
1`
0\
17
0^
1c
1h
0a
#95000
0!
0Z
0[
#97500
1!
1Z
1[
11!
02!
0+!
0.!
0B
0E
0F
1G
0`
1\
1:
0;
04
07
1a
0c
0a
#100000
0!
0Z
0[
#102500
1!
1Z
1[
1.!
1B
0\
17
1_
#105000
0!
0Z
0[
#107500
1!
1Z
1[
1-!
0.!
0B
1C
1\
16
07
#110000
0!
0Z
0[
#112500
1!
1Z
1[
1.!
1B
0\
17
0_
1]
#115000
0!
0Z
0[
#117500
1!
1Z
1[
0-!
1,!
0.!
0B
1D
0C
1\
06
15
07
#120000
0!
0Z
0[
#122500
1!
1Z
1[
1.!
1B
0\
17
1_
#125000
0!
0Z
0[
#127500
1!
1Z
1[
1-!
0.!
0B
1C
1\
16
07
#130000
0!
0Z
0[
#132500
1!
1Z
1[
1.!
1B
0\
17
0_
1^
0]
#135000
0!
0Z
0[
#137500
1!
1Z
1[
0-!
1+!
0,!
0.!
0B
0D
1E
0C
1\
06
14
05
07
#140000
0!
0Z
0[
#142500
1!
1Z
1[
1.!
1B
1`
0\
17
0^
1c
1a
#145000
0!
0Z
0[
#147500
1!
1Z
1[
12!
0+!
0.!
0B
0E
1F
1b
0`
1\
1;
04
07
0h
0a
0c
1d
1h
1a
0d
#150000
0!
0Z
0[
#152500
1!
1Z
1[
1.!
1B
0\
17
1_
#155000
0!
0Z
0[
#157500
1!
1Z
1[
1-!
0.!
0B
1C
1\
16
07
#160000
0!
0Z
0[
#162500
1!
1Z
1[
1.!
1B
0\
17
0_
1]
#165000
0!
0Z
0[
#167500
1!
1Z
1[
0-!
1,!
0.!
0B
1D
0C
1\
06
15
07
#170000
0!
0Z
0[
#172500
1!
1Z
1[
1.!
1B
0\
17
1_
#175000
0!
0Z
0[
#177500
1!
1Z
1[
1-!
0.!
0B
1C
1\
16
07
#180000
0!
0Z
0[
#182500
1!
1Z
1[
1.!
1B
0\
17
0_
1^
0]
#185000
0!
0Z
0[
#187500
1!
1Z
1[
0-!
1+!
0,!
0.!
0B
0D
1E
0C
1\
06
14
05
07
#190000
0!
0Z
0[
#192500
1!
1Z
1[
1.!
1B
1`
0\
17
0^
1c
0h
0a
1d
#195000
0!
0Z
0[
#197500
1!
1Z
1[
01!
10!
02!
0+!
0.!
0B
0E
0F
1H
0G
1g
0`
1\
0:
19
0;
04
07
1a
0c
0a
#200000
0!
0Z
0[
#202500
1!
1Z
1[
1.!
1B
0\
17
1_
#205000
0!
0Z
0[
#207500
1!
1Z
1[
1-!
0.!
0B
1C
1\
16
07
#210000
0!
0Z
0[
#212500
1!
1Z
1[
1.!
1B
0\
17
0_
1]
#215000
0!
0Z
0[
#217500
1!
1Z
1[
0-!
1,!
0.!
0B
1D
0C
1\
06
15
07
#220000
0!
0Z
0[
#222500
1!
1Z
1[
1.!
1B
0\
17
1_
#225000
0!
0Z
0[
#227500
1!
1Z
1[
1-!
0.!
0B
1C
1\
16
07
#230000
0!
0Z
0[
#232500
1!
1Z
1[
1.!
1B
0\
17
0_
1^
0]
#235000
0!
0Z
0[
#237500
1!
1Z
1[
0-!
1+!
0,!
0.!
0B
0D
1E
0C
1\
06
14
05
07
#240000
0!
0Z
0[
#242500
1!
1Z
1[
1.!
1B
1`
0\
17
0^
1c
0d
1a
1d
#245000
0!
0Z
0[
#247500
1!
1Z
1[
12!
0+!
0.!
0B
0E
1F
1s
1k
0c
0`
1\
1;
04
07
0a
0s
0k
1a
#250000
0!
0Z
0[
#252500
1!
1Z
1[
1.!
1B
0\
17
1_
#255000
0!
0Z
0[
#257500
1!
1Z
1[
1-!
0.!
0B
1C
1\
16
07
#260000
0!
0Z
0[
#262500
1!
1Z
1[
1.!
1B
0\
17
0_
1]
#265000
0!
0Z
0[
#267500
1!
1Z
1[
0-!
1,!
0.!
0B
1D
0C
1\
06
15
07
#270000
0!
0Z
0[
#272500
1!
1Z
1[
1.!
1B
0\
17
1_
#275000
0!
0Z
0[
#277500
1!
1Z
1[
1-!
0.!
0B
1C
1\
16
07
#280000
0!
0Z
0[
#282500
1!
1Z
1[
1.!
1B
0\
17
0_
1^
0]
#285000
0!
0Z
0[
#287500
1!
1Z
1[
0-!
1+!
0,!
0.!
0B
0D
1E
0C
1\
06
14
05
07
#290000
0!
0Z
0[
#292500
1!
1Z
1[
1.!
1B
1`
0\
17
0^
1s
1k
0d
0a
#295000
0!
0Z
0[
#297500
1!
1Z
1[
1:!
00!
02!
0+!
0.!
0B
0E
0F
0H
1J
0g
0b
0s
0k
1c
0`
1\
1/
09
0;
04
07
1n
0i
1a
0c
0a
#300000
0!
0Z
0[
#302500
1!
1Z
1[
1.!
1B
0\
17
1_
#305000
0!
0Z
0[
#307500
1!
1Z
1[
1-!
0.!
0B
1C
1\
16
07
#310000
0!
0Z
0[
#312500
1!
1Z
1[
1.!
1B
0\
17
0_
1]
#315000
0!
0Z
0[
#317500
1!
1Z
1[
0-!
1,!
0.!
0B
1D
0C
1\
06
15
07
#320000
0!
0Z
0[
#322500
1!
1Z
1[
1.!
1B
0\
17
1_
#325000
0!
0Z
0[
#327500
1!
1Z
1[
1-!
0.!
0B
1C
1\
16
07
#330000
0!
0Z
0[
#332500
1!
1Z
1[
1.!
1B
0\
17
0_
1^
0]
#335000
0!
0Z
0[
#337500
1!
1Z
1[
0-!
1+!
0,!
0.!
0B
0D
1E
0C
1\
06
14
05
07
#340000
0!
0Z
0[
#342500
1!
1Z
1[
1.!
1B
1`
0\
17
0^
1c
1a
#345000
0!
0Z
0[
#347500
1!
1Z
1[
12!
0+!
0.!
0B
0E
1F
0`
1\
1;
04
07
1h
0a
0c
0h
1a
#350000
0!
0Z
0[
#352500
1!
1Z
1[
1.!
1B
0\
17
1_
#355000
0!
0Z
0[
#357500
1!
1Z
1[
1-!
0.!
0B
1C
1\
16
07
#360000
0!
0Z
0[
#362500
1!
1Z
1[
1.!
1B
0\
17
0_
1]
#365000
0!
0Z
0[
#367500
1!
1Z
1[
0-!
1,!
0.!
0B
1D
0C
1\
06
15
07
#370000
0!
0Z
0[
#372500
1!
1Z
1[
1.!
1B
0\
17
1_
#375000
0!
0Z
0[
#377500
1!
1Z
1[
1-!
0.!
0B
1C
1\
16
07
#380000
0!
0Z
0[
#382500
1!
1Z
1[
1.!
1B
0\
17
0_
1^
0]
#385000
0!
0Z
0[
#387500
1!
1Z
1[
0-!
1+!
0,!
0.!
0B
0D
1E
0C
1\
06
14
05
07
#390000
0!
0Z
0[
#392500
1!
1Z
1[
1.!
1B
1`
0\
17
0^
1c
1h
0a
#395000
0!
0Z
0[
#397500
1!
1Z
1[
11!
02!
0+!
0.!
0B
0E
0F
1G
0`
1\
1:
0;
04
07
1a
0c
0a
#400000
0!
0Z
0[
#402500
1!
1Z
1[
1.!
1B
0\
17
1_
#405000
0!
0Z
0[
#407500
1!
1Z
1[
1-!
0.!
0B
1C
1\
16
07
#410000
0!
0Z
0[
#412500
1!
1Z
1[
1.!
1B
0\
17
0_
1]
#415000
0!
0Z
0[
#417500
1!
1Z
1[
0-!
1,!
0.!
0B
1D
0C
1\
06
15
07
#420000
0!
0Z
0[
#422500
1!
1Z
1[
1.!
1B
0\
17
1_
#425000
0!
0Z
0[
#427500
1!
1Z
1[
1-!
0.!
0B
1C
1\
16
07
#430000
0!
0Z
0[
#432500
1!
1Z
1[
1.!
1B
0\
17
0_
1^
0]
#435000
0!
0Z
0[
#437500
1!
1Z
1[
0-!
1+!
0,!
0.!
0B
0D
1E
0C
1\
06
14
05
07
#440000
0!
0Z
0[
#442500
1!
1Z
1[
1.!
1B
1`
0\
17
0^
1c
1a
#445000
0!
0Z
0[
#447500
1!
1Z
1[
12!
0+!
0.!
0B
0E
1F
1b
0`
1\
1;
04
07
0h
0a
0c
1d
1h
1a
0d
#450000
0!
0Z
0[
#452500
1!
1Z
1[
1.!
1B
0\
17
1_
#455000
0!
0Z
0[
#457500
1!
1Z
1[
1-!
0.!
0B
1C
1\
16
07
#460000
0!
0Z
0[
#462500
1!
1Z
1[
1.!
1B
0\
17
0_
1]
#465000
0!
0Z
0[
#467500
1!
1Z
1[
0-!
1,!
0.!
0B
1D
0C
1\
06
15
07
#470000
0!
0Z
0[
#472500
1!
1Z
1[
1.!
1B
0\
17
1_
#475000
0!
0Z
0[
#477500
1!
1Z
1[
1-!
0.!
0B
1C
1\
16
07
#480000
0!
0Z
0[
#482500
1!
1Z
1[
1.!
1B
0\
17
0_
1^
0]
#485000
0!
0Z
0[
#487500
1!
1Z
1[
0-!
1+!
0,!
0.!
0B
0D
1E
0C
1\
06
14
05
07
#490000
0!
0Z
0[
#492500
1!
1Z
1[
1.!
1B
1`
0\
17
0^
1c
0h
0a
1d
#495000
0!
0Z
0[
#497500
1!
1Z
1[
01!
10!
02!
0+!
0.!
0B
0E
0F
1H
0G
1g
0`
1\
0:
19
0;
04
07
1a
0c
0a
#500000
0!
0Z
0[
#502500
1!
1Z
1[
1.!
1B
0\
17
1_
#505000
0!
0Z
0[
#507500
1!
1Z
1[
1-!
0.!
0B
1C
1\
16
07
#510000
0!
0Z
0[
#512500
1!
1Z
1[
1.!
1B
0\
17
0_
1]
#515000
0!
0Z
0[
#517500
1!
1Z
1[
0-!
1,!
0.!
0B
1D
0C
1\
06
15
07
#520000
0!
0Z
0[
#522500
1!
1Z
1[
1.!
1B
0\
17
1_
#525000
0!
0Z
0[
#527500
1!
1Z
1[
1-!
0.!
0B
1C
1\
16
07
#530000
0!
0Z
0[
#532500
1!
1Z
1[
1.!
1B
0\
17
0_
1^
0]
#535000
0!
0Z
0[
#537500
1!
1Z
1[
0-!
1+!
0,!
0.!
0B
0D
1E
0C
1\
06
14
05
07
#540000
0!
0Z
0[
#542500
1!
1Z
1[
1.!
1B
1`
0\
17
0^
1c
0d
1a
1d
#545000
0!
0Z
0[
#547500
1!
1Z
1[
12!
0+!
0.!
0B
0E
1F
1s
1k
0c
0`
1\
1;
04
07
0a
0s
0k
1a
#550000
0!
0Z
0[
#552500
1!
1Z
1[
1.!
1B
0\
17
1_
#555000
0!
0Z
0[
#557500
1!
1Z
1[
1-!
0.!
0B
1C
1\
16
07
#560000
0!
0Z
0[
#562500
1!
1Z
1[
1.!
1B
0\
17
0_
1]
#565000
0!
0Z
0[
#567500
1!
1Z
1[
0-!
1,!
0.!
0B
1D
0C
1\
06
15
07
#570000
0!
0Z
0[
#572500
1!
1Z
1[
1.!
1B
0\
17
1_
#575000
0!
0Z
0[
#577500
1!
1Z
1[
1-!
0.!
0B
1C
1\
16
07
#580000
0!
0Z
0[
#582500
1!
1Z
1[
1.!
1B
0\
17
0_
1^
0]
#585000
0!
0Z
0[
#587500
1!
1Z
1[
0-!
1+!
0,!
0.!
0B
0D
1E
0C
1\
06
14
05
07
#590000
0!
0Z
0[
#592500
1!
1Z
1[
1.!
1B
1`
0\
17
0^
1s
1k
0d
0a
#595000
0!
0Z
0[
#597500
1!
1Z
1[
19!
0:!
00!
02!
0+!
0.!
0B
0E
0F
0H
0J
1K
0g
0b
0s
0k
1c
0`
1\
1.
0/
09
0;
04
07
1i
1a
0c
0a
#600000
0!
0Z
0[
#602500
1!
1Z
1[
1.!
1B
0\
17
1_
#605000
0!
0Z
0[
#607500
1!
1Z
1[
1-!
0.!
0B
1C
1\
16
07
#610000
0!
0Z
0[
#612500
1!
1Z
1[
1.!
1B
0\
17
0_
1]
#615000
0!
0Z
0[
#617500
1!
1Z
1[
0-!
1,!
0.!
0B
1D
0C
1\
06
15
07
#620000
0!
0Z
0[
#622500
1!
1Z
1[
1.!
1B
0\
17
1_
#625000
0!
0Z
0[
#627500
1!
1Z
1[
1-!
0.!
0B
1C
1\
16
07
#630000
0!
0Z
0[
#632500
1!
1Z
1[
1.!
1B
0\
17
0_
1^
0]
#635000
0!
0Z
0[
#637500
1!
1Z
1[
0-!
1+!
0,!
0.!
0B
0D
1E
0C
1\
06
14
05
07
#640000
0!
0Z
0[
#642500
1!
1Z
1[
1.!
1B
1`
0\
17
0^
1c
1a
#645000
0!
0Z
0[
#647500
1!
1Z
1[
12!
0+!
0.!
0B
0E
1F
0`
1\
1;
04
07
1h
0a
0c
0h
1a
#650000
0!
0Z
0[
#652500
1!
1Z
1[
1.!
1B
0\
17
1_
#655000
0!
0Z
0[
#657500
1!
1Z
1[
1-!
0.!
0B
1C
1\
16
07
#660000
0!
0Z
0[
#662500
1!
1Z
1[
1.!
1B
0\
17
0_
1]
#665000
0!
0Z
0[
#667500
1!
1Z
1[
0-!
1,!
0.!
0B
1D
0C
1\
06
15
07
#670000
0!
0Z
0[
#672500
1!
1Z
1[
1.!
1B
0\
17
1_
#675000
0!
0Z
0[
#677500
1!
1Z
1[
1-!
0.!
0B
1C
1\
16
07
#680000
0!
0Z
0[
#682500
1!
1Z
1[
1.!
1B
0\
17
0_
1^
0]
#685000
0!
0Z
0[
#687500
1!
1Z
1[
0-!
1+!
0,!
0.!
0B
0D
1E
0C
1\
06
14
05
07
#690000
0!
0Z
0[
#692500
1!
1Z
1[
1.!
1B
1`
0\
17
0^
1c
1h
0a
#695000
0!
0Z
0[
#697500
1!
1Z
1[
11!
02!
0+!
0.!
0B
0E
0F
1G
0`
1\
1:
0;
04
07
1a
0c
0a
#700000
0!
0Z
0[
#702500
1!
1Z
1[
1.!
1B
0\
17
1_
#705000
0!
0Z
0[
#707500
1!
1Z
1[
1-!
0.!
0B
1C
1\
16
07
#710000
0!
0Z
0[
#712500
1!
1Z
1[
1.!
1B
0\
17
0_
1]
#715000
0!
0Z
0[
#717500
1!
1Z
1[
0-!
1,!
0.!
0B
1D
0C
1\
06
15
07
#720000
0!
0Z
0[
#722500
1!
1Z
1[
1.!
1B
0\
17
1_
#725000
0!
0Z
0[
#727500
1!
1Z
1[
1-!
0.!
0B
1C
1\
16
07
#730000
0!
0Z
0[
#732500
1!
1Z
1[
1.!
1B
0\
17
0_
1^
0]
#735000
0!
0Z
0[
#737500
1!
1Z
1[
0-!
1+!
0,!
0.!
0B
0D
1E
0C
1\
06
14
05
07
#740000
0!
0Z
0[
#742500
1!
1Z
1[
1.!
1B
1`
0\
17
0^
1c
1a
#745000
0!
0Z
0[
#747500
1!
1Z
1[
12!
0+!
0.!
0B
0E
1F
1b
0`
1\
1;
04
07
0h
0a
0c
1d
1h
1a
0d
#750000
0!
0Z
0[
#752500
1!
1Z
1[
1.!
1B
0\
17
1_
#755000
0!
0Z
0[
#757500
1!
1Z
1[
1-!
0.!
0B
1C
1\
16
07
#760000
0!
0Z
0[
#762500
1!
1Z
1[
1.!
1B
0\
17
0_
1]
#765000
0!
0Z
0[
#767500
1!
1Z
1[
0-!
1,!
0.!
0B
1D
0C
1\
06
15
07
#770000
0!
0Z
0[
#772500
1!
1Z
1[
1.!
1B
0\
17
1_
#775000
0!
0Z
0[
#777500
1!
1Z
1[
1-!
0.!
0B
1C
1\
16
07
#780000
0!
0Z
0[
#782500
1!
1Z
1[
1.!
1B
0\
17
0_
1^
0]
#785000
0!
0Z
0[
#787500
1!
1Z
1[
0-!
1+!
0,!
0.!
0B
0D
1E
0C
1\
06
14
05
07
#790000
0!
0Z
0[
#792500
1!
1Z
1[
1.!
1B
1`
0\
17
0^
1c
0h
0a
1d
#795000
0!
0Z
0[
#797500
1!
1Z
1[
01!
10!
02!
0+!
0.!
0B
0E
0F
1H
0G
1g
0`
1\
0:
19
0;
04
07
1a
0c
0a
#800000
0!
0Z
0[
#802500
1!
1Z
1[
1.!
1B
0\
17
1_
#805000
0!
0Z
0[
#807500
1!
1Z
1[
1-!
0.!
0B
1C
1\
16
07
#810000
0!
0Z
0[
#812500
1!
1Z
1[
1.!
1B
0\
17
0_
1]
#815000
0!
0Z
0[
#817500
1!
1Z
1[
0-!
1,!
0.!
0B
1D
0C
1\
06
15
07
#820000
0!
0Z
0[
#822500
1!
1Z
1[
1.!
1B
0\
17
1_
#825000
0!
0Z
0[
#827500
1!
1Z
1[
1-!
0.!
0B
1C
1\
16
07
#830000
0!
0Z
0[
#832500
1!
1Z
1[
1.!
1B
0\
17
0_
1^
0]
#835000
0!
0Z
0[
#837500
1!
1Z
1[
0-!
1+!
0,!
0.!
0B
0D
1E
0C
1\
06
14
05
07
#840000
0!
0Z
0[
#842500
1!
1Z
1[
1.!
1B
1`
0\
17
0^
1c
0d
1a
1d
#845000
0!
0Z
0[
#847500
1!
1Z
1[
12!
0+!
0.!
0B
0E
1F
1s
1k
0c
0`
1\
1;
04
07
0a
0s
0k
1a
#850000
0!
0Z
0[
#852500
1!
1Z
1[
1.!
1B
0\
17
1_
#855000
0!
0Z
0[
#857500
1!
1Z
1[
1-!
0.!
0B
1C
1\
16
07
#860000
0!
0Z
0[
#862500
1!
1Z
1[
1.!
1B
0\
17
0_
1]
#865000
0!
0Z
0[
#867500
1!
1Z
1[
0-!
1,!
0.!
0B
1D
0C
1\
06
15
07
#870000
0!
0Z
0[
#872500
1!
1Z
1[
1.!
1B
0\
17
1_
#875000
0!
0Z
0[
#877500
1!
1Z
1[
1-!
0.!
0B
1C
1\
16
07
#880000
0!
0Z
0[
#882500
1!
1Z
1[
1.!
1B
0\
17
0_
1^
0]
#885000
0!
0Z
0[
#887500
1!
1Z
1[
0-!
1+!
0,!
0.!
0B
0D
1E
0C
1\
06
14
05
07
#890000
0!
0Z
0[
#892500
1!
1Z
1[
1.!
1B
1`
0\
17
0^
1s
1k
0d
0a
#895000
0!
0Z
0[
#897500
1!
1Z
1[
1:!
00!
02!
0+!
0.!
0B
0E
0F
0H
1J
0g
0b
0s
0k
1c
0`
1\
1/
09
0;
04
07
0n
1l
0i
1a
0c
0l
0a
#900000
0!
0Z
0[
#902500
1!
1Z
1[
1.!
1B
0\
17
1_
#905000
0!
0Z
0[
#907500
1!
1Z
1[
1-!
0.!
0B
1C
1\
16
07
#910000
0!
0Z
0[
#912500
1!
1Z
1[
1.!
1B
0\
17
0_
1]
#915000
0!
0Z
0[
#917500
1!
1Z
1[
0-!
1,!
0.!
0B
1D
0C
1\
06
15
07
#920000
0!
0Z
0[
#922500
1!
1Z
1[
1.!
1B
0\
17
1_
#925000
0!
0Z
0[
#927500
1!
1Z
1[
1-!
0.!
0B
1C
1\
16
07
#930000
0!
0Z
0[
#932500
1!
1Z
1[
1.!
1B
0\
17
0_
1^
0]
#935000
0!
0Z
0[
#937500
1!
1Z
1[
0-!
1+!
0,!
0.!
0B
0D
1E
0C
1\
06
14
05
07
#940000
0!
0Z
0[
#942500
1!
1Z
1[
1.!
1B
1`
0\
17
0^
1c
1a
#945000
0!
0Z
0[
#947500
1!
1Z
1[
12!
0+!
0.!
0B
0E
1F
0`
1\
1;
04
07
1h
0a
0c
0h
1a
#950000
0!
0Z
0[
#952500
1!
1Z
1[
1.!
1B
0\
17
1_
#955000
0!
0Z
0[
#957500
1!
1Z
1[
1-!
0.!
0B
1C
1\
16
07
#960000
0!
0Z
0[
#962500
1!
1Z
1[
1.!
1B
0\
17
0_
1]
#965000
0!
0Z
0[
#967500
1!
1Z
1[
0-!
1,!
0.!
0B
1D
0C
1\
06
15
07
#970000
0!
0Z
0[
#972500
1!
1Z
1[
1.!
1B
0\
17
1_
#975000
0!
0Z
0[
#977500
1!
1Z
1[
1-!
0.!
0B
1C
1\
16
07
#980000
0!
0Z
0[
#982500
1!
1Z
1[
1.!
1B
0\
17
0_
1^
0]
#985000
0!
0Z
0[
#987500
1!
1Z
1[
0-!
1+!
0,!
0.!
0B
0D
1E
0C
1\
06
14
05
07
#990000
0!
0Z
0[
#992500
1!
1Z
1[
1.!
1B
1`
0\
17
0^
1c
1h
0a
#995000
0!
0Z
0[
#997500
1!
1Z
1[
11!
02!
0+!
0.!
0B
0E
0F
1G
0`
1\
1:
0;
04
07
1a
0c
0a
