Lab 2/prj/mult_freq_div/simulation/qsim/mult_freq_div.msim.vcd
$comment
	File created using the following command:
		vcd file mult_freq_div.msim.vcd -direction
$end
$date
	Sun Apr 26 23:13:32 2020
$end
$version
	ModelSim Version 10.5b
$end
$timescale
	1ps
$end

$scope module mult_freq_div_vlg_vec_tst $end
$var reg 1 ! clk $end
$var reg 1 " clr_n $end
$var wire 1 # clk_1Hz $end
$var wire 1 $ clk_1kHz $end
$var wire 1 % clk_500Hz $end

$scope module i1 $end
$var wire 1 & gnd $end
$var wire 1 ' vcc $end
$var wire 1 ( unknown $end
$var tri1 1 ) devclrn $end
$var tri1 1 * devpor $end
$var tri1 1 + devoe $end
$var wire 1 , clk_1Hz~output_o $end
$var wire 1 - clk_500Hz~output_o $end
$var wire 1 . clk_1kHz~output_o $end
$var wire 1 / clk~input_o $end
$var wire 1 0 clk~inputclkctrl_outclk $end
$var wire 1 1 Add0~0_combout $end
$var wire 1 2 clr_n~input_o $end
$var wire 1 3 clr_n~inputclkctrl_outclk $end
$var wire 1 4 Add0~1 $end
$var wire 1 5 Add0~2_combout $end
$var wire 1 6 Add0~3 $end
$var wire 1 7 Add0~4_combout $end
$var wire 1 8 Add0~5 $end
$var wire 1 9 Add0~6_combout $end
$var wire 1 : clk_cnt_1~0_combout $end
$var wire 1 ; Add0~7 $end
$var wire 1 < Add0~8_combout $end
$var wire 1 = Add0~9 $end
$var wire 1 > Add0~10_combout $end
$var wire 1 ? Add0~11 $end
$var wire 1 @ Add0~12_combout $end
$var wire 1 A Add0~13 $end
$var wire 1 B Add0~14_combout $end
$var wire 1 C Add0~15 $end
$var wire 1 D Add0~16_combout $end
$var wire 1 E Add0~17 $end
$var wire 1 F Add0~18_combout $end
$var wire 1 G Add0~19 $end
$var wire 1 H Add0~20_combout $end
$var wire 1 I Add0~21 $end
$var wire 1 J Add0~22_combout $end
$var wire 1 K Add0~23 $end
$var wire 1 L Add0~24_combout $end
$var wire 1 M Add0~25 $end
$var wire 1 N Add0~26_combout $end
$var wire 1 O Add0~27 $end
$var wire 1 P Add0~28_combout $end
$var wire 1 Q Add0~29 $end
$var wire 1 R Add0~30_combout $end
$var wire 1 S Add0~31 $end
$var wire 1 T Add0~32_combout $end
$var wire 1 U Add0~33 $end
$var wire 1 V Add0~34_combout $end
$var wire 1 W Add0~35 $end
$var wire 1 X Add0~36_combout $end
$var wire 1 Y Add0~37 $end
$var wire 1 Z Add0~38_combout $end
$var wire 1 [ Equal0~3_combout $end
$var wire 1 \ Equal0~4_combout $end
$var wire 1 ] Equal0~6_combout $end
$var wire 1 ^ Equal0~5_combout $end
$var wire 1 _ Equal0~7_combout $end
$var wire 1 ` Add0~39 $end
$var wire 1 a Add0~40_combout $end
$var wire 1 b Add0~41 $end
$var wire 1 c Add0~42_combout $end
$var wire 1 d Add0~43 $end
$var wire 1 e Add0~44_combout $end
$var wire 1 f Add0~45 $end
$var wire 1 g Add0~46_combout $end
$var wire 1 h Add0~47 $end
$var wire 1 i Add0~48_combout $end
$var wire 1 j Equal0~0_combout $end
$var wire 1 k Add0~49 $end
$var wire 1 l Add0~50_combout $end
$var wire 1 m Equal0~1_combout $end
$var wire 1 n Equal0~2_combout $end
$var wire 1 o Equal0~8_combout $end
$var wire 1 p clk_1Hz~0_combout $end
$var wire 1 q clk_1Hz~reg0_q $end
$var wire 1 r Add1~1_cout $end
$var wire 1 s Add1~2_combout $end
$var wire 1 t clk_cnt_2~0_combout $end
$var wire 1 u Add1~3 $end
$var wire 1 v Add1~4_combout $end
$var wire 1 w Add1~5 $end
$var wire 1 x Add1~6_combout $end
$var wire 1 y Add1~7 $end
$var wire 1 z Add1~8_combout $end
$var wire 1 { Add1~9 $end
$var wire 1 | Add1~10_combout $end
$var wire 1 } Add1~11 $end
$var wire 1 ~ Add1~12_combout $end
$var wire 1 !! Add1~13 $end
$var wire 1 "! Add1~14_combout $end
$var wire 1 #! Add1~15 $end
$var wire 1 $! Add1~16_combout $end
$var wire 1 %! Add1~17 $end
$var wire 1 &! Add1~18_combout $end
$var wire 1 '! Add1~19 $end
$var wire 1 (! Add1~20_combout $end
$var wire 1 )! Add1~21 $end
$var wire 1 *! Add1~22_combout $end
$var wire 1 +! Add1~23 $end
$var wire 1 ,! Add1~24_combout $end
$var wire 1 -! Add1~25 $end
$var wire 1 .! Add1~26_combout $end
$var wire 1 /! Add1~27 $end
$var wire 1 0! Add1~28_combout $end
$var wire 1 1! Equal1~3_combout $end
$var wire 1 2! Equal1~5_combout $end
$var wire 1 3! Equal1~4_combout $end
$var wire 1 4! Equal1~6_combout $end
$var wire 1 5! Add1~29 $end
$var wire 1 6! Add1~30_combout $end
$var wire 1 7! Add1~31 $end
$var wire 1 8! Add1~32_combout $end
$var wire 1 9! Add1~33 $end
$var wire 1 :! Add1~34_combout $end
$var wire 1 ;! Add1~35 $end
$var wire 1 <! Add1~36_combout $end
$var wire 1 =! Equal1~2_combout $end
$var wire 1 >! Add1~37 $end
$var wire 1 ?! Add1~38_combout $end
$var wire 1 @! Add1~39 $end
$var wire 1 A! Add1~40_combout $end
$var wire 1 B! Add1~41 $end
$var wire 1 C! Add1~42_combout $end
$var wire 1 D! Add1~43 $end
$var wire 1 E! Add1~44_combout $end
$var wire 1 F! Add1~45 $end
$var wire 1 G! Add1~46_combout $end
$var wire 1 H! Add1~47 $end
$var wire 1 I! Add1~48_combout $end
$var wire 1 J! Equal1~0_combout $end
$var wire 1 K! Equal1~1_combout $end
$var wire 1 L! Equal1~7_combout $end
$var wire 1 M! clk_500Hz~0_combout $end
$var wire 1 N! clk_500Hz~reg0_q $end
$var wire 1 O! Add2~0_combout $end
$var wire 1 P! clk_cnt_3~0_combout $end
$var wire 1 Q! Add2~1 $end
$var wire 1 R! Add2~2_combout $end
$var wire 1 S! Add2~3 $end
$var wire 1 T! Add2~4_combout $end
$var wire 1 U! Add2~5 $end
$var wire 1 V! Add2~6_combout $end
$var wire 1 W! Add2~7 $end
$var wire 1 X! Add2~8_combout $end
$var wire 1 Y! Add2~9 $end
$var wire 1 Z! Add2~10_combout $end
$var wire 1 [! Add2~11 $end
$var wire 1 \! Add2~12_combout $end
$var wire 1 ]! Add2~13 $end
$var wire 1 ^! Add2~14_combout $end
$var wire 1 _! Add2~15 $end
$var wire 1 `! Add2~16_combout $end
$var wire 1 a! Add2~17 $end
$var wire 1 b! Add2~18_combout $end
$var wire 1 c! Equal2~5_combout $end
$var wire 1 d! Equal2~6_combout $end
$var wire 1 e! Equal2~7_combout $end
$var wire 1 f! Add2~19 $end
$var wire 1 g! Add2~20_combout $end
$var wire 1 h! Add2~21 $end
$var wire 1 i! Add2~22_combout $end
$var wire 1 j! Add2~23 $end
$var wire 1 k! Add2~24_combout $end
$var wire 1 l! Add2~25 $end
$var wire 1 m! Add2~26_combout $end
$var wire 1 n! Add2~27 $end
$var wire 1 o! Add2~28_combout $end
$var wire 1 p! Add2~29 $end
$var wire 1 q! Add2~30_combout $end
$var wire 1 r! Add2~31 $end
$var wire 1 s! Add2~32_combout $end
$var wire 1 t! Add2~33 $end
$var wire 1 u! Add2~34_combout $end
$var wire 1 v! Equal2~2_combout $end
$var wire 1 w! Add2~35 $end
$var wire 1 x! Add2~36_combout $end
$var wire 1 y! Add2~37 $end
$var wire 1 z! Add2~38_combout $end
$var wire 1 {! Add2~39 $end
$var wire 1 |! Add2~40_combout $end
$var wire 1 }! Add2~41 $end
$var wire 1 ~! Add2~42_combout $end
$var wire 1 !" Equal2~1_combout $end
$var wire 1 "" Equal2~3_combout $end
$var wire 1 #" Add2~43 $end
$var wire 1 $" Add2~44_combout $end
$var wire 1 %" Add2~45 $end
$var wire 1 &" Add2~46_combout $end
$var wire 1 '" Add2~47 $end
$var wire 1 (" Add2~48_combout $end
$var wire 1 )" Equal2~0_combout $end
$var wire 1 *" Equal2~4_combout $end
$var wire 1 +" Equal2~8_combout $end
$var wire 1 ," clk_1kHz~0_combout $end
$var wire 1 -" clk_1kHz~reg0_q $end
$var wire 1 ." clk_cnt_1 [25] $end
$var wire 1 /" clk_cnt_1 [24] $end
$var wire 1 0" clk_cnt_1 [23] $end
$var wire 1 1" clk_cnt_1 [22] $end
$var wire 1 2" clk_cnt_1 [21] $end
$var wire 1 3" clk_cnt_1 [20] $end
$var wire 1 4" clk_cnt_1 [19] $end
$var wire 1 5" clk_cnt_1 [18] $end
$var wire 1 6" clk_cnt_1 [17] $end
$var wire 1 7" clk_cnt_1 [16] $end
$var wire 1 8" clk_cnt_1 [15] $end
$var wire 1 9" clk_cnt_1 [14] $end
$var wire 1 :" clk_cnt_1 [13] $end
$var wire 1 ;" clk_cnt_1 [12] $end
$var wire 1 <" clk_cnt_1 [11] $end
$var wire 1 =" clk_cnt_1 [10] $end
$var wire 1 >" clk_cnt_1 [9] $end
$var wire 1 ?" clk_cnt_1 [8] $end
$var wire 1 @" clk_cnt_1 [7] $end
$var wire 1 A" clk_cnt_1 [6] $end
$var wire 1 B" clk_cnt_1 [5] $end
$var wire 1 C" clk_cnt_1 [4] $end
$var wire 1 D" clk_cnt_1 [3] $end
$var wire 1 E" clk_cnt_1 [2] $end
$var wire 1 F" clk_cnt_1 [1] $end
$var wire 1 G" clk_cnt_1 [0] $end
$var wire 1 H" clk_cnt_2 [25] $end
$var wire 1 I" clk_cnt_2 [24] $end
$var wire 1 J" clk_cnt_2 [23] $end
$var wire 1 K" clk_cnt_2 [22] $end
$var wire 1 L" clk_cnt_2 [21] $end
$var wire 1 M" clk_cnt_2 [20] $end
$var wire 1 N" clk_cnt_2 [19] $end
$var wire 1 O" clk_cnt_2 [18] $end
$var wire 1 P" clk_cnt_2 [17] $end
$var wire 1 Q" clk_cnt_2 [16] $end
$var wire 1 R" clk_cnt_2 [15] $end
$var wire 1 S" clk_cnt_2 [14] $end
$var wire 1 T" clk_cnt_2 [13] $end
$var wire 1 U" clk_cnt_2 [12] $end
$var wire 1 V" clk_cnt_2 [11] $end
$var wire 1 W" clk_cnt_2 [10] $end
$var wire 1 X" clk_cnt_2 [9] $end
$var wire 1 Y" clk_cnt_2 [8] $end
$var wire 1 Z" clk_cnt_2 [7] $end
$var wire 1 [" clk_cnt_2 [6] $end
$var wire 1 \" clk_cnt_2 [5] $end
$var wire 1 ]" clk_cnt_2 [4] $end
$var wire 1 ^" clk_cnt_2 [3] $end
$var wire 1 _" clk_cnt_2 [2] $end
$var wire 1 `" clk_cnt_2 [1] $end
$var wire 1 a" clk_cnt_2 [0] $end
$var wire 1 b" clk_cnt_3 [25] $end
$var wire 1 c" clk_cnt_3 [24] $end
$var wire 1 d" clk_cnt_3 [23] $end
$var wire 1 e" clk_cnt_3 [22] $end
$var wire 1 f" clk_cnt_3 [21] $end
$var wire 1 g" clk_cnt_3 [20] $end
$var wire 1 h" clk_cnt_3 [19] $end
$var wire 1 i" clk_cnt_3 [18] $end
$var wire 1 j" clk_cnt_3 [17] $end
$var wire 1 k" clk_cnt_3 [16] $end
$var wire 1 l" clk_cnt_3 [15] $end
$var wire 1 m" clk_cnt_3 [14] $end
$var wire 1 n" clk_cnt_3 [13] $end
$var wire 1 o" clk_cnt_3 [12] $end
$var wire 1 p" clk_cnt_3 [11] $end
$var wire 1 q" clk_cnt_3 [10] $end
$var wire 1 r" clk_cnt_3 [9] $end
$var wire 1 s" clk_cnt_3 [8] $end
$var wire 1 t" clk_cnt_3 [7] $end
$var wire 1 u" clk_cnt_3 [6] $end
$var wire 1 v" clk_cnt_3 [5] $end
$var wire 1 w" clk_cnt_3 [4] $end
$var wire 1 x" clk_cnt_3 [3] $end
$var wire 1 y" clk_cnt_3 [2] $end
$var wire 1 z" clk_cnt_3 [1] $end
$var wire 1 {" clk_cnt_3 [0] $end
$upscope $end
$upscope $end
$enddefinitions $end
#0
$dumpvars
1!
1"
0#
0$
0%
0&
1'
x(
1)
1*
1+
0,
0-
0.
1/
10
11
12
13
04
05
16
07
08
09
0:
1;
0<
0=
0>
1?
0@
0A
0B
1C
0D
0E
0F
1G
0H
0I
0J
1K
0L
0M
0N
1O
0P
0Q
0R
1S
0T
0U
0V
1W
0X
0Y
0Z
1[
1\
1]
1^
0_
1`
0a
0b
0c
1d
0e
0f
0g
1h
0i
0j
0k
0l
1m
0n
0o
0p
0q
0r
0s
0t
1u
0v
0w
0x
1y
0z
0{
0|
1}
0~
0!!
0"!
1#!
0$!
0%!
0&!
1'!
0(!
0)!
0*!
1+!
0,!
0-!
0.!
1/!
00!
11!
12!
13!
14!
05!
06!
17!
08!
09!
0:!
1;!
0<!
1=!
0>!
0?!
1@!
0A!
0B!
0C!
1D!
0E!
0F!
0G!
1H!
0I!
1J!
0K!
0L!
0M!
0N!
0O!
0P!
0Q!
0R!
1S!
0T!
0U!
0V!
1W!
0X!
0Y!
0Z!
1[!
0\!
0]!
0^!
1_!
0`!
0a!
0b!
1c!
1d!
1e!
1f!
0g!
0h!
0i!
1j!
0k!
0l!
0m!
1n!
0o!
0p!
0q!
1r!
0s!
0t!
0u!
1v!
1w!
0x!
0y!
0z!
1{!
0|!
0}!
0~!
1!"
1""
1#"
0$"
0%"
0&"
1'"
0("
0)"
0*"
0+"
0,"
0-"
0G"
0F"
0E"
0D"
0C"
0B"
0A"
0@"
0?"
0>"
0="
0<"
0;"
0:"
09"
08"
07"
06"
05"
04"
03"
02"
01"
00"
0/"
0."
za"
z`"
0_"
0^"
0]"
0\"
0["
0Z"
0Y"
0X"
0W"
0V"
0U"
0T"
0S"
0R"
0Q"
0P"
0O"
0N"
0M"
0L"
0K"
0J"
0I"
0H"
z{"
0z"
0y"
0x"
0w"
0v"
0u"
0t"
0s"
0r"
0q"
0p"
0o"
0n"
0m"
0l"
0k"
0j"
0i"
0h"
0g"
0f"
0e"
0d"
0c"
0b"
$end
#5000
0!
0/
00
#10000
1!
1/
10
1G"
1)"
1O!
14
01
1*"
1P!
15
1+"
1,"
0P!
#15000
0!
0/
00
#20000
1!
1/
10
1F"
0G"
1-"
1.
06
0)"
0O!
04
1$
05
11
0,"
0*"
16
17
15
0+"
07
1,"
#25000
0!
0/
00
#30000
1!
1/
10
1G"
1)"
1O!
1r
1j
14
01
1*"
1s
1K!
1n
06
1P!
05
1+"
1L!
1t
17
0,"
0P!
1M!
0t
#35000
0!
0/
00
#40000
1!
1/
10
1E"
0F"
0G"
0-"
1N!
1-
0.
1_
18
0r
0j
16
0)"
0O!
04
0$
1%
07
15
11
1,"
0M!
1o
19
0s
0K!
0n
08
0*"
17
05
0L!
0o
09
0+"
1p
1M!
0p
0,"
#45000
0!
0/
00
#50000
1!
1/
10
1G"
1)"
1O!
14
01
1*"
1P!
15
1+"
1,"
0P!
#55000
0!
0/
00
#60000
1!
1/
10
1F"
0G"
1-"
1.
06
0)"
0O!
04
1$
05
11
0,"
18
0*"
16
07
15
19
0+"
08
17
09
1:
1,"
0:
#65000
0!
0/
00
#70000
1!
1/
10
1G"
1)"
1O!
1r
1j
14
01
1*"
1s
1K!
1n
06
1P!
05
1+"
1L!
1o
18
1t
07
19
0,"
0P!
0M!
0t
1p
#75000
0!
0/
00
#80000
1!
1/
10
0E"
0F"
0G"
0-"
0N!
1q
1,
0-
0.
0_
08
0r
0j
16
0)"
0O!
04
0$
0%
1#
17
15
11
1,"
1M!
0p
0o
09
0s
0K!
0n
0*"
07
05
0L!
0+"
1p
0M!
0,"
#85000
0!
0/
00
#90000
1!
1/
10
1G"
1)"
1O!
14
01
1*"
1P!
15
1+"
1,"
0P!
#95000
0!
0/
00
#100000
1!
1/
10
1F"
0G"
1-"
1.
06
0)"
0O!
04
1$
05
11
0,"
0*"
16
17
15
0+"
07
1,"
#105000
0!
0/
00
#110000
1!
1/
10
1G"
1)"
1O!
1r
1j
14
01
1*"
1s
1K!
1n
06
1P!
05
1+"
1L!
1t
17
0,"
0P!
1M!
0t
#115000
0!
0/
00
#120000
1!
1/
10
1E"
0F"
0G"
0-"
1N!
1-
0.
1_
18
0r
0j
16
0)"
0O!
04
0$
1%
07
15
11
1,"
0M!
1o
19
0s
0K!
0n
08
0*"
17
05
0L!
0o
09
0+"
0p
1M!
1p
0,"
#125000
0!
0/
00
#130000
1!
1/
10
1G"
1)"
1O!
14
01
1*"
1P!
15
1+"
1,"
0P!
#135000
0!
0/
00
#140000
1!
1/
10
1F"
0G"
1-"
1.
06
0)"
0O!
04
1$
05
11
0,"
18
0*"
16
07
15
19
0+"
08
17
09
1:
1,"
0:
#145000
0!
0/
00
#150000
1!
1/
10
1G"
1)"
1O!
1r
1j
14
01
1*"
1s
1K!
1n
06
1P!
05
1+"
1L!
1o
18
1t
07
19
0,"
0P!
0M!
0t
0p
#155000
0!
0/
00
#160000
1!
1/
10
0E"
0F"
0G"
0-"
0N!
0q
0,
0-
0.
0_
08
0r
0j
16
0)"
0O!
04
0$
0%
0#
17
15
11
1,"
1M!
1p
0o
09
0s
0K!
0n
0*"
07
05
0L!
0+"
0p
0M!
0,"
#165000
0!
0/
00
#170000
1!
1/
10
1G"
1)"
1O!
14
01
1*"
1P!
15
1+"
1,"
0P!
#175000
0!
0/
00
#180000
1!
1/
10
1F"
0G"
1-"
1.
06
0)"
0O!
04
1$
05
11
0,"
0*"
16
17
15
0+"
07
1,"
#185000
0!
0/
00
#190000
1!
1/
10
1G"
1)"
1O!
1r
1j
14
01
1*"
1s
1K!
1n
06
1P!
05
1+"
1L!
1t
17
0,"
0P!
1M!
0t
#195000
0!
0/
00
#200000
1!
1/
10
1E"
0F"
0G"
0-"
1N!
1-
0.
1_
18
0r
0j
16
0)"
0O!
04
0$
1%
07
15
11
1,"
0M!
1o
19
0s
0K!
0n
08
0*"
17
05
0L!
0o
09
0+"
1p
1M!
0p
0,"
#205000
0!
0/
00
#210000
1!
1/
10
1G"
1)"
1O!
14
01
1*"
1P!
15
1+"
1,"
0P!
#215000
0!
0/
00
#220000
1!
1/
10
1F"
0G"
1-"
1.
06
0)"
0O!
04
1$
05
11
0,"
18
0*"
16
07
15
19
0+"
08
17
09
1:
1,"
0:
#225000
0!
0/
00
#230000
1!
1/
10
1G"
1)"
1O!
1r
1j
14
01
1*"
1s
1K!
1n
06
1P!
05
1+"
1L!
1o
18
1t
07
19
0,"
0P!
0M!
0t
1p
#235000
0!
0/
00
#240000
1!
1/
10
0E"
0F"
0G"
0-"
0N!
1q
1,
0-
0.
0_
08
0r
0j
16
0)"
0O!
04
0$
0%
1#
17
15
11
1,"
1M!
0p
0o
09
0s
0K!
0n
0*"
07
05
0L!
0+"
1p
0M!
0,"
#245000
0!
0/
00
#250000
1!
1/
10
1G"
1)"
1O!
14
01
1*"
1P!
15
1+"
1,"
0P!
#255000
0!
0/
00
#260000
1!
1/
10
1F"
0G"
1-"
1.
06
0)"
0O!
04
1$
05
11
0,"
0*"
16
17
15
0+"
07
1,"
#265000
0!
0/
00
#270000
1!
1/
10
1G"
1)"
1O!
1r
1j
14
01
1*"
1s
1K!
1n
06
1P!
05
1+"
1L!
1t
17
0,"
0P!
1M!
0t
#275000
0!
0/
00
#280000
1!
1/
10
1E"
0F"
0G"
0-"
1N!
1-
0.
1_
18
0r
0j
16
0)"
0O!
04
0$
1%
07
15
11
1,"
0M!
1o
19
0s
0K!
0n
08
0*"
17
05
0L!
0o
09
0+"
0p
1M!
1p
0,"
#285000
0!
0/
00
#290000
1!
1/
10
1G"
1)"
1O!
14
01
1*"
1P!
15
1+"
1,"
0P!
#295000
0!
0/
00
#300000
1!
1/
10
1F"
0G"
1-"
1.
06
0)"
0O!
04
1$
05
11
0,"
18
0*"
16
07
15
19
0+"
08
17
09
1:
1,"
0:
#305000
0!
0/
00
#310000
1!
1/
10
1G"
1)"
1O!
1r
1j
14
01
1*"
1s
1K!
1n
06
1P!
05
1+"
1L!
1o
18
1t
07
19
0,"
0P!
0M!
0t
0p
#315000
0!
0/
00
#320000
1!
1/
10
0E"
0F"
0G"
0-"
0N!
0q
0,
0-
0.
0_
08
0r
0j
16
0)"
0O!
04
0$
0%
0#
17
15
11
1,"
1M!
1p
0o
09
0s
0K!
0n
0*"
07
05
0L!
0+"
0p
0M!
0,"
#325000
0!
0/
00
#330000
1!
1/
10
1G"
1)"
1O!
14
01
1*"
1P!
15
1+"
1,"
0P!
#335000
0!
0/
00
#340000
1!
1/
10
1F"
0G"
1-"
1.
06
0)"
0O!
04
1$
05
11
0,"
0*"
16
17
15
0+"
07
1,"
#345000
0!
0/
00
#350000
1!
1/
10
1G"
1)"
1O!
1r
1j
14
01
1*"
1s
1K!
1n
06
1P!
05
1+"
1L!
1t
17
0,"
0P!
1M!
0t
#355000
0!
0/
00
#360000
1!
1/
10
1E"
0F"
0G"
0-"
1N!
1-
0.
1_
18
0r
0j
16
0)"
0O!
04
0$
1%
07
15
11
1,"
0M!
1o
19
0s
0K!
0n
08
0*"
17
05
0L!
0o
09
0+"
1p
1M!
0p
0,"
#365000
0!
0/
00
#370000
1!
1/
10
1G"
1)"
1O!
14
01
1*"
1P!
15
1+"
1,"
0P!
#375000
0!
0/
00
#380000
1!
1/
10
1F"
0G"
1-"
1.
06
0)"
0O!
04
1$
05
11
0,"
18
0*"
16
07
15
19
0+"
08
17
09
1:
1,"
0:
#385000
0!
0/
00
#390000
1!
1/
10
1G"
1)"
1O!
1r
1j
14
01
1*"
1s
1K!
1n
06
1P!
05
1+"
1L!
1o
18
1t
07
19
0,"
0P!
0M!
0t
1p
#395000
0!
0/
00
#400000
1!
1/
10
0E"
0F"
0G"
0-"
0N!
1q
1,
0-
0.
0_
08
0r
0j
16
0)"
0O!
04
0$
0%
1#
17
15
11
1,"
1M!
0p
0o
09
0s
0K!
0n
0*"
07
05
0L!
0+"
1p
0M!
0,"
#405000
0!
0/
00
#410000
1!
1/
10
1G"
1)"
1O!
14
01
1*"
1P!
15
1+"
1,"
0P!
#415000
0!
0/
00
#420000
1!
1/
10
1F"
0G"
1-"
1.
06
0)"
0O!
04
1$
05
11
0,"
0*"
16
17
15
0+"
07
1,"
#425000
0!
0/
00
#430000
1!
1/
10
1G"
1)"
1O!
1r
1j
14
01
1*"
1s
1K!
1n
06
1P!
05
1+"
1L!
1t
17
0,"
0P!
1M!
0t
#435000
0!
0/
00
#440000
1!
1/
10
1E"
0F"
0G"
0-"
1N!
1-
0.
1_
18
0r
0j
16
0)"
0O!
04
0$
1%
07
15
11
1,"
0M!
1o
19
0s
0K!
0n
08
0*"
17
05
0L!
0o
09
0+"
0p
1M!
1p
0,"
#445000
0!
0/
00
#450000
1!
1/
10
1G"
1)"
1O!
14
01
1*"
1P!
15
1+"
1,"
0P!
#455000
0!
0/
00
#460000
1!
1/
10
1F"
0G"
1-"
1.
06
0)"
0O!
04
1$
05
11
0,"
18
0*"
16
07
15
19
0+"
08
17
09
1:
1,"
0:
#465000
0!
0/
00
#470000
1!
1/
10
1G"
1)"
1O!
1r
1j
14
01
1*"
1s
1K!
1n
06
1P!
05
1+"
1L!
1o
18
1t
07
19
0,"
0P!
0M!
0t
0p
#475000
0!
0/
00
#480000
1!
1/
10
0E"
0F"
0G"
0-"
0N!
0q
0,
0-
0.
0_
08
0r
0j
16
0)"
0O!
04
0$
0%
0#
17
15
11
1,"
1M!
1p
0o
09
0s
0K!
0n
0*"
07
05
0L!
0+"
0p
0M!
0,"
#485000
0!
0/
00
#490000
1!
1/
10
1G"
1)"
1O!
14
01
1*"
1P!
15
1+"
1,"
0P!
#495000
0!
0/
00
#500000
1!
1/
10
1F"
0G"
1-"
1.
06
0)"
0O!
04
1$
05
11
0,"
0*"
16
17
15
0+"
07
1,"
#505000
0!
0/
00
#510000
1!
1/
10
1G"
1)"
1O!
1r
1j
14
01
1*"
1s
1K!
1n
06
1P!
05
1+"
1L!
1t
17
0,"
0P!
1M!
0t
#515000
0!
0/
00
#520000
1!
1/
10
1E"
0F"
0G"
0-"
1N!
1-
0.
1_
18
0r
0j
16
0)"
0O!
04
0$
1%
07
15
11
1,"
0M!
1o
19
0s
0K!
0n
08
0*"
17
05
0L!
0o
09
0+"
1p
1M!
0p
0,"
#525000
0!
0/
00
#530000
1!
1/
10
1G"
1)"
1O!
14
01
1*"
1P!
15
1+"
1,"
0P!
#535000
0!
0/
00
#540000
1!
1/
10
1F"
0G"
1-"
1.
06
0)"
0O!
04
1$
05
11
0,"
18
0*"
16
07
15
19
0+"
08
17
09
1:
1,"
0:
#545000
0!
0/
00
#550000
1!
1/
10
1G"
1)"
1O!
1r
1j
14
01
1*"
1s
1K!
1n
06
1P!
05
1+"
1L!
1o
18
1t
07
19
0,"
0P!
0M!
0t
1p
#555000
0!
0/
00
#560000
1!
1/
10
0E"
0F"
0G"
0-"
0N!
1q
1,
0-
0.
0_
08
0r
0j
16
0)"
0O!
04
0$
0%
1#
17
15
11
1,"
1M!
0p
0o
09
0s
0K!
0n
0*"
07
05
0L!
0+"
1p
0M!
0,"
#565000
0!
0/
00
#570000
1!
1/
10
1G"
1)"
1O!
14
01
1*"
1P!
15
1+"
1,"
0P!
#575000
0!
0/
00
#580000
1!
1/
10
1F"
0G"
1-"
1.
06
0)"
0O!
04
1$
05
11
0,"
0*"
16
17
15
0+"
07
1,"
#585000
0!
0/
00
#590000
1!
1/
10
1G"
1)"
1O!
1r
1j
14
01
1*"
1s
1K!
1n
06
1P!
05
1+"
1L!
1t
17
0,"
0P!
1M!
0t
#595000
0!
0/
00
#600000
1!
1/
10
1E"
0F"
0G"
0-"
1N!
1-
0.
1_
18
0r
0j
16
0)"
0O!
04
0$
1%
07
15
11
1,"
0M!
1o
19
0s
0K!
0n
08
0*"
17
05
0L!
0o
09
0+"
0p
1M!
1p
0,"
#605000
0!
0/
00
#610000
1!
1/
10
1G"
1)"
1O!
14
01
1*"
1P!
15
1+"
1,"
0P!
#615000
0!
0/
00
#620000
1!
1/
10
1F"
0G"
1-"
1.
06
0)"
0O!
04
1$
05
11
0,"
18
0*"
16
07
15
19
0+"
08
17
09
1:
1,"
0:
#625000
0!
0/
00
#630000
1!
1/
10
1G"
1)"
1O!
1r
1j
14
01
1*"
1s
1K!
1n
06
1P!
05
1+"
1L!
1o
18
1t
07
19
0,"
0P!
0M!
0t
0p
#635000
0!
0/
00
#640000
1!
1/
10
0E"
0F"
0G"
0-"
0N!
0q
0,
0-
0.
0_
08
0r
0j
16
0)"
0O!
04
0$
0%
0#
17
15
11
1,"
1M!
1p
0o
09
0s
0K!
0n
0*"
07
05
0L!
0+"
0p
0M!
0,"
#645000
0!
0/
00
#650000
1!
1/
10
1G"
1)"
1O!
14
01
1*"
1P!
15
1+"
1,"
0P!
#655000
0!
0/
00
#660000
1!
1/
10
1F"
0G"
1-"
1.
06
0)"
0O!
04
1$
05
11
0,"
0*"
16
17
15
0+"
07
1,"
#665000
0!
0/
00
#670000
1!
1/
10
1G"
1)"
1O!
1r
1j
14
01
1*"
1s
1K!
1n
06
1P!
05
1+"
1L!
1t
17
0,"
0P!
1M!
0t
#675000
0!
0/
00
#680000
1!
1/
10
1E"
0F"
0G"
0-"
1N!
1-
0.
1_
18
0r
0j
16
0)"
0O!
04
0$
1%
07
15
11
1,"
0M!
1o
19
0s
0K!
0n
08
0*"
17
05
0L!
0o
09
0+"
1p
1M!
0p
0,"
#685000
0!
0/
00
#690000
1!
1/
10
1G"
1)"
1O!
14
01
1*"
1P!
15
1+"
1,"
0P!
#695000
0!
0/
00
#700000
1!
1/
10
1F"
0G"
1-"
1.
06
0)"
0O!
04
1$
05
11
0,"
18
0*"
16
07
15
19
0+"
08
17
09
1:
1,"
0:
#705000
0!
0/
00
#710000
1!
1/
10
1G"
1)"
1O!
1r
1j
14
01
1*"
1s
1K!
1n
06
1P!
05
1+"
1L!
1o
18
1t
07
19
0,"
0P!
0M!
0t
1p
#715000
0!
0/
00
#720000
1!
1/
10
0E"
0F"
0G"
0-"
0N!
1q
1,
0-
0.
0_
08
0r
0j
16
0)"
0O!
04
0$
0%
1#
17
15
11
1,"
1M!
0p
0o
09
0s
0K!
0n
0*"
07
05
0L!
0+"
1p
0M!
0,"
#725000
0!
0/
00
#730000
1!
1/
10
1G"
1)"
1O!
14
01
1*"
1P!
15
1+"
1,"
0P!
#735000
0!
0/
00
#740000
1!
1/
10
1F"
0G"
1-"
1.
06
0)"
0O!
04
1$
05
11
0,"
0*"
16
17
15
0+"
07
1,"
#745000
0!
0/
00
#750000
1!
1/
10
1G"
1)"
1O!
1r
1j
14
01
1*"
1s
1K!
1n
06
1P!
05
1+"
1L!
1t
17
0,"
0P!
1M!
0t
#755000
0!
0/
00
#760000
1!
1/
10
1E"
0F"
0G"
0-"
1N!
1-
0.
1_
18
0r
0j
16
0)"
0O!
04
0$
1%
07
15
11
1,"
0M!
1o
19
0s
0K!
0n
08
0*"
17
05
0L!
0o
09
0+"
0p
1M!
1p
0,"
#765000
0!
0/
00
#770000
1!
1/
10
1G"
1)"
1O!
14
01
1*"
1P!
15
1+"
1,"
0P!
#775000
0!
0/
00
#780000
1!
1/
10
1F"
0G"
1-"
1.
06
0)"
0O!
04
1$
05
11
0,"
18
0*"
16
07
15
19
0+"
08
17
09
1:
1,"
0:
#785000
0!
0/
00
#790000
1!
1/
10
1G"
1)"
1O!
1r
1j
14
01
1*"
1s
1K!
1n
06
1P!
05
1+"
1L!
1o
18
1t
07
19
0,"
0P!
0M!
0t
0p
#795000
0!
0/
00
#800000
1!
1/
10
0E"
0F"
0G"
0-"
0N!
0q
0,
0-
0.
0_
08
0r
0j
16
0)"
0O!
04
0$
0%
0#
17
15
11
1,"
1M!
1p
0o
09
0s
0K!
0n
0*"
07
05
0L!
0+"
0p
0M!
0,"
#805000
0!
0/
00
#810000
1!
1/
10
1G"
1)"
1O!
14
01
1*"
1P!
15
1+"
1,"
0P!
#815000
0!
0/
00
