Lab 2/prj/digital_clock/simulation/qsim/digital_clock.msim.vcd
$comment
	File created using the following command:
		vcd file digital_clock.msim.vcd -direction
$end
$date
	Sat May 16 14:25:41 2020
$end
$version
	ModelSim Version 10.5b
$end
$timescale
	1ps
$end

$scope module digital_clock_vlg_vec_tst $end
$var reg 1 ! alarm_hour_set $end
$var reg 1 " alarm_min_set $end
$var reg 1 # clk_50MHz $end
$var reg 1 $ hour_correct $end
$var reg 1 % min_correct $end
$var wire 1 & hour_01_disp [6] $end
$var wire 1 ' hour_01_disp [5] $end
$var wire 1 ( hour_01_disp [4] $end
$var wire 1 ) hour_01_disp [3] $end
$var wire 1 * hour_01_disp [2] $end
$var wire 1 + hour_01_disp [1] $end
$var wire 1 , hour_01_disp [0] $end
$var wire 1 - hour_10_disp [6] $end
$var wire 1 . hour_10_disp [5] $end
$var wire 1 / hour_10_disp [4] $end
$var wire 1 0 hour_10_disp [3] $end
$var wire 1 1 hour_10_disp [2] $end
$var wire 1 2 hour_10_disp [1] $end
$var wire 1 3 hour_10_disp [0] $end
$var wire 1 4 min_01_disp [6] $end
$var wire 1 5 min_01_disp [5] $end
$var wire 1 6 min_01_disp [4] $end
$var wire 1 7 min_01_disp [3] $end
$var wire 1 8 min_01_disp [2] $end
$var wire 1 9 min_01_disp [1] $end
$var wire 1 : min_01_disp [0] $end
$var wire 1 ; min_10_disp [6] $end
$var wire 1 < min_10_disp [5] $end
$var wire 1 = min_10_disp [4] $end
$var wire 1 > min_10_disp [3] $end
$var wire 1 ? min_10_disp [2] $end
$var wire 1 @ min_10_disp [1] $end
$var wire 1 A min_10_disp [0] $end
$var wire 1 B sec_01_disp [6] $end
$var wire 1 C sec_01_disp [5] $end
$var wire 1 D sec_01_disp [4] $end
$var wire 1 E sec_01_disp [3] $end
$var wire 1 F sec_01_disp [2] $end
$var wire 1 G sec_01_disp [1] $end
$var wire 1 H sec_01_disp [0] $end
$var wire 1 I sec_10_disp [6] $end
$var wire 1 J sec_10_disp [5] $end
$var wire 1 K sec_10_disp [4] $end
$var wire 1 L sec_10_disp [3] $end
$var wire 1 M sec_10_disp [2] $end
$var wire 1 N sec_10_disp [1] $end
$var wire 1 O sec_10_disp [0] $end
$var wire 1 P tone_1k $end
$var wire 1 Q tone_500 $end

$scope module i1 $end
$var wire 1 R gnd $end
$var wire 1 S vcc $end
$var wire 1 T unknown $end
$var tri1 1 U devclrn $end
$var tri1 1 V devpor $end
$var tri1 1 W devoe $end
$var wire 1 X sec_01_disp[0]~output_o $end
$var wire 1 Y sec_01_disp[1]~output_o $end
$var wire 1 Z sec_01_disp[2]~output_o $end
$var wire 1 [ sec_01_disp[3]~output_o $end
$var wire 1 \ sec_01_disp[4]~output_o $end
$var wire 1 ] sec_01_disp[5]~output_o $end
$var wire 1 ^ sec_01_disp[6]~output_o $end
$var wire 1 _ sec_10_disp[0]~output_o $end
$var wire 1 ` sec_10_disp[1]~output_o $end
$var wire 1 a sec_10_disp[2]~output_o $end
$var wire 1 b sec_10_disp[3]~output_o $end
$var wire 1 c sec_10_disp[4]~output_o $end
$var wire 1 d sec_10_disp[5]~output_o $end
$var wire 1 e sec_10_disp[6]~output_o $end
$var wire 1 f min_01_disp[0]~output_o $end
$var wire 1 g min_01_disp[1]~output_o $end
$var wire 1 h min_01_disp[2]~output_o $end
$var wire 1 i min_01_disp[3]~output_o $end
$var wire 1 j min_01_disp[4]~output_o $end
$var wire 1 k min_01_disp[5]~output_o $end
$var wire 1 l min_01_disp[6]~output_o $end
$var wire 1 m min_10_disp[0]~output_o $end
$var wire 1 n min_10_disp[1]~output_o $end
$var wire 1 o min_10_disp[2]~output_o $end
$var wire 1 p min_10_disp[3]~output_o $end
$var wire 1 q min_10_disp[4]~output_o $end
$var wire 1 r min_10_disp[5]~output_o $end
$var wire 1 s min_10_disp[6]~output_o $end
$var wire 1 t hour_01_disp[0]~output_o $end
$var wire 1 u hour_01_disp[1]~output_o $end
$var wire 1 v hour_01_disp[2]~output_o $end
$var wire 1 w hour_01_disp[3]~output_o $end
$var wire 1 x hour_01_disp[4]~output_o $end
$var wire 1 y hour_01_disp[5]~output_o $end
$var wire 1 z hour_01_disp[6]~output_o $end
$var wire 1 { hour_10_disp[0]~output_o $end
$var wire 1 | hour_10_disp[1]~output_o $end
$var wire 1 } hour_10_disp[2]~output_o $end
$var wire 1 ~ hour_10_disp[3]~output_o $end
$var wire 1 !! hour_10_disp[4]~output_o $end
$var wire 1 "! hour_10_disp[5]~output_o $end
$var wire 1 #! hour_10_disp[6]~output_o $end
$var wire 1 $! tone_500~output_o $end
$var wire 1 %! tone_1k~output_o $end
$var wire 1 &! clk_50MHz~input_o $end
$var wire 1 '! clk_50MHz~inputclkctrl_outclk $end
$var wire 1 (! Freq_Div|Add0~0_combout $end
$var wire 1 )! Freq_Div|Add0~1 $end
$var wire 1 *! Freq_Div|Add0~2_combout $end
$var wire 1 +! Freq_Div|Add0~3 $end
$var wire 1 ,! Freq_Div|Add0~4_combout $end
$var wire 1 -! Freq_Div|Add0~5 $end
$var wire 1 .! Freq_Div|Add0~6_combout $end
$var wire 1 /! Freq_Div|Add0~7 $end
$var wire 1 0! Freq_Div|Add0~8_combout $end
$var wire 1 1! Freq_Div|Add0~9 $end
$var wire 1 2! Freq_Div|Add0~10_combout $end
$var wire 1 3! Freq_Div|Add0~11 $end
$var wire 1 4! Freq_Div|Add0~12_combout $end
$var wire 1 5! Freq_Div|Add0~13 $end
$var wire 1 6! Freq_Div|Add0~14_combout $end
$var wire 1 7! Freq_Div|Add0~15 $end
$var wire 1 8! Freq_Div|Add0~16_combout $end
$var wire 1 9! Freq_Div|Add0~17 $end
$var wire 1 :! Freq_Div|Add0~18_combout $end
$var wire 1 ;! Freq_Div|Add0~19 $end
$var wire 1 <! Freq_Div|Add0~20_combout $end
$var wire 1 =! Freq_Div|Add0~21 $end
$var wire 1 >! Freq_Div|Add0~22_combout $end
$var wire 1 ?! Freq_Div|Add0~23 $end
$var wire 1 @! Freq_Div|Add0~24_combout $end
$var wire 1 A! Freq_Div|Add0~25 $end
$var wire 1 B! Freq_Div|Add0~26_combout $end
$var wire 1 C! Freq_Div|Equal0~3_combout $end
$var wire 1 D! Freq_Div|Add0~27 $end
$var wire 1 E! Freq_Div|Add0~28_combout $end
$var wire 1 F! Freq_Div|Add0~29 $end
$var wire 1 G! Freq_Div|Add0~30_combout $end
$var wire 1 H! Freq_Div|Add0~31 $end
$var wire 1 I! Freq_Div|Add0~32_combout $end
$var wire 1 J! Freq_Div|Add0~33 $end
$var wire 1 K! Freq_Div|Add0~34_combout $end
$var wire 1 L! Freq_Div|Add0~35 $end
$var wire 1 M! Freq_Div|Add0~36_combout $end
$var wire 1 N! Freq_Div|Add0~37 $end
$var wire 1 O! Freq_Div|Add0~38_combout $end
$var wire 1 P! Freq_Div|Add0~39 $end
$var wire 1 Q! Freq_Div|Add0~40_combout $end
$var wire 1 R! Freq_Div|Add0~41 $end
$var wire 1 S! Freq_Div|Add0~42_combout $end
$var wire 1 T! Freq_Div|Add0~43 $end
$var wire 1 U! Freq_Div|Add0~44_combout $end
$var wire 1 V! Freq_Div|Add0~45 $end
$var wire 1 W! Freq_Div|Add0~46_combout $end
$var wire 1 X! Freq_Div|Add0~47 $end
$var wire 1 Y! Freq_Div|Add0~48_combout $end
$var wire 1 Z! Freq_Div|Add0~49 $end
$var wire 1 [! Freq_Div|Add0~50_combout $end
$var wire 1 \! Freq_Div|Equal0~0_combout $end
$var wire 1 ]! Freq_Div|Equal0~1_combout $end
$var wire 1 ^! Freq_Div|Equal0~2_combout $end
$var wire 1 _! Freq_Div|Equal0~4_combout $end
$var wire 1 `! Freq_Div|clk_cnt_1~0_combout $end
$var wire 1 a! Freq_Div|Equal0~5_combout $end
$var wire 1 b! Freq_Div|Equal0~6_combout $end
$var wire 1 c! Freq_Div|Equal0~7_combout $end
$var wire 1 d! Freq_Div|clk_1Hz~0_combout $end
$var wire 1 e! Freq_Div|clk_1Hz~q $end
$var wire 1 f! Freq_Div|clk_1Hz~clkctrl_outclk $end
$var wire 1 g! sec_counter|Q_01[0]~3_combout $end
$var wire 1 h! sec_counter|Q_01[2]~1_combout $end
$var wire 1 i! sec_counter|Q_01~2_combout $end
$var wire 1 j! sec_counter|Q_01~0_combout $end
$var wire 1 k! sec_01_decoder|Mux0~0_combout $end
$var wire 1 l! sec_01_decoder|Mux7~0_combout $end
$var wire 1 m! sec_01_decoder|Mux1~0_combout $end
$var wire 1 n! sec_01_decoder|Mux2~0_combout $end
$var wire 1 o! sec_01_decoder|Mux3~0_combout $end
$var wire 1 p! sec_01_decoder|Mux4~0_combout $end
$var wire 1 q! sec_01_decoder|Mux5~0_combout $end
$var wire 1 r! sec_01_decoder|Mux6~0_combout $end
$var wire 1 s! sec_counter|Equal1~0_combout $end
$var wire 1 t! sec_counter|Q_10[0]~0_combout $end
$var wire 1 u! sec_counter|Q_10[1]~4_combout $end
$var wire 1 v! sec_counter|Add0~1_combout $end
$var wire 1 w! sec_counter|Q_10[3]~3_combout $end
$var wire 1 x! sec_counter|cout~0_combout $end
$var wire 1 y! sec_counter|Q_10[3]~1_combout $end
$var wire 1 z! sec_counter|Add0~0_combout $end
$var wire 1 {! sec_counter|Q_10[2]~2_combout $end
$var wire 1 |! sec_10_decoder|Mux0~0_combout $end
$var wire 1 }! sec_10_decoder|Mux7~0_combout $end
$var wire 1 ~! sec_10_decoder|Mux1~0_combout $end
$var wire 1 !" sec_10_decoder|Mux2~0_combout $end
$var wire 1 "" sec_10_decoder|Mux3~0_combout $end
$var wire 1 #" sec_10_decoder|Mux4~0_combout $end
$var wire 1 $" sec_10_decoder|Mux5~0_combout $end
$var wire 1 %" sec_10_decoder|Mux6~0_combout $end
$var wire 1 &" min_correct~input_o $end
$var wire 1 '" min_en~combout $end
$var wire 1 (" min_counter|Q_01[0]~3_combout $end
$var wire 1 )" min_counter|Q_01[2]~0_combout $end
$var wire 1 *" min_counter|Q_01~2_combout $end
$var wire 1 +" min_counter|Q_01~1_combout $end
$var wire 1 ," alarm_min_set~input_o $end
$var wire 1 -" alarm_seting|min_alarm|Q_01[0]~3_combout $end
$var wire 1 ." alarm_seting|min_alarm|Q_01[2]~1_combout $end
$var wire 1 /" alarm_seting|min_alarm|Q_01~2_combout $end
$var wire 1 0" alarm_seting|min_alarm|Q_01~0_combout $end
$var wire 1 1" alarm_hour_set~input_o $end
$var wire 1 2" min_01[1]~1_combout $end
$var wire 1 3" min_01[2]~2_combout $end
$var wire 1 4" min_01[3]~3_combout $end
$var wire 1 5" min_01[0]~0_combout $end
$var wire 1 6" min_01_decoder|Mux0~0_combout $end
$var wire 1 7" min_01_decoder|Mux7~0_combout $end
$var wire 1 8" min_01_decoder|Mux1~0_combout $end
$var wire 1 9" min_01_decoder|Mux2~0_combout $end
$var wire 1 :" min_01_decoder|Mux3~0_combout $end
$var wire 1 ;" min_01_decoder|Mux4~0_combout $end
$var wire 1 <" min_01_decoder|Mux5~0_combout $end
$var wire 1 =" min_01_decoder|Mux6~0_combout $end
$var wire 1 >" min_counter|Equal1~0_combout $end
$var wire 1 ?" min_counter|Q_10[0]~5_combout $end
$var wire 1 @" min_counter|Q_10~4_combout $end
$var wire 1 A" sec_counter|cout~combout $end
$var wire 1 B" min_counter|Q_10[0]~2_combout $end
$var wire 1 C" min_counter|Add0~0_combout $end
$var wire 1 D" min_counter|Q_10[3]~3_combout $end
$var wire 1 E" T|tone_500~1_combout $end
$var wire 1 F" min_counter|cout~combout $end
$var wire 1 G" min_counter|Q_10~6_combout $end
$var wire 1 H" alarm_seting|min_alarm|Equal1~0_combout $end
$var wire 1 I" alarm_seting|min_alarm|Q_10[0]~0_combout $end
$var wire 1 J" alarm_seting|min_alarm|Q_10~4_combout $end
$var wire 1 K" alarm_seting|min_alarm|Q_10[0]~2_combout $end
$var wire 1 L" alarm_seting|min_alarm|Q_10[0]~3_combout $end
$var wire 1 M" alarm_seting|min_alarm|Add0~0_combout $end
$var wire 1 N" alarm_seting|min_alarm|Q_10[3]~5_combout $end
$var wire 1 O" alarm_seting|min_alarm|cout~0_combout $end
$var wire 1 P" alarm_seting|min_alarm|Q_10~1_combout $end
$var wire 1 Q" min_10[2]~2_combout $end
$var wire 1 R" min_10[0]~0_combout $end
$var wire 1 S" min_10[1]~1_combout $end
$var wire 1 T" min_10[3]~3_combout $end
$var wire 1 U" min_10_decoder|Mux0~0_combout $end
$var wire 1 V" min_10_decoder|Mux7~0_combout $end
$var wire 1 W" min_10_decoder|Mux1~0_combout $end
$var wire 1 X" min_10_decoder|Mux2~0_combout $end
$var wire 1 Y" min_10_decoder|Mux3~0_combout $end
$var wire 1 Z" min_10_decoder|Mux4~0_combout $end
$var wire 1 [" min_10_decoder|Mux5~0_combout $end
$var wire 1 \" min_10_decoder|Mux6~0_combout $end
$var wire 1 ]" hour_counter|Q_01[0]~5_combout $end
$var wire 1 ^" hour_correct~input_o $end
$var wire 1 _" hour_en~combout $end
$var wire 1 `" hour_counter|Equal2~0_combout $end
$var wire 1 a" hour_counter|Add1~0_combout $end
$var wire 1 b" hour_counter|Q_01~3_combout $end
$var wire 1 c" hour_counter|Q_10[0]~3_combout $end
$var wire 1 d" hour_counter|Q_10[3]~8_combout $end
$var wire 1 e" hour_counter|Q_10[1]~4_combout $end
$var wire 1 f" hour_counter|Q_10[2]~5_combout $end
$var wire 1 g" hour_counter|Q_10[2]~6_combout $end
$var wire 1 h" hour_counter|Q_10[3]~7_combout $end
$var wire 1 i" hour_counter|always0~0_combout $end
$var wire 1 j" hour_counter|always0~1_combout $end
$var wire 1 k" hour_counter|Q_10[3]~2_combout $end
$var wire 1 l" hour_counter|Q_01~2_combout $end
$var wire 1 m" hour_counter|Q_01~4_combout $end
$var wire 1 n" alarm_seting|hour_alarm|Q_01[0]~5_combout $end
$var wire 1 o" alarm_seting|hour_alarm|Add1~0_combout $end
$var wire 1 p" alarm_seting|hour_alarm|Q_01~3_combout $end
$var wire 1 q" alarm_seting|hour_alarm|Equal2~0_combout $end
$var wire 1 r" alarm_seting|hour_alarm|always0~2_combout $end
$var wire 1 s" alarm_seting|hour_alarm|Q_10[3]~4_combout $end
$var wire 1 t" alarm_seting|hour_alarm|Q_10[1]~6_combout $end
$var wire 1 u" alarm_seting|hour_alarm|Q_10[2]~10_combout $end
$var wire 1 v" alarm_seting|hour_alarm|Q_10[2]~5_combout $end
$var wire 1 w" alarm_seting|hour_alarm|Q_10[3]~7_combout $end
$var wire 1 x" alarm_seting|hour_alarm|always0~1_combout $end
$var wire 1 y" alarm_seting|hour_alarm|Q_10[0]~9_combout $end
$var wire 1 z" alarm_seting|hour_alarm|always0~0_combout $end
$var wire 1 {" alarm_seting|hour_alarm|Q_10[0]~8_combout $end
$var wire 1 |" alarm_seting|hour_alarm|Q_01~2_combout $end
$var wire 1 }" alarm_seting|hour_alarm|Q_01~4_combout $end
$var wire 1 ~" hour_01[2]~2_combout $end
$var wire 1 !# hour_01[0]~0_combout $end
$var wire 1 "# hour_01[1]~1_combout $end
$var wire 1 ## hour_01[3]~3_combout $end
$var wire 1 $# hour_01_decoder|Mux0~0_combout $end
$var wire 1 %# hour_01_decoder|Mux7~0_combout $end
$var wire 1 &# hour_01_decoder|Mux1~0_combout $end
$var wire 1 '# hour_01_decoder|Mux2~0_combout $end
$var wire 1 (# hour_01_decoder|Mux3~0_combout $end
$var wire 1 )# hour_01_decoder|Mux4~0_combout $end
$var wire 1 *# hour_01_decoder|Mux5~0_combout $end
$var wire 1 +# hour_01_decoder|Mux6~0_combout $end
$var wire 1 ,# hour_10[1]~1_combout $end
$var wire 1 -# hour_10[0]~0_combout $end
$var wire 1 .# hour_10[3]~3_combout $end
$var wire 1 /# hour_10[2]~2_combout $end
$var wire 1 0# hour_10_decoder|Mux0~0_combout $end
$var wire 1 1# hour_10_decoder|Mux7~0_combout $end
$var wire 1 2# hour_10_decoder|Mux1~0_combout $end
$var wire 1 3# hour_10_decoder|Mux2~0_combout $end
$var wire 1 4# hour_10_decoder|Mux3~0_combout $end
$var wire 1 5# hour_10_decoder|Mux4~0_combout $end
$var wire 1 6# hour_10_decoder|Mux5~0_combout $end
$var wire 1 7# hour_10_decoder|Mux6~0_combout $end
$var wire 1 8# T|tone_1k~0_combout $end
$var wire 1 9# T|tone_1k~1_combout $end
$var wire 1 :# T|tone_500~0_combout $end
$var wire 1 ;# T|tone_500~2_combout $end
$var wire 1 <# T|tone_500~3_combout $end
$var wire 1 =# T|tone_1k~14_combout $end
$var wire 1 ># T|tone_1k~15_combout $end
$var wire 1 ?# T|tone_1k~16_combout $end
$var wire 1 @# T|tone_1k~12_combout $end
$var wire 1 A# T|tone_1k~4_combout $end
$var wire 1 B# T|tone_1k~2_combout $end
$var wire 1 C# T|tone_1k~3_combout $end
$var wire 1 D# T|tone_1k~5_combout $end
$var wire 1 E# T|tone_1k~6_combout $end
$var wire 1 F# T|tone_1k~10_combout $end
$var wire 1 G# T|tone_1k~7_combout $end
$var wire 1 H# T|tone_1k~9_combout $end
$var wire 1 I# T|tone_1k~8_combout $end
$var wire 1 J# T|tone_1k~11_combout $end
$var wire 1 K# T|tone_1k~13_combout $end
$var wire 1 L# T|tone_1k~17_combout $end
$var wire 1 M# alarm_seting|hour_alarm|Q_10 [3] $end
$var wire 1 N# alarm_seting|hour_alarm|Q_10 [2] $end
$var wire 1 O# alarm_seting|hour_alarm|Q_10 [1] $end
$var wire 1 P# alarm_seting|hour_alarm|Q_10 [0] $end
$var wire 1 Q# sec_counter|Q_10 [3] $end
$var wire 1 R# sec_counter|Q_10 [2] $end
$var wire 1 S# sec_counter|Q_10 [1] $end
$var wire 1 T# sec_counter|Q_10 [0] $end
$var wire 1 U# hour_counter|Q_01 [3] $end
$var wire 1 V# hour_counter|Q_01 [2] $end
$var wire 1 W# hour_counter|Q_01 [1] $end
$var wire 1 X# hour_counter|Q_01 [0] $end
$var wire 1 Y# min_counter|Q_10 [3] $end
$var wire 1 Z# min_counter|Q_10 [2] $end
$var wire 1 [# min_counter|Q_10 [1] $end
$var wire 1 \# min_counter|Q_10 [0] $end
$var wire 1 ]# min_counter|Q_01 [3] $end
$var wire 1 ^# min_counter|Q_01 [2] $end
$var wire 1 _# min_counter|Q_01 [1] $end
$var wire 1 `# min_counter|Q_01 [0] $end
$var wire 1 a# sec_counter|Q_01 [3] $end
$var wire 1 b# sec_counter|Q_01 [2] $end
$var wire 1 c# sec_counter|Q_01 [1] $end
$var wire 1 d# sec_counter|Q_01 [0] $end
$var wire 1 e# hour_counter|Q_10 [3] $end
$var wire 1 f# hour_counter|Q_10 [2] $end
$var wire 1 g# hour_counter|Q_10 [1] $end
$var wire 1 h# hour_counter|Q_10 [0] $end
$var wire 1 i# alarm_seting|min_alarm|Q_10 [3] $end
$var wire 1 j# alarm_seting|min_alarm|Q_10 [2] $end
$var wire 1 k# alarm_seting|min_alarm|Q_10 [1] $end
$var wire 1 l# alarm_seting|min_alarm|Q_10 [0] $end
$var wire 1 m# alarm_seting|hour_alarm|Q_01 [3] $end
$var wire 1 n# alarm_seting|hour_alarm|Q_01 [2] $end
$var wire 1 o# alarm_seting|hour_alarm|Q_01 [1] $end
$var wire 1 p# alarm_seting|hour_alarm|Q_01 [0] $end
$var wire 1 q# alarm_seting|min_alarm|Q_01 [3] $end
$var wire 1 r# alarm_seting|min_alarm|Q_01 [2] $end
$var wire 1 s# alarm_seting|min_alarm|Q_01 [1] $end
$var wire 1 t# alarm_seting|min_alarm|Q_01 [0] $end
$var wire 1 u# Freq_Div|clk_cnt_1 [25] $end
$var wire 1 v# Freq_Div|clk_cnt_1 [24] $end
$var wire 1 w# Freq_Div|clk_cnt_1 [23] $end
$var wire 1 x# Freq_Div|clk_cnt_1 [22] $end
$var wire 1 y# Freq_Div|clk_cnt_1 [21] $end
$var wire 1 z# Freq_Div|clk_cnt_1 [20] $end
$var wire 1 {# Freq_Div|clk_cnt_1 [19] $end
$var wire 1 |# Freq_Div|clk_cnt_1 [18] $end
$var wire 1 }# Freq_Div|clk_cnt_1 [17] $end
$var wire 1 ~# Freq_Div|clk_cnt_1 [16] $end
$var wire 1 !$ Freq_Div|clk_cnt_1 [15] $end
$var wire 1 "$ Freq_Div|clk_cnt_1 [14] $end
$var wire 1 #$ Freq_Div|clk_cnt_1 [13] $end
$var wire 1 $$ Freq_Div|clk_cnt_1 [12] $end
$var wire 1 %$ Freq_Div|clk_cnt_1 [11] $end
$var wire 1 &$ Freq_Div|clk_cnt_1 [10] $end
$var wire 1 '$ Freq_Div|clk_cnt_1 [9] $end
$var wire 1 ($ Freq_Div|clk_cnt_1 [8] $end
$var wire 1 )$ Freq_Div|clk_cnt_1 [7] $end
$var wire 1 *$ Freq_Div|clk_cnt_1 [6] $end
$var wire 1 +$ Freq_Div|clk_cnt_1 [5] $end
$var wire 1 ,$ Freq_Div|clk_cnt_1 [4] $end
$var wire 1 -$ Freq_Div|clk_cnt_1 [3] $end
$var wire 1 .$ Freq_Div|clk_cnt_1 [2] $end
$var wire 1 /$ Freq_Div|clk_cnt_1 [1] $end
$var wire 1 0$ Freq_Div|clk_cnt_1 [0] $end
$upscope $end
$upscope $end
$enddefinitions $end
#0
$dumpvars
0!
1"
0#
0$
0%
0,
0+
0*
0)
0(
0'
1&
03
02
01
00
0/
0.
1-
0:
09
08
07
06
05
14
0A
0@
0?
0>
0=
0<
1;
0H
0G
0F
0E
0D
0C
1B
0O
0N
0M
0L
0K
0J
1I
0P
0Q
0R
1S
xT
1U
1V
1W
0X
0Y
0Z
0[
0\
0]
1^
0_
0`
0a
0b
0c
0d
1e
0f
0g
0h
0i
0j
0k
1l
0m
0n
0o
0p
0q
0r
1s
0t
0u
0v
0w
0x
0y
1z
0{
0|
0}
0~
0!!
0"!
1#!
0$!
0%!
0&!
0'!
1(!
0)!
0*!
1+!
0,!
0-!
0.!
1/!
00!
01!
02!
13!
04!
05!
06!
17!
08!
09!
0:!
1;!
0<!
0=!
0>!
1?!
0@!
0A!
0B!
1C!
1D!
0E!
0F!
0G!
1H!
0I!
0J!
0K!
1L!
0M!
0N!
0O!
1P!
0Q!
0R!
0S!
1T!
0U!
0V!
0W!
1X!
0Y!
0Z!
0[!
1\!
1]!
1^!
1_!
0`!
1a!
1b!
1c!
1d!
0e!
0f!
1g!
0h!
0i!
0j!
0k!
1l!
0m!
0n!
0o!
0p!
0q!
1r!
0s!
0t!
0u!
0v!
0w!
0x!
0y!
0z!
0{!
0|!
1}!
0~!
0!"
0""
0#"
0$"
1%"
0&"
0'"
1("
0)"
0*"
0+"
1,"
1-"
0."
0/"
00"
01"
02"
03"
04"
05"
06"
17"
08"
09"
0:"
0;"
0<"
1="
0>"
0?"
0@"
0A"
0B"
0C"
0D"
0E"
0F"
0G"
0H"
0I"
0J"
1K"
0L"
0M"
0N"
0O"
0P"
0Q"
0R"
0S"
0T"
0U"
1V"
0W"
0X"
0Y"
0Z"
0["
1\"
1]"
0^"
0_"
0`"
0a"
0b"
0c"
0d"
0e"
0f"
0g"
0h"
0i"
0j"
0k"
0l"
0m"
1n"
0o"
0p"
0q"
0r"
0s"
0t"
0u"
0v"
0w"
0x"
0y"
0z"
0{"
0|"
0}"
0~"
0!#
0"#
0##
0$#
1%#
0&#
0'#
0(#
0)#
0*#
1+#
0,#
0-#
0.#
0/#
00#
11#
02#
03#
04#
05#
06#
17#
08#
09#
0:#
0;#
0<#
1=#
1>#
0?#
0@#
1A#
1B#
1C#
1D#
1E#
1F#
1G#
1H#
1I#
1J#
0K#
0L#
0P#
0O#
0N#
0M#
0T#
0S#
0R#
0Q#
0X#
0W#
0V#
0U#
0\#
0[#
0Z#
0Y#
0`#
0_#
0^#
0]#
0d#
0c#
0b#
0a#
0h#
0g#
0f#
0e#
0l#
0k#
0j#
0i#
0p#
0o#
0n#
0m#
0t#
0s#
0r#
0q#
00$
0/$
0.$
0-$
0,$
0+$
0*$
0)$
0($
0'$
0&$
0%$
0$$
0#$
0"$
0!$
0~#
0}#
0|#
0{#
0z#
0y#
0x#
0w#
0v#
0u#
$end
#500
1#
1&!
1'!
1e!
1f!
1@#
18#
0d!
1K#
19#
1?#
1L#
1%!
1P
1t#
1d#
0H#
15"
0>#
0g!
10"
0-"
1q!
1p!
1o!
1k!
1i!
1X
1[
1\
1]
0J#
0?#
1C
1D
1E
1H
1<"
1;"
1:"
16"
1f
1i
1j
1k
0K#
15
16
17
1:
0L#
0%!
0P
#1000
0#
0&!
0'!
#1500
1#
1&!
1'!
0e!
0f!
0@#
08#
1d!
09#
#2000
0#
0&!
0'!
#2500
1#
1&!
1'!
1e!
1f!
1@#
18#
0d!
19#
1s#
0t#
1c#
0d#
0F#
12"
1H#
05"
0=#
1>#
1g!
1-"
0r!
0p!
0o!
1n!
0k!
0X
1Z
0[
0\
0^
0B
0D
0E
1F
0H
0="
0;"
0:"
19"
06"
0f
1h
0i
0j
0l
04
06
07
18
0:
#3000
0#
0&!
0'!
#3500
1#
1&!
1'!
0e!
0f!
0@#
08#
1d!
09#
#4000
0#
0&!
0'!
#4500
1#
1&!
1'!
1e!
1f!
1@#
18#
0d!
19#
1t#
1d#
0H#
15"
0>#
1h!
0g!
00"
1."
0-"
1p!
0n!
0i!
0Z
1\
1D
0F
1;"
09"
0h
1j
16
08
#5000
0#
0&!
0'!
#5500
1#
1&!
1'!
0e!
0f!
0@#
08#
1d!
09#
#6000
0#
0&!
0'!
#6500
1#
1&!
1'!
1e!
1f!
1@#
18#
0d!
19#
0s#
1r#
0t#
0c#
1b#
0d#
02"
0K"
13"
1H#
05"
1>#
1g!
1-"
0q!
1o!
1k!
1X
1[
0]
0C
1E
1H
0<"
1:"
16"
1f
1i
0k
05
17
1:
#7000
0#
0&!
0'!
#7500
1#
1&!
1'!
0e!
0f!
0@#
08#
1d!
09#
#8000
0#
0&!
0'!
#8500
1#
1&!
1'!
1e!
1f!
1@#
18#
0d!
19#
1t#
1d#
0H#
15"
0>#
1:#
0g!
10"
0-"
0o!
1m!
0k!
1i!
0X
1Y
0[
0E
1G
0H
0:"
18"
06"
0f
1g
0i
07
19
0:
#9000
0#
0&!
0'!
#9500
1#
1&!
1'!
0e!
0f!
0@#
08#
1d!
09#
#10000
0#
0&!
0'!
#10500
1#
1&!
1'!
1e!
1f!
1@#
18#
0d!
19#
1s#
0t#
1c#
0d#
12"
1H#
05"
1>#
1g!
1-"
0p!
0\
0D
0;"
0j
06
#11000
0#
0&!
0'!
#11500
1#
1&!
1'!
0e!
0f!
0@#
08#
1d!
09#
#12000
0#
0&!
0'!
#12500
1#
1&!
1'!
1e!
1f!
1@#
18#
0d!
19#
1t#
1d#
0H#
15"
0>#
1j!
0h!
0g!
00"
1/"
0."
0-"
1r!
1q!
1p!
1o!
0m!
0i!
0Y
1[
1\
1]
1^
1B
1C
1D
1E
0G
1="
1<"
1;"
1:"
08"
0g
1i
1j
1k
1l
14
15
16
17
09
#13000
0#
0&!
0'!
#13500
1#
1&!
1'!
0e!
0f!
0@#
08#
1d!
09#
#14000
0#
0&!
0'!
#14500
1#
1&!
1'!
1e!
1f!
1@#
18#
0d!
19#
0s#
1q#
0r#
0t#
1a#
0c#
0b#
0d#
1F#
02"
0@#
14"
1K"
03"
1H#
05"
1=#
1g!
1-"
0r!
0q!
0o!
0p!
0\
0[
0]
0^
1J#
0B
0C
0E
0D
0="
0<"
0;"
0:"
0i
0j
0k
0l
04
05
06
07
#15000
0#
0&!
0'!
#15500
1#
1&!
1'!
0e!
0f!
08#
1d!
09#
#16000
0#
0&!
0'!
#16500
1#
1&!
1'!
1e!
1f!
18#
0d!
19#
1t#
1d#
0H#
1L"
1H"
15"
1s!
0j!
0g!
0/"
0-"
1p!
1\
0J#
1y!
1D
1I"
1;"
1t!
1j
16
#17000
0#
0&!
0'!
#17500
1#
1&!
1'!
0e!
0f!
08#
1d!
09#
#18000
0#
0&!
0'!
#18500
1#
1&!
1'!
1e!
1f!
18#
0d!
19#
1l#
0q#
0t#
1T#
0a#
0d#
0G#
1R"
1@#
0L"
0H"
04"
1H#
05"
0=#
1>#
0:#
0s!
1g!
1J"
0I"
1-"
1$"
1#"
1""
1|!
1u!
0t!
1r!
0p!
0\
1^
1_
1b
1c
1d
0y!
1J
1K
1L
1O
1B
0D
1["
1Z"
1Y"
1U"
1I"
1="
0;"
0u!
1t!
0j
1l
1m
1p
1q
1r
1<
1=
1>
1A
14
06
#19000
0#
0&!
0'!
#19500
1#
1&!
1'!
0e!
0f!
0@#
08#
1d!
09#
#20000
0#
0&!
0'!
#20500
1#
1&!
1'!
1e!
1f!
1@#
18#
0d!
19#
1t#
1d#
0H#
15"
0>#
0g!
10"
0-"
1q!
1p!
1o!
1k!
1i!
1X
1[
1\
1]
1C
1D
1E
1H
1<"
1;"
1:"
16"
1f
1i
1j
1k
15
16
17
1:
#21000
0#
0&!
0'!
#21500
1#
1&!
1'!
0e!
0f!
0@#
08#
1d!
09#
#22000
0#
0&!
0'!
#22500
1#
1&!
1'!
1e!
1f!
1@#
18#
0d!
19#
1s#
0t#
1c#
0d#
0F#
12"
1H#
05"
1>#
1g!
1-"
0r!
0p!
0o!
1n!
0k!
0X
1Z
0[
0\
0^
0B
0D
0E
1F
0H
0="
0;"
0:"
19"
06"
0f
1h
0i
0j
0l
04
06
07
18
0:
#23000
0#
0&!
0'!
#23500
1#
1&!
1'!
0e!
0f!
0@#
08#
1d!
09#
#24000
0#
0&!
0'!
#24500
1#
1&!
1'!
1e!
1f!
1@#
18#
0d!
19#
1t#
1d#
0H#
15"
0>#
1h!
0g!
00"
1."
0-"
1p!
0n!
0i!
0Z
1\
1D
0F
1;"
09"
0h
1j
16
08
