Lab 1/prj/bi_register_8/simulation/qsim/bi_register_8.msim.vcd
$comment
	File created using the following command:
		vcd file bi_register_8.msim.vcd -direction
$end
$date
	Fri Apr 24 17:54:17 2020
$end
$version
	ModelSim Version 10.5b
$end
$timescale
	1ps
$end

$scope module bi_register_8_vlg_vec_tst $end
$var reg 1 ! clk $end
$var reg 1 " reset_n $end
$var wire 1 # Q [7] $end
$var wire 1 $ Q [6] $end
$var wire 1 % Q [5] $end
$var wire 1 & Q [4] $end
$var wire 1 ' Q [3] $end
$var wire 1 ( Q [2] $end
$var wire 1 ) Q [1] $end
$var wire 1 * Q [0] $end

$scope module i1 $end
$var wire 1 + gnd $end
$var wire 1 , vcc $end
$var wire 1 - unknown $end
$var tri1 1 . devclrn $end
$var tri1 1 / devpor $end
$var tri1 1 0 devoe $end
$var wire 1 1 Q[0]~output_o $end
$var wire 1 2 Q[1]~output_o $end
$var wire 1 3 Q[2]~output_o $end
$var wire 1 4 Q[3]~output_o $end
$var wire 1 5 Q[4]~output_o $end
$var wire 1 6 Q[5]~output_o $end
$var wire 1 7 Q[6]~output_o $end
$var wire 1 8 Q[7]~output_o $end
$var wire 1 9 clk~input_o $end
$var wire 1 : clk~inputclkctrl_outclk $end
$var wire 1 ; Q~7_combout $end
$var wire 1 < reset_n~input_o $end
$var wire 1 = reset_n~inputclkctrl_outclk $end
$var wire 1 > Q[7]~reg0_q $end
$var wire 1 ? Q~6_combout $end
$var wire 1 @ Q[6]~reg0_q $end
$var wire 1 A Q~5_combout $end
$var wire 1 B Q[5]~reg0_q $end
$var wire 1 C Q~4_combout $end
$var wire 1 D Q[4]~reg0_q $end
$var wire 1 E Q~3_combout $end
$var wire 1 F Q[3]~reg0_q $end
$var wire 1 G Q~2_combout $end
$var wire 1 H Q[2]~reg0_q $end
$var wire 1 I Q~1_combout $end
$var wire 1 J Q[1]~reg0_q $end
$var wire 1 K dir~0_combout $end
$var wire 1 L dir~1_combout $end
$var wire 1 M dir~2_combout $end
$var wire 1 N dir~q $end
$var wire 1 O Q~0_combout $end
$var wire 1 P Q[0]~reg0_q $end
$upscope $end
$upscope $end
$enddefinitions $end
#0
$dumpvars
1!
1"
1*
0)
0(
0'
0&
0%
0$
0#
0+
1,
x-
1.
1/
10
11
02
03
04
05
06
07
08
19
1:
0;
1<
1=
0>
0?
0@
0A
0B
0C
0D
0E
0F
0G
0H
1I
0J
1K
0L
0M
0N
1O
0P
$end
#5000
0!
09
0:
#10000
1!
19
1:
1P
1J
12
01
1L
0*
1)
0I
1G
#15000
0!
09
0:
#20000
1!
19
1:
0J
1H
13
02
0L
0)
1(
0G
1E
#25000
0!
09
0:
#30000
1!
19
1:
0H
1F
14
03
1L
0K
0(
1'
0E
1C
0L
#35000
0!
09
0:
#40000
1!
19
1:
0F
1D
15
04
0'
1&
0C
1A
#45000
0!
09
0:
#50000
1!
19
1:
0D
1B
16
05
0&
1%
0A
1?
#55000
0!
09
0:
#60000
1!
19
1:
0B
1@
17
06
1K
0%
1$
0?
1;
1L
1M
#65000
0!
09
0:
#70000
1!
19
1:
1N
0@
1>
18
07
0K
0$
1#
1?
0;
0L
#75000
0!
09
0:
#80000
1!
19
1:
1@
0>
08
17
1K
1$
0#
1A
0?
1L
#85000
0!
09
0:
#90000
1!
19
1:
1B
0@
07
16
0K
1%
0$
1C
0A
0L
#95000
0!
09
0:
#100000
1!
19
1:
1D
0B
06
15
1&
0%
1E
0C
#105000
0!
09
0:
#110000
1!
19
1:
1F
0D
05
14
1'
0&
1G
0E
#115000
0!
09
0:
#120000
1!
19
1:
1H
0F
04
13
1K
1(
0'
1I
0G
#125000
0!
09
0:
#130000
1!
19
1:
1J
0H
03
12
1L
1)
0(
0O
0I
0M
#135000
0!
09
0:
#140000
1!
19
1:
0P
0N
0J
02
11
0L
1*
0)
1I
1O
#145000
0!
09
0:
#150000
1!
19
1:
1P
1J
12
01
1L
0*
1)
0I
1G
#155000
0!
09
0:
#160000
1!
19
1:
0J
1H
13
02
0L
0)
1(
0G
1E
#165000
0!
09
0:
#170000
1!
19
1:
0H
1F
14
03
1L
0K
0(
1'
0E
1C
0L
#175000
0!
09
0:
#180000
1!
19
1:
0F
1D
15
04
0'
1&
0C
1A
#185000
0!
09
0:
#190000
0"
1!
0<
19
0=
1:
0P
0D
05
11
1K
1*
0&
1I
0A
#195000
0!
09
0:
#200000
1"
1!
1<
19
1=
1:
1P
1J
12
01
1L
0*
1)
0I
1G
#205000
0!
09
0:
#210000
1!
19
1:
0J
1H
13
02
0L
0)
1(
0G
1E
#215000
0!
09
0:
#220000
1!
19
1:
0H
1F
14
03
1L
0K
0(
1'
0E
1C
0L
#225000
0!
09
0:
#230000
1!
19
1:
0F
1D
15
04
0'
1&
0C
1A
#235000
0!
09
0:
#240000
1!
19
1:
0D
1B
16
05
0&
1%
0A
1?
#245000
0!
09
0:
#250000
1!
19
1:
0B
1@
17
06
1K
0%
1$
0?
1;
1L
1M
#255000
0!
09
0:
#260000
1!
19
1:
1N
0@
1>
18
07
0K
0$
1#
1?
0;
0L
#265000
0!
09
0:
#270000
1!
19
1:
1@
0>
08
17
1K
1$
0#
1A
0?
1L
#275000
0!
09
0:
#280000
1!
19
1:
1B
0@
07
16
0K
1%
0$
1C
0A
0L
#285000
0!
09
0:
#290000
1!
19
1:
1D
0B
06
15
1&
0%
1E
0C
#295000
0!
09
0:
#300000
1!
19
1:
1F
0D
05
14
1'
0&
1G
0E
#305000
0!
09
0:
#310000
1!
19
1:
1H
0F
04
13
1K
1(
0'
1I
0G
#315000
0!
09
0:
#320000
1!
19
1:
1J
0H
03
12
1L
1)
0(
0O
0I
0M
#325000
0!
09
0:
#330000
1!
19
1:
0P
0N
0J
02
11
0L
1*
0)
1I
1O
#335000
0!
09
0:
#340000
1!
19
1:
1P
1J
12
01
1L
0*
1)
0I
1G
#345000
0!
09
0:
#350000
1!
19
1:
0J
1H
13
02
0L
0)
1(
0G
1E
#355000
0!
09
0:
#360000
1!
19
1:
0H
1F
14
03
1L
0K
0(
1'
0E
1C
0L
#365000
0!
09
0:
#370000
1!
19
1:
0F
1D
15
04
0'
1&
0C
1A
#375000
0!
09
0:
#380000
1!
19
1:
0D
1B
16
05
0&
1%
0A
1?
#385000
0!
09
0:
#390000
1!
19
1:
0B
1@
17
06
1K
0%
1$
0?
1;
1L
1M
#395000
0!
09
0:
#400000
1!
19
1:
1N
0@
1>
18
07
0K
0$
1#
1?
0;
0L
#405000
0!
09
0:
#410000
1!
19
1:
1@
0>
08
17
1K
1$
0#
1A
0?
1L
#415000
0!
09
0:
#420000
0"
1!
0<
19
0=
1:
0N
0P
0@
07
11
0L
1*
0$
0M
1I
0A
#425000
0!
09
0:
#430000
1"
1!
1<
19
1=
1:
1P
1J
12
01
1L
0*
1)
0I
1G
#435000
0!
09
0:
#440000
1!
19
1:
0J
1H
13
02
0L
0)
1(
0G
1E
#445000
0!
09
0:
#450000
1!
19
1:
0H
1F
14
03
1L
0K
0(
1'
0E
1C
0L
#455000
0!
09
0:
#460000
1!
19
1:
0F
1D
15
04
0'
1&
0C
1A
#465000
0!
09
0:
#470000
1!
19
1:
0D
1B
16
05
0&
1%
0A
1?
#475000
0!
09
0:
#480000
1!
19
1:
0B
1@
17
06
1K
0%
1$
0?
1;
1L
1M
#485000
0!
09
0:
#490000
1!
19
1:
1N
0@
1>
18
07
0K
0$
1#
1?
0;
0L
#495000
0!
09
0:
#500000
1!
19
1:
1@
0>
08
17
1K
1$
0#
1A
0?
1L
#505000
0!
09
0:
#510000
1!
19
1:
1B
0@
07
16
0K
1%
0$
1C
0A
0L
#515000
0!
09
0:
#520000
1!
19
1:
1D
0B
06
15
1&
0%
1E
0C
#525000
0!
09
0:
#530000
0"
1!
0<
19
0=
1:
0N
0P
0D
05
11
1K
1*
0&
0M
1I
0E
#535000
0!
09
0:
#540000
1"
1!
1<
19
1=
1:
1P
1J
12
01
1L
0*
1)
0I
1G
#545000
0!
09
0:
#550000
1!
19
1:
0J
1H
13
02
0L
0)
1(
0G
1E
#555000
0!
09
0:
#560000
1!
19
1:
0H
1F
14
03
1L
0K
0(
1'
0E
1C
0L
#565000
0!
09
0:
#570000
1!
19
1:
0F
1D
15
04
0'
1&
0C
1A
#575000
0!
09
0:
#580000
1!
19
1:
0D
1B
16
05
0&
1%
0A
1?
#585000
0!
09
0:
#590000
1!
19
1:
0B
1@
17
06
1K
0%
1$
0?
1;
1L
1M
#595000
0!
09
0:
#600000
1!
19
1:
1N
0@
1>
18
07
0K
0$
1#
1?
0;
0L
#605000
0!
09
0:
#610000
1!
19
1:
1@
0>
08
17
1K
1$
0#
1A
0?
1L
#615000
0!
09
0:
#620000
1!
19
1:
1B
0@
07
16
0K
1%
0$
1C
0A
0L
#625000
0!
09
0:
#630000
1!
19
1:
1D
0B
06
15
1&
0%
1E
0C
#635000
0!
09
0:
#640000
1!
19
1:
1F
0D
05
14
1'
0&
1G
0E
#645000
0!
09
0:
#650000
1!
19
1:
1H
0F
04
13
1K
1(
0'
1I
0G
#655000
0!
09
0:
#660000
1!
19
1:
1J
0H
03
12
1L
1)
0(
0O
0I
0M
#665000
0!
09
0:
#670000
1!
19
1:
0P
0N
0J
02
11
0L
1*
0)
1I
1O
#675000
0!
09
0:
#680000
1!
19
1:
1P
1J
12
01
1L
0*
1)
0I
1G
#685000
0!
09
0:
#690000
1!
19
1:
0J
1H
13
02
0L
0)
1(
0G
1E
#695000
0!
09
0:
#700000
1!
19
1:
0H
1F
14
03
1L
0K
0(
1'
0E
1C
0L
#705000
0!
09
0:
#710000
1!
19
1:
0F
1D
15
04
0'
1&
0C
1A
#715000
0!
09
0:
#720000
1!
19
1:
0D
1B
16
05
0&
1%
0A
1?
#725000
0!
09
0:
#730000
1!
19
1:
0B
1@
17
06
1K
0%
1$
0?
1;
1L
1M
#735000
0!
09
0:
#740000
1!
19
1:
1N
0@
1>
18
07
0K
0$
1#
1?
0;
0L
#745000
0!
09
0:
#750000
1!
19
1:
1@
0>
08
17
1K
1$
0#
1A
0?
1L
#755000
0!
09
0:
#760000
1!
19
1:
1B
0@
07
16
0K
1%
0$
1C
0A
0L
#765000
0!
09
0:
#770000
1!
19
1:
1D
0B
06
15
1&
0%
1E
0C
#775000
0!
09
0:
#780000
1!
19
1:
1F
0D
05
14
1'
0&
1G
0E
#785000
0!
09
0:
#790000
1!
19
1:
1H
0F
04
13
1K
1(
0'
1I
0G
#795000
0!
09
0:
#800000
1!
19
1:
1J
0H
03
12
1L
1)
0(
0O
0I
0M
#805000
0!
09
0:
#810000
1!
19
1:
0P
0N
0J
02
11
0L
1*
0)
1I
1O
#815000
0!
09
0:
#820000
1!
19
1:
1P
1J
12
01
1L
0*
1)
0I
1G
#825000
0!
09
0:
#830000
1!
19
1:
0J
1H
13
02
0L
0)
1(
0G
1E
#835000
0!
09
0:
#840000
1!
19
1:
0H
1F
14
03
1L
0K
0(
1'
0E
1C
0L
#845000
0!
09
0:
#850000
1!
19
1:
0F
1D
15
04
0'
1&
0C
1A
#855000
0!
09
0:
#860000
1!
19
1:
0D
1B
16
05
0&
1%
0A
1?
#865000
0!
09
0:
#870000
1!
19
1:
0B
1@
17
06
1K
0%
1$
0?
1;
1L
1M
#875000
0!
09
0:
#880000
1!
19
1:
1N
0@
1>
18
07
0K
0$
1#
1?
0;
0L
#885000
0!
09
0:
#890000
1!
19
1:
1@
0>
08
17
1K
1$
0#
1A
0?
1L
#895000
0!
09
0:
#900000
1!
19
1:
1B
0@
07
16
0K
1%
0$
1C
0A
0L
#905000
0!
09
0:
#910000
1!
19
1:
1D
0B
06
15
1&
0%
1E
0C
#915000
0!
09
0:
#920000
1!
19
1:
1F
0D
05
14
1'
0&
1G
0E
#925000
0!
09
0:
#930000
1!
19
1:
1H
0F
04
13
1K
1(
0'
1I
0G
#935000
0!
09
0:
#940000
1!
19
1:
1J
0H
03
12
1L
1)
0(
0O
0I
0M
#945000
0!
09
0:
#950000
1!
19
1:
0P
0N
0J
02
11
0L
1*
0)
1I
1O
#955000
0!
09
0:
#960000
1!
19
1:
1P
1J
12
01
1L
0*
1)
0I
1G
#965000
0!
09
0:
#970000
1!
19
1:
0J
1H
13
02
0L
0)
1(
0G
1E
#975000
0!
09
0:
#980000
1!
19
1:
0H
1F
14
03
1L
0K
0(
1'
0E
1C
0L
#985000
0!
09
0:
#990000
1!
19
1:
0F
1D
15
04
0'
1&
0C
1A
#995000
0!
09
0:
